0:0:0:0:0:0:0:1 - - [04/Jun/2013:05:55:58 +0800] "GET /ws/standardization/term/here HTTP/1.1" 200 13
0:0:0:0:0:0:0:1 - - [04/Jun/2013:05:57:50 +0800] "GET /ws/standardization/term/here HTTP/1.1" 200 13
0:0:0:0:0:0:0:1 - - [04/Jun/2013:05:58:46 +0800] "GET /ws/standardization/term/here HTTP/1.1" 200 13
0:0:0:0:0:0:0:1 - - [04/Jun/2013:05:59:45 +0800] "GET /ws/standardization/term/here HTTP/1.1" 200 13
0:0:0:0:0:0:0:1 - - [04/Jun/2013:06:01:07 +0800] "GET /ws/standardization/term/here HTTP/1.1" 200 13
0:0:0:0:0:0:0:1 - - [04/Jun/2013:06:04:54 +0800] "GET /ws/standardization/term/here HTTP/1.1" 200 13
0:0:0:0:0:0:0:1 - - [04/Jun/2013:06:07:28 +0800] "GET /ws/standardization/term/here HTTP/1.1" 200 13
0:0:0:0:0:0:0:1 - - [04/Jun/2013:06:10:20 +0800] "GET /ws/standardization/term/here HTTP/1.1" 200 13
0:0:0:0:0:0:0:1 - - [04/Jun/2013:06:10:54 +0800] "GET /ws/standardization/term/here HTTP/1.1" 200 13
0:0:0:0:0:0:0:1 - - [04/Jun/2013:06:12:19 +0800] "GET /ws/standardization/term/here HTTP/1.1" 200 13
0:0:0:0:0:0:0:1 - - [04/Jun/2013:06:16:05 +0800] "GET /ws/standardization/term/here HTTP/1.1" 200 13
0:0:0:0:0:0:0:1 - - [04/Jun/2013:06:18:26 +0800] "GET /ws/standardization/term/here HTTP/1.1" 200 13
0:0:0:0:0:0:0:1 - - [04/Jun/2013:06:19:29 +0800] "GET /ws/standardization/term/here HTTP/1.1" 200 13
0:0:0:0:0:0:0:1 - - [04/Jun/2013:06:19:50 +0800] "GET /ws/standardization/term/here HTTP/1.1" 200 13
0:0:0:0:0:0:0:1 - - [04/Jun/2013:06:23:40 +0800] "GET /ws/standardization/term/here HTTP/1.1" 200 13
0:0:0:0:0:0:0:1 - - [04/Jun/2013:06:28:46 +0800] "GET /ws/standardization/term/here HTTP/1.1" 200 13
0:0:0:0:0:0:0:1 - - [04/Jun/2013:06:29:58 +0800] "GET /ws/standardization/term/here HTTP/1.1" 200 13
0:0:0:0:0:0:0:1 - - [04/Jun/2013:08:12:22 +0800] "GET /ws/standardization/term/here HTTP/1.1" 200 13
0:0:0:0:0:0:0:1 - - [04/Jun/2013:08:13:17 +0800] "GET /ws/standardization/term/here HTTP/1.1" 200 13
0:0:0:0:0:0:0:1 - - [04/Jun/2013:08:27:16 +0800] "GET /ws/standardization/term/here HTTP/1.1" 200 13
0:0:0:0:0:0:0:1 - - [04/Jun/2013:08:28:03 +0800] "GET /ws/standardization/term/here HTTP/1.1" 200 13
0:0:0:0:0:0:0:1 - - [04/Jun/2013:08:28:59 +0800] "GET /ws/standardization/term/here HTTP/1.1" 200 13
0:0:0:0:0:0:0:1 - - [04/Jun/2013:08:29:17 +0800] "GET /ws/standardization/term/here HTTP/1.1" 200 13
127.0.0.1 - - [04/Jun/2013:09:20:54 +0800] "GET / HTTP/1.1" 404 955
0:0:0:0:0:0:0:1 - - [04/Jun/2013:09:20:54 +0800] "GET /ws/standardization/term/welcome HTTP/1.1" 200 44
0:0:0:0:0:0:0:1 - - [04/Jun/2013:09:20:54 +0800] "GET /favicon.ico HTTP/1.1" 404 988
0:0:0:0:0:0:0:1 - - [04/Jun/2013:09:20:55 +0800] "GET /ws/ HTTP/1.1" 404 964
0:0:0:0:0:0:0:1 - - [04/Jun/2013:09:21:03 +0800] "GET /ws/standardization/term/parse HTTP/1.1" 200 13
0:0:0:0:0:0:0:1 - - [04/Jun/2013:09:21:19 +0800] "GET /ws/standardization/term/welcome HTTP/1.1" 200 44
0:0:0:0:0:0:0:1 - - [04/Jun/2013:09:21:19 +0800] "GET /favicon.ico HTTP/1.1" 404 988
0:0:0:0:0:0:0:1 - - [04/Jun/2013:09:22:29 +0800] "GET /ws/standardization/term/parse HTTP/1.1" 200 13
0:0:0:0:0:0:0:1 - - [04/Jun/2013:09:23:44 +0800] "GET /ws/standardization/term/parse HTTP/1.1" 200 13
0:0:0:0:0:0:0:1 - - [04/Jun/2013:09:23:54 +0800] "GET /ws/standardization/term/welcome HTTP/1.1" 200 44
0:0:0:0:0:0:0:1 - - [04/Jun/2013:09:23:54 +0800] "GET /favicon.ico HTTP/1.1" 404 988
0:0:0:0:0:0:0:1 - - [04/Jun/2013:09:24:15 +0800] "GET /ws/standardization/term/parse HTTP/1.1" 200 13
0:0:0:0:0:0:0:1 - - [04/Jun/2013:09:24:15 +0800] "GET /favicon.ico HTTP/1.1" 404 988
0:0:0:0:0:0:0:1 - - [04/Jun/2013:09:30:54 +0800] "GET /ws/standardization/term/parse HTTP/1.1" 404 1042
127.0.0.1 - - [04/Jun/2013:09:30:54 +0800] "GET / HTTP/1.1" 404 955
0:0:0:0:0:0:0:1 - - [04/Jun/2013:09:30:54 +0800] "GET /favicon.ico HTTP/1.1" 404 988
0:0:0:0:0:0:0:1 - - [04/Jun/2013:09:30:54 +0800] "GET /ws/ HTTP/1.1" 404 964
0:0:0:0:0:0:0:1 - - [04/Jun/2013:09:30:57 +0800] "GET /ws/standardization/term/welcome HTTP/1.1" 404 1048
0:0:0:0:0:0:0:1 - - [04/Jun/2013:09:30:57 +0800] "GET /favicon.ico HTTP/1.1" 404 988
0:0:0:0:0:0:0:1 - - [04/Jun/2013:09:31:08 +0800] "GET /favicon.ico HTTP/1.1" 404 988
0:0:0:0:0:0:0:1 - - [04/Jun/2013:09:31:10 +0800] "GET /favicon.ico HTTP/1.1" 404 988
0:0:0:0:0:0:0:1 - - [04/Jun/2013:09:31:11 +0800] "GET /ws/standardization/term/welcome HTTP/1.1" 404 1048
0:0:0:0:0:0:0:1 - - [04/Jun/2013:09:31:11 +0800] "GET /favicon.ico HTTP/1.1" 404 988
127.0.0.1 - - [04/Jun/2013:09:31:27 +0800] "GET / HTTP/1.1" 404 955
0:0:0:0:0:0:0:1 - - [04/Jun/2013:09:31:27 +0800] "GET /ws/standardization/term/welcome HTTP/1.1" 200 44
0:0:0:0:0:0:0:1 - - [04/Jun/2013:09:31:27 +0800] "GET /favicon.ico HTTP/1.1" 404 988
0:0:0:0:0:0:0:1 - - [04/Jun/2013:09:31:27 +0800] "GET /ws/ HTTP/1.1" 404 964
0:0:0:0:0:0:0:1 - - [04/Jun/2013:09:31:30 +0800] "GET /ws/standardization/term/parse HTTP/1.1" 200 13
0:0:0:0:0:0:0:1 - - [04/Jun/2013:09:31:35 +0800] "GET /ws/standardization/term/standardize HTTP/1.1" 200 25
127.0.0.1 - - [04/Jun/2013:09:34:26 +0800] "GET / HTTP/1.1" 404 955
0:0:0:0:0:0:0:1 - - [04/Jun/2013:09:34:26 +0800] "GET /ws/standardization/term/welcome HTTP/1.1" 404 1048
0:0:0:0:0:0:0:1 - - [04/Jun/2013:09:34:26 +0800] "GET /favicon.ico HTTP/1.1" 404 988
0:0:0:0:0:0:0:1 - - [04/Jun/2013:09:34:26 +0800] "GET /ws/ HTTP/1.1" 404 964
0:0:0:0:0:0:0:1 - - [04/Jun/2013:09:34:38 +0800] "GET /ws/standardization/term/welcome HTTP/1.1" 404 952
0:0:0:0:0:0:0:1 - - [04/Jun/2013:09:34:38 +0800] "GET /favicon.ico HTTP/1.1" 404 988
0:0:0:0:0:0:0:1 - - [04/Jun/2013:09:34:40 +0800] "GET /ws/standardization/term/welcome HTTP/1.1" 404 952
0:0:0:0:0:0:0:1 - - [04/Jun/2013:09:34:40 +0800] "GET /favicon.ico HTTP/1.1" 404 988
127.0.0.1 - - [04/Jun/2013:09:34:54 +0800] "GET / HTTP/1.1" 404 955
0:0:0:0:0:0:0:1 - - [04/Jun/2013:09:34:54 +0800] "GET /favicon.ico HTTP/1.1" 404 988
127.0.0.1 - - [04/Jun/2013:09:34:54 +0800] "GET /ws/standardization/term/welcome HTTP/1.1" 200 44
127.0.0.1 - - [04/Jun/2013:09:34:54 +0800] "GET /ws/standardization/term/welcome HTTP/1.1" 200 44
127.0.0.1 - - [04/Jun/2013:09:34:54 +0800] "GET /favicon.ico HTTP/1.1" 404 988
0:0:0:0:0:0:0:1 - - [04/Jun/2013:09:34:54 +0800] "GET /ws/ HTTP/1.1" 404 964
0:0:0:0:0:0:0:1 - - [04/Jun/2013:09:34:58 +0800] "GET /ws/standardization/term/parse HTTP/1.1" 200 13
0:0:0:0:0:0:0:1 - - [04/Jun/2013:09:35:04 +0800] "GET /ws/standardization/term/standardize HTTP/1.1" 200 25
0:0:0:0:0:0:0:1 - - [04/Jun/2013:09:36:47 +0800] "GET /ws/standardization/term/parse HTTP/1.1" 200 13
0:0:0:0:0:0:0:1 - - [04/Jun/2013:09:36:50 +0800] "GET /ws/standardization/term/standardize HTTP/1.1" 200 25
127.0.0.1 - - [04/Jun/2013:09:47:04 +0800] "GET / HTTP/1.1" 404 955
0:0:0:0:0:0:0:1 - - [04/Jun/2013:09:47:04 +0800] "GET /ws/ HTTP/1.1" 404 964
0:0:0:0:0:0:0:1 - - [04/Jun/2013:09:47:04 +0800] "GET /ws/standardization/term/welcome HTTP/1.1" 404 1048
0:0:0:0:0:0:0:1 - - [04/Jun/2013:09:47:04 +0800] "GET /favicon.ico HTTP/1.1" 404 988
127.0.0.1 - - [04/Jun/2013:09:47:22 +0800] "GET / HTTP/1.1" 404 955
127.0.0.1 - - [04/Jun/2013:09:47:22 +0800] "GET /ws/standardization/term/welcome HTTP/1.1" 200 44
127.0.0.1 - - [04/Jun/2013:09:47:22 +0800] "GET /favicon.ico HTTP/1.1" 404 988
0:0:0:0:0:0:0:1 - - [04/Jun/2013:09:47:22 +0800] "GET /ws/ HTTP/1.1" 404 964
0:0:0:0:0:0:0:1 - - [04/Jun/2013:09:47:28 +0800] "GET /ws/standardization/term/parse HTTP/1.1" 200 13
0:0:0:0:0:0:0:1 - - [04/Jun/2013:09:47:32 +0800] "GET /ws/standardization/term/standardize HTTP/1.1" 200 25
0:0:0:0:0:0:0:1 - - [04/Jun/2013:09:49:41 +0800] "GET /ws/standardization/term/welcome HTTP/1.1" 404 1048
127.0.0.1 - - [04/Jun/2013:09:49:41 +0800] "GET / HTTP/1.1" 404 955
0:0:0:0:0:0:0:1 - - [04/Jun/2013:09:49:41 +0800] "GET /favicon.ico HTTP/1.1" 404 988
0:0:0:0:0:0:0:1 - - [04/Jun/2013:09:49:41 +0800] "GET /ws/ HTTP/1.1" 404 964
0:0:0:0:0:0:0:1 - - [04/Jun/2013:09:50:01 +0800] "GET /favicon.ico HTTP/1.1" 404 988
127.0.0.1 - - [04/Jun/2013:09:50:01 +0800] "GET / HTTP/1.1" 404 955
0:0:0:0:0:0:0:1 - - [04/Jun/2013:09:50:01 +0800] "GET /ws/standardization/term/welcome HTTP/1.1" 200 44
0:0:0:0:0:0:0:1 - - [04/Jun/2013:09:50:01 +0800] "GET /favicon.ico HTTP/1.1" 404 988
0:0:0:0:0:0:0:1 - - [04/Jun/2013:09:50:01 +0800] "GET /ws/ HTTP/1.1" 404 964
0:0:0:0:0:0:0:1 - - [04/Jun/2013:09:50:08 +0800] "GET /ws/standardization/term/parse HTTP/1.1" 200 13
0:0:0:0:0:0:0:1 - - [04/Jun/2013:09:50:13 +0800] "GET /ws/standardization/term/standardize HTTP/1.1" 200 25
127.0.0.1 - - [04/Jun/2013:09:52:51 +0800] "GET / HTTP/1.1" 404 955
0:0:0:0:0:0:0:1 - - [04/Jun/2013:09:52:51 +0800] "GET /ws/standardization/term/welcome HTTP/1.1" 200 44
0:0:0:0:0:0:0:1 - - [04/Jun/2013:09:52:51 +0800] "GET /favicon.ico HTTP/1.1" 404 988
0:0:0:0:0:0:0:1 - - [04/Jun/2013:09:52:51 +0800] "GET /ws/ HTTP/1.1" 404 964
0:0:0:0:0:0:0:1 - - [04/Jun/2013:09:52:55 +0800] "GET /ws/standardization/term/parse HTTP/1.1" 200 13
0:0:0:0:0:0:0:1 - - [04/Jun/2013:09:53:00 +0800] "GET /ws/standardization/term/standardize HTTP/1.1" 200 25
127.0.0.1 - - [04/Jun/2013:10:13:24 +0800] "GET / HTTP/1.1" 404 955
0:0:0:0:0:0:0:1 - - [04/Jun/2013:10:13:24 +0800] "GET /ws/standardization/term/welcome HTTP/1.1" 404 1048
0:0:0:0:0:0:0:1 - - [04/Jun/2013:10:13:24 +0800] "GET /favicon.ico HTTP/1.1" 404 988
0:0:0:0:0:0:0:1 - - [04/Jun/2013:10:13:24 +0800] "GET /ws/ HTTP/1.1" 404 964
127.0.0.1 - - [04/Jun/2013:10:13:41 +0800] "GET / HTTP/1.1" 404 955
0:0:0:0:0:0:0:1 - - [04/Jun/2013:10:13:41 +0800] "GET /ws/standardization/term/welcome HTTP/1.1" 200 44
0:0:0:0:0:0:0:1 - - [04/Jun/2013:10:13:41 +0800] "GET /favicon.ico HTTP/1.1" 404 988
0:0:0:0:0:0:0:1 - - [04/Jun/2013:10:13:42 +0800] "GET /ws/ HTTP/1.1" 404 964
0:0:0:0:0:0:0:1 - - [04/Jun/2013:10:13:44 +0800] "GET /ws/standardization/term/parse HTTP/1.1" 200 13
0:0:0:0:0:0:0:1 - - [04/Jun/2013:10:13:49 +0800] "GET /ws/standardization/term/standardize HTTP/1.1" 200 25
127.0.0.1 - - [04/Jun/2013:10:15:38 +0800] "GET / HTTP/1.1" 404 955
0:0:0:0:0:0:0:1 - - [04/Jun/2013:10:15:38 +0800] "GET /ws/standardization/term/welcome HTTP/1.1" 404 1048
0:0:0:0:0:0:0:1 - - [04/Jun/2013:10:15:39 +0800] "GET /favicon.ico HTTP/1.1" 404 988
0:0:0:0:0:0:0:1 - - [04/Jun/2013:10:15:39 +0800] "GET /ws/ HTTP/1.1" 404 964
0:0:0:0:0:0:0:1 - - [04/Jun/2013:10:15:55 +0800] "GET /favicon.ico HTTP/1.1" 404 988
127.0.0.1 - - [04/Jun/2013:10:15:55 +0800] "GET / HTTP/1.1" 404 955
0:0:0:0:0:0:0:1 - - [04/Jun/2013:10:15:55 +0800] "GET /favicon.ico HTTP/1.1" 404 988
0:0:0:0:0:0:0:1 - - [04/Jun/2013:10:15:55 +0800] "GET /ws/ HTTP/1.1" 404 964
0:0:0:0:0:0:0:1 - - [04/Jun/2013:10:15:56 +0800] "GET /ws/standardization/term/welcome HTTP/1.1" 200 44
0:0:0:0:0:0:0:1 - - [04/Jun/2013:10:15:56 +0800] "GET /favicon.ico HTTP/1.1" 404 988
0:0:0:0:0:0:0:1 - - [04/Jun/2013:10:15:59 +0800] "GET /ws/standardization/term/parse HTTP/1.1" 200 13
0:0:0:0:0:0:0:1 - - [04/Jun/2013:10:16:04 +0800] "GET /ws/standardization/term/standardize HTTP/1.1" 200 25
0:0:0:0:0:0:0:1 - - [04/Jun/2013:10:24:09 +0800] "GET /ws/standardization/term/welcome HTTP/1.1" 404 1048
127.0.0.1 - - [04/Jun/2013:10:24:09 +0800] "GET / HTTP/1.1" 404 955
0:0:0:0:0:0:0:1 - - [04/Jun/2013:10:24:09 +0800] "GET /favicon.ico HTTP/1.1" 404 988
0:0:0:0:0:0:0:1 - - [04/Jun/2013:10:24:09 +0800] "GET /ws/ HTTP/1.1" 404 964
127.0.0.1 - - [04/Jun/2013:10:24:25 +0800] "GET /favicon.ico HTTP/1.1" 404 988
0:0:0:0:0:0:0:1 - - [04/Jun/2013:10:24:25 +0800] "GET /ws/standardization/term/welcome HTTP/1.1" 200 44
127.0.0.1 - - [04/Jun/2013:10:24:25 +0800] "GET / HTTP/1.1" 404 955
127.0.0.1 - - [04/Jun/2013:10:24:25 +0800] "GET /favicon.ico HTTP/1.1" 404 988
127.0.0.1 - - [04/Jun/2013:10:24:25 +0800] "GET /favicon.ico HTTP/1.1" 404 988
0:0:0:0:0:0:0:1 - - [04/Jun/2013:10:24:25 +0800] "GET /ws/ HTTP/1.1" 404 964
0:0:0:0:0:0:0:1 - - [04/Jun/2013:10:24:29 +0800] "GET /ws/standardization/term/parse HTTP/1.1" 200 13
0:0:0:0:0:0:0:1 - - [04/Jun/2013:10:24:34 +0800] "GET /ws/standardization/term/standardize HTTP/1.1" 200 25
0:0:0:0:0:0:0:1 - - [04/Jun/2013:10:24:51 +0800] "GET /ws/standardization/term/parse HTTP/1.1" 200 13
0:0:0:0:0:0:0:1 - - [04/Jun/2013:10:24:56 +0800] "GET /ws/standardization/term/standardize HTTP/1.1" 200 25
0:0:0:0:0:0:0:1 - - [04/Jun/2013:10:25:38 +0800] "GET /ws/standardization/term/parse HTTP/1.1" 200 13
0:0:0:0:0:0:0:1 - - [04/Jun/2013:10:25:51 +0800] "GET /ws/standardization/term/standardize HTTP/1.1" 200 25
0:0:0:0:0:0:0:1 - - [04/Jun/2013:10:26:45 +0800] "GET /ws/standardization/term/parse HTTP/1.1" 200 13
0:0:0:0:0:0:0:1 - - [04/Jun/2013:10:26:51 +0800] "GET /ws/standardization/term/standardize HTTP/1.1" 200 25
0:0:0:0:0:0:0:1 - - [04/Jun/2013:10:28:04 +0800] "GET /ws/standardization/term/parse HTTP/1.1" 200 13
0:0:0:0:0:0:0:1 - - [04/Jun/2013:10:28:10 +0800] "GET /ws/standardization/term/standardize HTTP/1.1" 404 952
0:0:0:0:0:0:0:1 - - [04/Jun/2013:10:28:25 +0800] "GET /ws/standardization/term/parse HTTP/1.1" 200 13
0:0:0:0:0:0:0:1 - - [04/Jun/2013:10:28:29 +0800] "GET /ws/standardization/term/standardize HTTP/1.1" 200 25
0:0:0:0:0:0:0:1 - - [04/Jun/2013:10:29:24 +0800] "GET /ws/standardization/term/parse HTTP/1.1" 200 13
0:0:0:0:0:0:0:1 - - [04/Jun/2013:10:29:28 +0800] "GET /ws/standardization/term/parse HTTP/1.1" 200 13
0:0:0:0:0:0:0:1 - - [04/Jun/2013:10:29:35 +0800] "GET /ws/standardization/term/standardize HTTP/1.1" 200 25
0:0:0:0:0:0:0:1 - - [04/Jun/2013:10:30:45 +0800] "GET /ws/standardization/term/parse HTTP/1.1" 200 13
0:0:0:0:0:0:0:1 - - [04/Jun/2013:10:30:49 +0800] "GET /ws/standardization/term/standardize HTTP/1.1" 200 25
0:0:0:0:0:0:0:1 - - [04/Jun/2013:10:31:25 +0800] "GET /ws/standardization/term/parse HTTP/1.1" 200 13
0:0:0:0:0:0:0:1 - - [04/Jun/2013:10:31:30 +0800] "GET /ws/standardization/term/standardize HTTP/1.1" 200 25
0:0:0:0:0:0:0:1 - - [04/Jun/2013:10:32:47 +0800] "GET /ws/standardization/term/parse HTTP/1.1" 200 13
0:0:0:0:0:0:0:1 - - [04/Jun/2013:10:32:53 +0800] "GET /ws/standardization/term/standardize HTTP/1.1" 200 25
0:0:0:0:0:0:0:1 - - [04/Jun/2013:10:34:30 +0800] "GET /ws/standardization/term/parse HTTP/1.1" 200 13
0:0:0:0:0:0:0:1 - - [04/Jun/2013:10:34:34 +0800] "GET /ws/standardization/term/standardize HTTP/1.1" 200 25
0:0:0:0:0:0:0:1 - - [04/Jun/2013:10:36:43 +0800] "GET /ws/standardization/term/parse HTTP/1.1" 200 13
0:0:0:0:0:0:0:1 - - [04/Jun/2013:10:36:47 +0800] "GET /ws/standardization/term/standardize HTTP/1.1" 200 25
0:0:0:0:0:0:0:1 - - [04/Jun/2013:10:37:33 +0800] "GET /ws/standardization/term/parse HTTP/1.1" 404 952
0:0:0:0:0:0:0:1 - - [04/Jun/2013:10:37:38 +0800] "GET /ws/standardization/term/standardize HTTP/1.1" 200 25
0:0:0:0:0:0:0:1 - - [04/Jun/2013:11:02:30 +0800] "GET /ws/standardization/term/parse HTTP/1.1" 200 13
0:0:0:0:0:0:0:1 - - [04/Jun/2013:11:03:15 +0800] "GET /ws/standardization/term/parse HTTP/1.1" 200 13
0:0:0:0:0:0:0:1 - - [04/Jun/2013:11:03:53 +0800] "GET /ws/standardization/term/parse HTTP/1.1" 200 13
0:0:0:0:0:0:0:1 - - [04/Jun/2013:11:04:34 +0800] "GET /ws/standardization/term/parse HTTP/1.1" 200 13
0:0:0:0:0:0:0:1 - - [04/Jun/2013:11:04:58 +0800] "GET /ws/standardization/term/parse HTTP/1.1" 200 13
0:0:0:0:0:0:0:1 - - [04/Jun/2013:11:06:34 +0800] "GET /ws/standardization/term/parse HTTP/1.1" 200 13
0:0:0:0:0:0:0:1 - - [04/Jun/2013:11:07:14 +0800] "GET /ws/standardization/term/parse HTTP/1.1" 200 13
0:0:0:0:0:0:0:1 - - [04/Jun/2013:11:07:51 +0800] "GET /ws/standardization/term/parse HTTP/1.1" 200 13
0:0:0:0:0:0:0:1 - - [04/Jun/2013:11:08:14 +0800] "GET /ws/standardization/term/parse HTTP/1.1" 200 13
0:0:0:0:0:0:0:1 - - [04/Jun/2013:11:22:38 +0800] "GET /ws/standardization/term/parse HTTP/1.1" 200 13
0:0:0:0:0:0:0:1 - - [04/Jun/2013:11:23:12 +0800] "GET /ws/standardization/term/parse HTTP/1.1" 200 13
0:0:0:0:0:0:0:1 - - [04/Jun/2013:11:23:16 +0800] "GET /ws/standardization/term/standardize HTTP/1.1" 200 25
0:0:0:0:0:0:0:1 - - [04/Jun/2013:11:42:38 +0800] "GET /ws/standardization/term/parse HTTP/1.1" 200 13
0:0:0:0:0:0:0:1 - - [04/Jun/2013:11:42:42 +0800] "GET /ws/standardization/term/standardize HTTP/1.1" 200 25
0:0:0:0:0:0:0:1 - - [04/Jun/2013:11:43:28 +0800] "GET /ws/standardization/term/parse HTTP/1.1" 200 13
0:0:0:0:0:0:0:1 - - [04/Jun/2013:11:43:33 +0800] "GET /ws/standardization/term/standardize HTTP/1.1" 200 25
0:0:0:0:0:0:0:1 - - [04/Jun/2013:13:00:54 +0800] "GET /ws/standardization/term/parse HTTP/1.1" 200 13
0:0:0:0:0:0:0:1 - - [04/Jun/2013:13:01:04 +0800] "GET /ws/standardization/term/standardize HTTP/1.1" 200 25
0:0:0:0:0:0:0:1 - - [04/Jun/2013:13:03:21 +0800] "GET /ws/standardization/term/parse HTTP/1.1" 200 13
0:0:0:0:0:0:0:1 - - [04/Jun/2013:13:03:26 +0800] "GET /ws/standardization/term/standardize HTTP/1.1" 200 25
0:0:0:0:0:0:0:1 - - [04/Jun/2013:13:04:33 +0800] "GET /ws/standardization/term/standardize HTTP/1.1" 200 25
0:0:0:0:0:0:0:1 - - [04/Jun/2013:13:09:57 +0800] "GET /ws/standardization/term/parse HTTP/1.1" 200 13
0:0:0:0:0:0:0:1 - - [04/Jun/2013:13:09:59 +0800] "GET /ws/standardization/term/standardize HTTP/1.1" 200 25
0:0:0:0:0:0:0:1 - - [04/Jun/2013:13:14:04 +0800] "GET /ws/standardization/term/standardize HTTP/1.1" 200 25
0:0:0:0:0:0:0:1 - - [04/Jun/2013:13:14:38 +0800] "GET /ws/standardization/term/parse HTTP/1.1" 200 13
0:0:0:0:0:0:0:1 - - [04/Jun/2013:13:14:41 +0800] "GET /ws/standardization/term/standardize HTTP/1.1" 200 25
0:0:0:0:0:0:0:1 - - [04/Jun/2013:13:14:57 +0800] "GET /ws/standardization/term/standardize HTTP/1.1" 200 25
0:0:0:0:0:0:0:1 - - [04/Jun/2013:13:15:22 +0800] "GET /ws/standardization/term/parse HTTP/1.1" 200 13
0:0:0:0:0:0:0:1 - - [04/Jun/2013:13:15:27 +0800] "GET /ws/standardization/term/standardize HTTP/1.1" 200 25
0:0:0:0:0:0:0:1 - - [04/Jun/2013:13:17:41 +0800] "GET /ws/standardization/term/standardize HTTP/1.1" 200 25
0:0:0:0:0:0:0:1 - - [04/Jun/2013:13:20:42 +0800] "GET /ws/standardization/term/standardize HTTP/1.1" 200 25
0:0:0:0:0:0:0:1 - - [04/Jun/2013:13:23:11 +0800] "GET /ws/standardization/term/parse HTTP/1.1" 200 13
0:0:0:0:0:0:0:1 - - [04/Jun/2013:13:23:15 +0800] "GET /ws/standardization/term/standardize HTTP/1.1" 200 25
0:0:0:0:0:0:0:1 - - [04/Jun/2013:13:24:00 +0800] "GET /ws/standardization/term/parse HTTP/1.1" 200 13
0:0:0:0:0:0:0:1 - - [04/Jun/2013:13:24:15 +0800] "GET /ws/standardization/term/standardize HTTP/1.1" 200 25
0:0:0:0:0:0:0:1 - - [04/Jun/2013:13:27:16 +0800] "GET /ws/standardization/term/parse HTTP/1.1" 200 13
0:0:0:0:0:0:0:1 - - [04/Jun/2013:13:27:34 +0800] "GET /ws/standardization/term/parse HTTP/1.1" 200 13
0:0:0:0:0:0:0:1 - - [04/Jun/2013:13:27:37 +0800] "GET /ws/standardization/term/standardize HTTP/1.1" 200 25
0:0:0:0:0:0:0:1 - - [04/Jun/2013:13:33:57 +0800] "GET /ws/standardization/term/parse HTTP/1.1" 200 13
0:0:0:0:0:0:0:1 - - [04/Jun/2013:13:34:01 +0800] "GET /ws/standardization/term/standardize HTTP/1.1" 200 25
0:0:0:0:0:0:0:1 - - [04/Jun/2013:13:35:38 +0800] "GET /ws/standardization/term/parse HTTP/1.1" 200 13
0:0:0:0:0:0:0:1 - - [04/Jun/2013:13:35:53 +0800] "GET /ws/standardization/term/parse HTTP/1.1" 200 13
0:0:0:0:0:0:0:1 - - [04/Jun/2013:13:35:56 +0800] "GET /ws/standardization/term/standardize HTTP/1.1" 200 25
0:0:0:0:0:0:0:1 - - [04/Jun/2013:13:38:05 +0800] "GET /ws/standardization/term/parse HTTP/1.1" 200 13
0:0:0:0:0:0:0:1 - - [04/Jun/2013:13:38:30 +0800] "GET /ws/standardization/term/parse HTTP/1.1" 200 13
0:0:0:0:0:0:0:1 - - [04/Jun/2013:13:38:34 +0800] "GET /ws/standardization/term/standardize HTTP/1.1" 200 25
0:0:0:0:0:0:0:1 - - [04/Jun/2013:13:40:16 +0800] "GET /ws/standardization/term/parse HTTP/1.1" 200 13
0:0:0:0:0:0:0:1 - - [04/Jun/2013:13:40:23 +0800] "GET /ws/standardization/term/standardize HTTP/1.1" 200 25
0:0:0:0:0:0:0:1 - - [04/Jun/2013:13:43:02 +0800] "GET /ws/standardization/term/parse HTTP/1.1" 200 13
0:0:0:0:0:0:0:1 - - [04/Jun/2013:13:43:05 +0800] "GET /ws/standardization/term/standardize HTTP/1.1" 200 25
0:0:0:0:0:0:0:1 - - [04/Jun/2013:13:43:43 +0800] "GET /ws/standardization/term/parse HTTP/1.1" 404 952
0:0:0:0:0:0:0:1 - - [04/Jun/2013:13:46:02 +0800] "GET /ws/standardization/term/standardize HTTP/1.1" 200 25
0:0:0:0:0:0:0:1 - - [04/Jun/2013:13:58:17 +0800] "GET /ws/standardization/term/parse HTTP/1.1" 500 4150
0:0:0:0:0:0:0:1 - - [04/Jun/2013:13:58:20 +0800] "GET /ws/standardization/term/standardize HTTP/1.1" 500 4150
0:0:0:0:0:0:0:1 - - [04/Jun/2013:13:58:33 +0800] "GET /ws/standardization/term/parse HTTP/1.1" 500 4150
0:0:0:0:0:0:0:1 - - [04/Jun/2013:13:58:41 +0800] "GET /ws/standardization/term/standardize HTTP/1.1" 404 952
0:0:0:0:0:0:0:1 - - [04/Jun/2013:13:58:55 +0800] "GET /ws/standardization/term/parse HTTP/1.1" 200 13
0:0:0:0:0:0:0:1 - - [04/Jun/2013:13:58:58 +0800] "GET /ws/standardization/term/standardize HTTP/1.1" 200 25
0:0:0:0:0:0:0:1 - - [04/Jun/2013:14:01:15 +0800] "GET /ws/standardization/term/parse HTTP/1.1" 200 13
0:0:0:0:0:0:0:1 - - [04/Jun/2013:14:01:18 +0800] "GET /ws/standardization/term/standardize HTTP/1.1" 200 25
0:0:0:0:0:0:0:1 - - [04/Jun/2013:14:02:25 +0800] "GET /ws/standardization/term/parse HTTP/1.1" 200 13
0:0:0:0:0:0:0:1 - - [04/Jun/2013:14:02:31 +0800] "GET /ws/standardization/term/standardize HTTP/1.1" 404 952
0:0:0:0:0:0:0:1 - - [04/Jun/2013:14:02:42 +0800] "GET /ws/standardization/term/parse HTTP/1.1" 200 13
0:0:0:0:0:0:0:1 - - [04/Jun/2013:14:02:47 +0800] "GET /ws/standardization/term/standardize HTTP/1.1" 200 25
0:0:0:0:0:0:0:1 - - [04/Jun/2013:14:14:14 +0800] "GET /ws/standardization/term/parse HTTP/1.1" 200 13
0:0:0:0:0:0:0:1 - - [04/Jun/2013:14:14:19 +0800] "GET /ws/standardization/term/standardize HTTP/1.1" 404 952
0:0:0:0:0:0:0:1 - - [04/Jun/2013:14:14:27 +0800] "GET /ws/standardization/term/parse HTTP/1.1" 200 13
0:0:0:0:0:0:0:1 - - [04/Jun/2013:14:14:31 +0800] "GET /ws/standardization/term/standardize HTTP/1.1" 200 25
0:0:0:0:0:0:0:1 - - [04/Jun/2013:14:18:24 +0800] "GET /ws/standardization/term/parse HTTP/1.1" 200 13
0:0:0:0:0:0:0:1 - - [04/Jun/2013:14:18:33 +0800] "GET /ws/standardization/term/standardize HTTP/1.1" 200 25
0:0:0:0:0:0:0:1 - - [04/Jun/2013:14:18:56 +0800] "GET /ws/standardization/term/parse HTTP/1.1" 200 13
0:0:0:0:0:0:0:1 - - [04/Jun/2013:14:18:59 +0800] "GET /ws/standardization/term/standardize HTTP/1.1" 200 25
0:0:0:0:0:0:0:1 - - [04/Jun/2013:14:20:45 +0800] "GET /ws/standardization/term/parse HTTP/1.1" 404 952
0:0:0:0:0:0:0:1 - - [04/Jun/2013:14:20:49 +0800] "GET /ws/standardization/term/standardize HTTP/1.1" 200 25
0:0:0:0:0:0:0:1 - - [04/Jun/2013:14:21:53 +0800] "GET /ws/standardization/term/parse HTTP/1.1" 200 13
0:0:0:0:0:0:0:1 - - [04/Jun/2013:14:21:56 +0800] "GET /ws/standardization/term/standardize HTTP/1.1" 200 25
0:0:0:0:0:0:0:1 - - [04/Jun/2013:14:35:34 +0800] "GET /ws/standardization/term/parse HTTP/1.1" 200 13
0:0:0:0:0:0:0:1 - - [04/Jun/2013:14:35:37 +0800] "GET /ws/standardization/term/standardize HTTP/1.1" 200 25
0:0:0:0:0:0:0:1 - - [04/Jun/2013:14:37:26 +0800] "GET /ws/standardization/term/parse HTTP/1.1" 200 13
0:0:0:0:0:0:0:1 - - [04/Jun/2013:14:37:30 +0800] "GET /ws/standardization/term/standardize HTTP/1.1" 200 25
0:0:0:0:0:0:0:1 - - [04/Jun/2013:14:37:59 +0800] "GET /ws/standardization/term/parse HTTP/1.1" 200 13
0:0:0:0:0:0:0:1 - - [04/Jun/2013:14:38:05 +0800] "GET /ws/standardization/term/standardize HTTP/1.1" 200 25
0:0:0:0:0:0:0:1 - - [04/Jun/2013:14:40:57 +0800] "GET /ws/standardization/term/parse HTTP/1.1" 200 13
0:0:0:0:0:0:0:1 - - [04/Jun/2013:14:41:03 +0800] "GET /ws/standardization/term/standardize HTTP/1.1" 404 952
0:0:0:0:0:0:0:1 - - [04/Jun/2013:14:43:30 +0800] "GET /ws/standardization/term/parse HTTP/1.1" 200 13
0:0:0:0:0:0:0:1 - - [04/Jun/2013:14:43:31 +0800] "GET /ws/standardization/term/standardize HTTP/1.1" 200 25
0:0:0:0:0:0:0:1 - - [04/Jun/2013:14:47:10 +0800] "GET /ws/standardization/term/parse HTTP/1.1" 404 952
0:0:0:0:0:0:0:1 - - [04/Jun/2013:14:47:12 +0800] "GET /ws/standardization/term/standardize HTTP/1.1" 200 25
0:0:0:0:0:0:0:1 - - [04/Jun/2013:14:51:57 +0800] "GET /ws/standardization/term/parse HTTP/1.1" 200 13
0:0:0:0:0:0:0:1 - - [04/Jun/2013:14:52:39 +0800] "GET /ws/standardization/term/parse HTTP/1.1" 200 13
0:0:0:0:0:0:0:1 - - [04/Jun/2013:14:53:04 +0800] "GET /ws/standardization/term/parse HTTP/1.1" 200 13
0:0:0:0:0:0:0:1 - - [04/Jun/2013:14:53:31 +0800] "GET /ws/standardization/term/parse HTTP/1.1" 200 13
0:0:0:0:0:0:0:1 - - [04/Jun/2013:14:53:59 +0800] "GET /ws/standardization/term/parse HTTP/1.1" 200 13
0:0:0:0:0:0:0:1 - - [04/Jun/2013:14:54:57 +0800] "GET /ws/standardization/term/parse HTTP/1.1" 200 13
0:0:0:0:0:0:0:1 - - [04/Jun/2013:14:57:07 +0800] "GET /ws/standardization/term/parse HTTP/1.1" 200 13
0:0:0:0:0:0:0:1 - - [04/Jun/2013:14:59:06 +0800] "GET /ws/standardization/term/parse HTTP/1.1" 200 13
0:0:0:0:0:0:0:1 - - [04/Jun/2013:14:59:40 +0800] "GET /ws/standardization/term/parse HTTP/1.1" 200 13
0:0:0:0:0:0:0:1 - - [04/Jun/2013:15:00:55 +0800] "GET /ws/standardization/term/parse HTTP/1.1" 200 13
0:0:0:0:0:0:0:1 - - [04/Jun/2013:15:01:07 +0800] "GET /ws/standardization/term/parse HTTP/1.1" 200 13
0:0:0:0:0:0:0:1 - - [04/Jun/2013:15:02:49 +0800] "GET /ws/standardization/term/standardize HTTP/1.1" 200 25
0:0:0:0:0:0:0:1 - - [04/Jun/2013:15:03:02 +0800] "GET /ws/standardization/term/standardize HTTP/1.1" 200 25
0:0:0:0:0:0:0:1 - - [04/Jun/2013:15:04:48 +0800] "GET /ws/standardization/term/standardize HTTP/1.1" 200 25
0:0:0:0:0:0:0:1 - - [04/Jun/2013:15:05:17 +0800] "GET /ws/standardization/term/standardize HTTP/1.1" 200 25
0:0:0:0:0:0:0:1 - - [04/Jun/2013:15:08:24 +0800] "GET /ws/standardization/term/standardize HTTP/1.1" 200 25
0:0:0:0:0:0:0:1 - - [04/Jun/2013:15:10:56 +0800] "GET /ws/standardization/term/standardize HTTP/1.1" 200 25
0:0:0:0:0:0:0:1 - - [04/Jun/2013:15:15:55 +0800] "GET /ws/standardization/term/standardize HTTP/1.1" 200 25
0:0:0:0:0:0:0:1 - - [04/Jun/2013:15:21:59 +0800] "GET /ws/standardization/term/standardize HTTP/1.1" 200 25
0:0:0:0:0:0:0:1 - - [04/Jun/2013:15:22:39 +0800] "GET /ws/standardization/term/standardize HTTP/1.1" 200 25
0:0:0:0:0:0:0:1 - - [04/Jun/2013:15:24:06 +0800] "GET /ws/standardization/term/standardize HTTP/1.1" 200 25
0:0:0:0:0:0:0:1 - - [04/Jun/2013:15:24:41 +0800] "GET /ws/standardization/term/standardize HTTP/1.1" 200 25
0:0:0:0:0:0:0:1 - - [04/Jun/2013:15:25:14 +0800] "GET /ws/standardization/term/standardize HTTP/1.1" 200 25
0:0:0:0:0:0:0:1 - - [04/Jun/2013:15:25:33 +0800] "GET /ws/standardization/term/standardize HTTP/1.1" 200 25
0:0:0:0:0:0:0:1 - - [04/Jun/2013:15:25:51 +0800] "GET /ws/standardization/term/standardize HTTP/1.1" 200 25
0:0:0:0:0:0:0:1 - - [04/Jun/2013:15:26:57 +0800] "GET /ws/standardization/term/standardize HTTP/1.1" 200 25
0:0:0:0:0:0:0:1 - - [04/Jun/2013:16:49:32 +0800] "GET /ws/standardization/term/standardize HTTP/1.1" 200 25
0:0:0:0:0:0:0:1 - - [04/Jun/2013:16:50:55 +0800] "GET /ws/standardization/term/standardize HTTP/1.1" 200 25
0:0:0:0:0:0:0:1 - - [04/Jun/2013:21:50:07 +0800] "GET /ws/standardization/term/standardize HTTP/1.1" 200 25
0:0:0:0:0:0:0:1 - - [04/Jun/2013:21:51:07 +0800] "GET /ws/standardization/term/standardize HTTP/1.1" 200 25
0:0:0:0:0:0:0:1 - - [04/Jun/2013:22:02:38 +0800] "GET /ws/standardization/term/standardize HTTP/1.1" 200 25
0:0:0:0:0:0:0:1 - - [04/Jun/2013:22:03:36 +0800] "GET /ws/standardization/term/standardize HTTP/1.1" 200 25
0:0:0:0:0:0:0:1 - - [04/Jun/2013:22:03:46 +0800] "GET /ws/standardization/term/standardize HTTP/1.1" 200 25
0:0:0:0:0:0:0:1 - - [04/Jun/2013:22:03:57 +0800] "GET /ws/standardization/term/standardize HTTP/1.1" 200 25
0:0:0:0:0:0:0:1 - - [04/Jun/2013:22:13:49 +0800] "GET /ws/standardization/term/standardize HTTP/1.1" 200 25
0:0:0:0:0:0:0:1 - - [04/Jun/2013:22:17:04 +0800] "GET /ws/standardization/term/standardize HTTP/1.1" 200 25
