what,kind,bundleId,bundleVersion,description,time
started,bundle,org.eclipse.wst.html.ui,1.0.504.v201101122108,"org.eclipse.wst.html.ui",1369293746594
started,bundle,org.eclipse.wst.sse.core,1.1.504.v201102160550,"org.eclipse.wst.sse.core",1369293746609
started,bundle,org.eclipse.jst.jsf.common,1.2.2.v201101211220,"org.eclipse.jst.jsf.common",1369293746631
started,bundle,org.eclipse.jst.jsf.core,1.3.3.v201102021253,"org.eclipse.jst.jsf.core",1369293746638
started,bundle,org.eclipse.jst.jsp.core,1.2.304.v201102160550,"org.eclipse.jst.jsp.core",1369293746675
started,bundle,org.eclipse.wst.wsdl.validation,1.1.501.v201004201506,"org.eclipse.wst.wsdl.validation",1369293746964
started,bundle,org.eclipse.wst.xsd.core,1.1.503.v201011121919,"org.eclipse.wst.xsd.core",1369293746971
started,bundle,org.eclipse.wst.xsl.core,1.1.0.v201004290328,"org.eclipse.wst.xsl.core",1369293746989
started,bundle,org.eclipse.wst.common.uriresolver,1.1.401.v201004280700,"org.eclipse.wst.common.uriresolver",1369293747146
started,bundle,org.eclipse.wst.xsl.exslt.core,1.0.0.v201005240426,"org.eclipse.wst.xsl.exslt.core",1369293747184
started,bundle,org.eclipse.wst.internet.cache,1.0.400.v201004280700,"org.eclipse.wst.internet.cache",1369293747350
activated,view,org.eclipse.ui.ide,3.6.2.M20101201-0800,"org.eclipse.ui.views.AllMarkersView",1369293751151
activated,view,org.eclipse.ui.navigator.resources,3.4.202.M20101124-0800,"org.eclipse.ui.navigator.ProjectExplorer",1369293758045
deactivated,workbench,org.eclipse.ui.workbench,3.6.2.M20110210-1200,"",1369293765607
activated,workbench,org.eclipse.ui.workbench,3.6.2.M20110210-1200,"",1369293803084
started,bundle,org.eclipse.wst.ws.service.policy.ui,1.0.202.v201004211732,"org.eclipse.wst.ws.service.policy.ui",1369293803662
started,bundle,org.eclipse.wst.ws.service.policy,1.0.204.v201011011834,"org.eclipse.wst.ws.service.policy",1369293803665
started,bundle,org.eclipse.wst.command.env,1.0.409.v201004211805,"org.eclipse.wst.command.env",1369293803678
started,bundle,org.eclipse.wst.ws,1.1.203.v201004211805,"org.eclipse.wst.ws",1369293803679
started,bundle,org.eclipse.compare.core,3.5.101.R36x_v20100929-0800,"org.eclipse.compare.core",1369293803781
started,bundle,org.eclipse.compare,3.5.101.R36x_v20100929-0800,"org.eclipse.compare",1369293803786
executed,command,org.eclipse.ui,3.6.2.M20110203-1100,"org.eclipse.ui.file.refresh",1369293805747
deactivated,workbench,org.eclipse.ui.workbench,3.6.2.M20110210-1200,"",1369293815039
activated,workbench,org.eclipse.ui.workbench,3.6.2.M20110210-1200,"",1369293818158
executed,command,org.eclipse.ui,3.6.2.M20110203-1100,"org.eclipse.ui.file.refresh",1369293819914
deactivated,workbench,org.eclipse.ui.workbench,3.6.2.M20110210-1200,"",1369293829205
activated,workbench,org.eclipse.ui.workbench,3.6.2.M20110210-1200,"",1369293845033
executed,command,org.eclipse.ui,3.6.2.M20110203-1100,"org.eclipse.ui.file.import",1369293845039
started,bundle,org.eclipse.ltk.core.refactoring,3.5.101.r362_v20101117-0800,"org.eclipse.ltk.core.refactoring",1369293847134
started,bundle,org.eclipse.ltk.ui.refactoring,3.5.0.v20100526-0800,"org.eclipse.ltk.ui.refactoring",1369293847136
deactivated,workbench,org.eclipse.ui.workbench,3.6.2.M20110210-1200,"",1369293847230
error,log,,,"Problems occurred when invoking code from plug-in: ""org.eclipse.ui.navigator"".",1369293848403
error,log,,,"An exception occurred invoking extension: org.eclipse.jst.jee.ui.web for object P/ws",1369293848406
activated,workbench,org.eclipse.ui.workbench,3.6.2.M20110210-1200,"",1369293848466
executed,command,org.eclipse.ltk.ui.refactoring,3.5.0.v20100526-0800,"org.eclipse.ltk.ui.refactoring.commands.deleteResources",1369293848469
executed,command,org.eclipse.ui,3.6.2.M20110203-1100,"org.eclipse.ui.edit.delete",1369293848469
deactivated,workbench,org.eclipse.ui.workbench,3.6.2.M20110210-1200,"",1369293850669
activated,workbench,org.eclipse.ui.workbench,3.6.2.M20110210-1200,"",1369293856811
executed,command,org.eclipse.ui,3.6.2.M20110203-1100,"org.eclipse.ui.file.import",1369293856818
activated,view,org.eclipse.ui.ide,3.6.2.M20101201-0800,"org.eclipse.ui.views.AllMarkersView",1369293860811
activated,view,org.eclipse.ui.navigator.resources,3.4.202.M20101124-0800,"org.eclipse.ui.navigator.ProjectExplorer",1369293862220
deactivated,workbench,org.eclipse.ui.workbench,3.6.2.M20110210-1200,"",1369293878013
error,log,,,"Problems occurred when invoking code from plug-in: ""org.eclipse.ui.navigator"".",1369293879016
error,log,,,"An exception occurred invoking extension: org.eclipse.jst.jee.ui.web for object P/ws",1369293879017
activated,workbench,org.eclipse.ui.workbench,3.6.2.M20110210-1200,"",1369293879073
executed,command,org.eclipse.ltk.ui.refactoring,3.5.0.v20100526-0800,"org.eclipse.ltk.ui.refactoring.commands.deleteResources",1369293879077
executed,command,org.eclipse.ui,3.6.2.M20110203-1100,"org.eclipse.ui.edit.delete",1369293879077
started,bundle,org.eclipse.wst.common.project.facet.ui,1.4.103.v201101271715,"org.eclipse.wst.common.project.facet.ui",1369293888166
started,bundle,org.eclipse.wst.web.ui,1.1.400.v201004141630,"org.eclipse.wst.web.ui",1369293888170
started,bundle,org.eclipse.jst.common.project.facet.ui,1.4.102.v201008182136,"org.eclipse.jst.common.project.facet.ui",1369293888347
deactivated,workbench,org.eclipse.ui.workbench,3.6.2.M20110210-1200,"",1369293888400
activated,workbench,org.eclipse.ui.workbench,3.6.2.M20110210-1200,"",1369293916950
deactivated,workbench,org.eclipse.ui.workbench,3.6.2.M20110210-1200,"",1369293921749
activated,workbench,org.eclipse.ui.workbench,3.6.2.M20110210-1200,"",1369293956496
executed,command,org.eclipse.ui,3.6.2.M20110203-1100,"org.eclipse.ui.file.refresh",1369293958567
deactivated,workbench,org.eclipse.ui.workbench,3.6.2.M20110210-1200,"",1369293958867
activated,workbench,org.eclipse.ui.workbench,3.6.2.M20110210-1200,"",1369293958976
activated,view,org.eclipse.ui.ide,3.6.2.M20101201-0800,"org.eclipse.ui.views.AllMarkersView",1369293962851
started,bundle,org.eclipse.jdt.junit,3.6.1.r361_v20100825-0800,"org.eclipse.jdt.junit",1369293963636
activated,view,org.eclipse.ui.navigator.resources,3.4.202.M20101124-0800,"org.eclipse.ui.navigator.ProjectExplorer",1369293982065
started,bundle,org.eclipse.debug.ui,3.6.3.v20101201_r362,"org.eclipse.debug.ui",1369293985617
deactivated,workbench,org.eclipse.ui.workbench,3.6.2.M20110210-1200,"",1369293986505
started,bundle,org.eclipse.jst.server.tomcat.core,1.1.203.v20110201,"org.eclipse.jst.server.tomcat.core",1369293993845
started,bundle,org.eclipse.jst.server.tomcat.ui,1.1.200.v20100418,"org.eclipse.jst.server.tomcat.ui",1369293993877
started,bundle,org.eclipse.jst.server.generic.core,1.0.606.v20100512,"org.eclipse.jst.server.generic.core",1369293993885
started,bundle,org.eclipse.jst.server.preview.adapter,1.1.100.v20100308,"org.eclipse.jst.server.preview.adapter",1369293993889
opened,view,org.eclipse.wst.server.ui,1.1.207.v20110119,"org.eclipse.wst.server.ui.ServersView",1369294019956
activated,workbench,org.eclipse.ui.workbench,3.6.2.M20110210-1200,"",1369294020212
executed,command,org.eclipse.wst.server.ui,1.1.207.v20110119,"org.eclipse.wst.server.launchShortcut.run",1369294020270
started,bundle,org.eclipse.jdt.debug,3.6.1.v20100715_r361,"org.eclipse.jdt.debug",1369294020582
started,bundle,org.eclipse.core.variables,3.2.400.v20100505,"org.eclipse.core.variables",1369294020603
started,bundle,org.eclipse.m2e.launching,1.3.1.20130219-1424,"org.eclipse.m2e.launching",1369294020671
started,bundle,org.eclipse.jdt.debug.ui,3.5.2.v20100928a_r362,"org.eclipse.jdt.debug.ui",1369294020785
opened,view,org.eclipse.ui.console,3.5.0.v20100526,"org.eclipse.ui.console.ConsoleView",1369294021610
started,bundle,org.eclipse.ui.browser,3.3.1.r36_20101216,"org.eclipse.ui.browser",1369294024657
opened,editor,org.eclipse.ui.browser,3.3.1.r36_20101216,"org.eclipse.ui.browser.editor",1369294024766
activated,editor,org.eclipse.ui.browser,3.3.1.r36_20101216,"org.eclipse.ui.browser.editor",1369294024783
deactivated,workbench,org.eclipse.ui.workbench,3.6.2.M20110210-1200,"",1369294027129
activated,workbench,org.eclipse.ui.workbench,3.6.2.M20110210-1200,"",1369294028609
executed,command,org.eclipse.ui,3.6.2.M20110203-1100,"org.eclipse.ui.edit.copy",1369294030373
deactivated,workbench,org.eclipse.ui.workbench,3.6.2.M20110210-1200,"",1369294032207
activated,workbench,org.eclipse.ui.workbench,3.6.2.M20110210-1200,"",1369360228047
activated,view,org.eclipse.ui.navigator.resources,3.4.202.M20101124-0800,"org.eclipse.ui.navigator.ProjectExplorer",1369360231291
started,bundle,org.eclipse.wst.xml.ui,1.1.103.v201101122108,"org.eclipse.wst.xml.ui",1369360249604
started,bundle,org.eclipse.jst.jsp.ui,1.1.503.v201101262228,"org.eclipse.jst.jsp.ui",1369360253255
started,bundle,org.eclipse.wst.dtd.ui,1.0.500.v201004290328,"org.eclipse.wst.dtd.ui",1369360254012
started,bundle,org.eclipse.wst.xsl.ui,1.1.1.v201009091745,"org.eclipse.wst.xsl.ui",1369360254243
opened,editor,org.eclipse.wst.xml.ui,1.1.103.v201101122108,"org.eclipse.wst.xml.ui.internal.tabletree.XMLMultiPageEditorPart",1369360254545
activated,editor,org.eclipse.wst.xml.ui,1.1.103.v201101122108,"org.eclipse.wst.xml.ui.internal.tabletree.XMLMultiPageEditorPart",1369360256876
activated,view,org.eclipse.ui.navigator.resources,3.4.202.M20101124-0800,"org.eclipse.ui.navigator.ProjectExplorer",1369360256991
deactivated,workbench,org.eclipse.ui.workbench,3.6.2.M20110210-1200,"",1369360297116
activated,workbench,org.eclipse.ui.workbench,3.6.2.M20110210-1200,"",1369361510075
activated,view,org.eclipse.ui.console,3.5.0.v20100526,"org.eclipse.ui.console.ConsoleView",1369361510544
started,bundle,org.eclipse.wst.xsl.debug.ui,1.0.101.v201102111830,"org.eclipse.wst.xsl.debug.ui",1369361511386
deactivated,workbench,org.eclipse.ui.workbench,3.6.2.M20110210-1200,"",1369361520786
activated,workbench,org.eclipse.ui.workbench,3.6.2.M20110210-1200,"",1369361532515
deactivated,workbench,org.eclipse.ui.workbench,3.6.2.M20110210-1200,"",1369361544960
started,bundle,org.eclipse.wst.html.core,1.1.404.v201101190004,"org.eclipse.wst.html.core",1369361579636
started,bundle,org.eclipse.wst.css.core,1.1.402.v201102031915,"org.eclipse.wst.css.core",1369361580035
started,bundle,org.eclipse.jst.jsf.facelet.ui,1.0.0.v20100602,"org.eclipse.jst.jsf.facelet.ui",1369361580214
started,bundle,org.eclipse.jst.jsf.ui,1.3.1.v20100906,"org.eclipse.jst.jsf.ui",1369361580323
started,bundle,org.eclipse.wst.jsdt.web.ui,1.0.304.v201012160349,"org.eclipse.wst.jsdt.web.ui",1369361580372
started,bundle,org.eclipse.wst.css.ui,1.0.502.v201101122002,"org.eclipse.wst.css.ui",1369361580415
started,bundle,org.eclipse.wst.jsdt.web.core,1.0.304.v201102160550,"org.eclipse.wst.jsdt.web.core",1369361580538
activated,workbench,org.eclipse.ui.workbench,3.6.2.M20110210-1200,"",1369362128346
executed,command,org.eclipse.ui,3.6.2.M20110203-1100,"org.eclipse.ui.newWizard",1369362128365
opened,editor,org.eclipse.wst.html.ui,1.0.504.v201101122108,"org.eclipse.wst.html.core.htmlsource.source",1369362128650
activated,editor,org.eclipse.wst.html.ui,1.0.504.v201101122108,"org.eclipse.wst.html.core.htmlsource.source",1369362129043
activated,view,org.eclipse.ui.navigator.resources,3.4.202.M20101124-0800,"org.eclipse.ui.navigator.ProjectExplorer",1369362137881
activated,editor,org.eclipse.wst.html.ui,1.0.504.v201101122108,"org.eclipse.wst.html.core.htmlsource.source",1369362143762
activated,view,org.eclipse.ui.navigator.resources,3.4.202.M20101124-0800,"org.eclipse.ui.navigator.ProjectExplorer",1369362158120
deactivated,workbench,org.eclipse.ui.workbench,3.6.2.M20110210-1200,"",1369362164793
closed,editor,org.eclipse.wst.html.ui,1.0.504.v201101122108,"org.eclipse.wst.html.core.htmlsource.source",1369362166026
activated,workbench,org.eclipse.ui.workbench,3.6.2.M20110210-1200,"",1369362166130
executed,command,org.eclipse.ui,3.6.2.M20110203-1100,"org.eclipse.ui.edit.delete",1369362166184
deactivated,workbench,org.eclipse.ui.workbench,3.6.2.M20110210-1200,"",1369362168934
activated,workbench,org.eclipse.ui.workbench,3.6.2.M20110210-1200,"",1369362280510
opened,editor,org.eclipse.jdt.ui,3.6.2.r362_v20110203,"org.eclipse.jdt.ui.CompilationUnitEditor",1369362284375
activated,editor,org.eclipse.jdt.ui,3.6.2.r362_v20110203,"org.eclipse.jdt.ui.CompilationUnitEditor",1369362285106
activated,view,org.eclipse.ui.views,3.5.1.M20110202-0800,"org.eclipse.ui.views.ContentOutline",1369362302717
activated,editor,org.eclipse.jdt.ui,3.6.2.r362_v20110203,"org.eclipse.jdt.ui.CompilationUnitEditor",1369362302764
started,bundle,org.eclipse.search,3.6.0.v20100520-0800,"org.eclipse.search",1369362303006
opened,view,org.eclipse.mylyn.tasks.ui,3.4.3.v20110131-0100-e3x,"org.eclipse.mylyn.tasks.ui.views.tasks",1369362303417
closed,view,org.eclipse.ui.views,3.5.1.M20110202-0800,"org.eclipse.ui.views.ContentOutline",1369362303459
started,bundle,org.eclipse.mylyn.ide.ant,3.4.0.v20100608-0100-e3x,"org.eclipse.mylyn.ide.ant",1369362303510
started,bundle,org.eclipse.mylyn.java.ui,3.4.0.v20100608-0100-e3x,"org.eclipse.mylyn.java.ui",1369362303533
started,bundle,org.eclipse.mylyn.resources.ui,3.4.1.v20100909-0100-e3x,"org.eclipse.mylyn.resources.ui",1369362303561
started,bundle,org.eclipse.mylyn.wikitext.tasks.ui,1.3.1.v20100823-0100-e3x,"org.eclipse.mylyn.wikitext.tasks.ui",1369362303616
started,bundle,org.eclipse.mylyn.wikitext.core,1.3.1.v20100823-0100-e3x,"org.eclipse.mylyn.wikitext.core",1369362303634
started,bundle,org.eclipse.ant.ui,3.5.0.v20100427,"org.eclipse.ant.ui",1369362303646
activated,view,org.eclipse.mylyn.tasks.ui,3.4.3.v20110131-0100-e3x,"org.eclipse.mylyn.tasks.ui.views.tasks",1369362305345
activated,editor,org.eclipse.jdt.ui,3.6.2.r362_v20110203,"org.eclipse.jdt.ui.CompilationUnitEditor",1369362305371
closed,view,org.eclipse.mylyn.tasks.ui,3.4.3.v20110131-0100-e3x,"org.eclipse.mylyn.tasks.ui.views.tasks",1369362305384
started,bundle,org.eclipse.jst.ws.jaxws.ui,1.0.1.v201008232129,"org.eclipse.jst.ws.jaxws.ui",1369362348927
started,bundle,org.eclipse.pde.launching,3.6.0.v20100601,"org.eclipse.pde.launching",1369362348968
started,bundle,org.eclipse.ui.views.log,1.0.100.v20110210_r362,"org.eclipse.ui.views.log",1369362348983
started,bundle,org.eclipse.pde.ui,3.6.1.v20110210_r362,"org.eclipse.pde.ui",1369362348988
executed,command,org.eclipse.ui.ide,3.6.2.M20101201-0800,"org.eclipse.jdt.ui.edit.text.java.correction.assist.proposals",1369362349130
executed,command,org.eclipse.ui,3.6.2.M20110203-1100,"org.eclipse.ui.edit.selectAll",1369362370203
executed,command,org.eclipse.ui,3.6.2.M20110203-1100,"org.eclipse.ui.file.save",1369362370344
started,bundle,org.eclipse.mylyn.java.tasks,3.4.0.v20100608-0100-e3x,"org.eclipse.mylyn.java.tasks",1369362372844
deactivated,workbench,org.eclipse.ui.workbench,3.6.2.M20110210-1200,"",1369362379780
activated,workbench,org.eclipse.ui.workbench,3.6.2.M20110210-1200,"",1369381507009
deactivated,workbench,org.eclipse.ui.workbench,3.6.2.M20110210-1200,"",1369381577052
activated,workbench,org.eclipse.ui.workbench,3.6.2.M20110210-1200,"",1369383965780
activated,view,org.eclipse.ui.navigator.resources,3.4.202.M20101124-0800,"org.eclipse.ui.navigator.ProjectExplorer",1369383972473
activated,editor,org.eclipse.jdt.ui,3.6.2.r362_v20110203,"org.eclipse.jdt.ui.CompilationUnitEditor",1369383976791
activated,view,org.eclipse.ui.navigator.resources,3.4.202.M20101124-0800,"org.eclipse.ui.navigator.ProjectExplorer",1369383979174
activated,editor,org.eclipse.jdt.ui,3.6.2.r362_v20110203,"org.eclipse.jdt.ui.CompilationUnitEditor",1369383979453
activated,view,org.eclipse.ui.navigator.resources,3.4.202.M20101124-0800,"org.eclipse.ui.navigator.ProjectExplorer",1369383981513
activated,editor,org.eclipse.jdt.ui,3.6.2.r362_v20110203,"org.eclipse.jdt.ui.CompilationUnitEditor",1369383981702
deactivated,workbench,org.eclipse.ui.workbench,3.6.2.M20110210-1200,"",1369383985517
activated,workbench,org.eclipse.ui.workbench,3.6.2.M20110210-1200,"",1369383985569
activated,view,org.eclipse.ui.navigator.resources,3.4.202.M20101124-0800,"org.eclipse.ui.navigator.ProjectExplorer",1369383985733
activated,editor,org.eclipse.jdt.ui,3.6.2.r362_v20110203,"org.eclipse.jdt.ui.CompilationUnitEditor",1369383985894
activated,view,org.eclipse.ui.navigator.resources,3.4.202.M20101124-0800,"org.eclipse.ui.navigator.ProjectExplorer",1369383989622
activated,editor,org.eclipse.jdt.ui,3.6.2.r362_v20110203,"org.eclipse.jdt.ui.CompilationUnitEditor",1369383999339
activated,view,org.eclipse.ui.navigator.resources,3.4.202.M20101124-0800,"org.eclipse.ui.navigator.ProjectExplorer",1369383999394
opened,editor,org.eclipse.jdt.ui,3.6.2.r362_v20110203,"org.eclipse.jdt.ui.CompilationUnitEditor",1369384015119
activated,editor,org.eclipse.jdt.ui,3.6.2.r362_v20110203,"org.eclipse.jdt.ui.CompilationUnitEditor",1369384017759
deactivated,workbench,org.eclipse.ui.workbench,3.6.2.M20110210-1200,"",1369384017853
activated,workbench,org.eclipse.ui.workbench,3.6.2.M20110210-1200,"",1369384091125
deactivated,workbench,org.eclipse.ui.workbench,3.6.2.M20110210-1200,"",1369384127317
activated,workbench,org.eclipse.ui.workbench,3.6.2.M20110210-1200,"",1369384483659
deactivated,workbench,org.eclipse.ui.workbench,3.6.2.M20110210-1200,"",1369384541642
activated,workbench,org.eclipse.ui.workbench,3.6.2.M20110210-1200,"",1369384542044
executed,command,org.eclipse.ui,3.6.2.M20110203-1100,"org.eclipse.ui.file.save",1369384542084
executed,command,org.eclipse.ui,3.6.2.M20110203-1100,"org.eclipse.ui.edit.undo",1369384569195
executed,command,org.eclipse.ui,3.6.2.M20110203-1100,"org.eclipse.ui.edit.undo",1369384570057
executed,command,org.eclipse.ui,3.6.2.M20110203-1100,"org.eclipse.ui.file.save",1369384572421
deactivated,workbench,org.eclipse.ui.workbench,3.6.2.M20110210-1200,"",1369384597824
activated,workbench,org.eclipse.ui.workbench,3.6.2.M20110210-1200,"",1369384927499
deactivated,workbench,org.eclipse.ui.workbench,3.6.2.M20110210-1200,"",1369384929090
activated,workbench,org.eclipse.ui.workbench,3.6.2.M20110210-1200,"",1369384930317
deactivated,workbench,org.eclipse.ui.workbench,3.6.2.M20110210-1200,"",1369384937244
activated,workbench,org.eclipse.ui.workbench,3.6.2.M20110210-1200,"",1369384958494
executed,command,org.eclipse.ui,3.6.2.M20110203-1100,"org.eclipse.ui.file.save",1369384970096
executed,command,org.eclipse.ui,3.6.2.M20110203-1100,"org.eclipse.ui.file.save",1369384976849
deactivated,workbench,org.eclipse.ui.workbench,3.6.2.M20110210-1200,"",1369385005364
activated,workbench,org.eclipse.ui.workbench,3.6.2.M20110210-1200,"",1369385020288
deactivated,workbench,org.eclipse.ui.workbench,3.6.2.M20110210-1200,"",1369385027063
activated,workbench,org.eclipse.ui.workbench,3.6.2.M20110210-1200,"",1369385048505
executed,command,org.eclipse.ui,3.6.2.M20110203-1100,"org.eclipse.ui.edit.paste",1369385049982
executed,command,,,"AUTOGEN:::org.eclipse.jdt.internal.ui.CompilationUnitEditor.ruler.actions/org.eclipse.jdt.internal.ui.javaeditor.JavaSelectRulerAction",1369385053664
executed,command,org.eclipse.ui,3.6.2.M20110203-1100,"org.eclipse.ui.edit.cut",1369385064500
executed,command,org.eclipse.ui,3.6.2.M20110203-1100,"org.eclipse.ui.edit.paste",1369385067677
executed,command,org.eclipse.ui,3.6.2.M20110203-1100,"org.eclipse.ui.file.save",1369385068602
activated,view,org.eclipse.ui.ide,3.6.2.M20101201-0800,"org.eclipse.ui.views.AllMarkersView",1369385076688
activated,view,org.eclipse.ui.console,3.5.0.v20100526,"org.eclipse.ui.console.ConsoleView",1369385076839
activated,view,org.eclipse.ui.ide,3.6.2.M20101201-0800,"org.eclipse.ui.views.AllMarkersView",1369385078321
deactivated,workbench,org.eclipse.ui.workbench,3.6.2.M20110210-1200,"",1369385084727
activated,workbench,org.eclipse.ui.workbench,3.6.2.M20110210-1200,"",1369385086195
deactivated,workbench,org.eclipse.ui.workbench,3.6.2.M20110210-1200,"",1369385086652
activated,workbench,org.eclipse.ui.workbench,3.6.2.M20110210-1200,"",1369385092263
activated,editor,org.eclipse.jdt.ui,3.6.2.r362_v20110203,"org.eclipse.jdt.ui.CompilationUnitEditor",1369385092452
deactivated,workbench,org.eclipse.ui.workbench,3.6.2.M20110210-1200,"",1369385092695
activated,workbench,org.eclipse.ui.workbench,3.6.2.M20110210-1200,"",1369385092806
executed,command,org.eclipse.ui.ide,3.6.2.M20101201-0800,"org.eclipse.jdt.ui.edit.text.java.correction.assist.proposals",1369385092899
executed,command,,,"AUTOGEN:::org.eclipse.jdt.internal.ui.CompilationUnitEditor.ruler.actions/org.eclipse.jdt.internal.ui.javaeditor.JavaSelectRulerAction",1369385102655
deactivated,workbench,org.eclipse.ui.workbench,3.6.2.M20110210-1200,"",1369385108143
activated,workbench,org.eclipse.ui.workbench,3.6.2.M20110210-1200,"",1369385112170
executed,command,org.eclipse.ui,3.6.2.M20110203-1100,"org.eclipse.ui.file.save",1369385114739
activated,view,org.eclipse.ui.ide,3.6.2.M20101201-0800,"org.eclipse.ui.views.AllMarkersView",1369385120050
activated,view,org.eclipse.ui.console,3.5.0.v20100526,"org.eclipse.ui.console.ConsoleView",1369385120127
activated,view,org.eclipse.ui.ide,3.6.2.M20101201-0800,"org.eclipse.ui.views.AllMarkersView",1369385121112
activated,view,org.eclipse.ui.console,3.5.0.v20100526,"org.eclipse.ui.console.ConsoleView",1369385121178
activated,view,org.eclipse.wst.server.ui,1.1.207.v20110119,"org.eclipse.wst.server.ui.ServersView",1369385123098
deactivated,workbench,org.eclipse.ui.workbench,3.6.2.M20110210-1200,"",1369385128468
activated,workbench,org.eclipse.ui.workbench,3.6.2.M20110210-1200,"",1369385130437
error,log,,,"Task failed",1369385130686
error,log,,,"Could not delete C:\\Users\\ncarumba\\repos\\project-pedigree-import\\web_service\\.metadata\\.plugins\\org.eclipse.wst.server.core\\tmp0\\wtpwebapps\\ws\\WEB-INF\\lib\\jersey-bundle-1.14.jar. May be locked by another process.",1369385130797
deactivated,workbench,org.eclipse.ui.workbench,3.6.2.M20110210-1200,"",1369385130998
activated,workbench,org.eclipse.ui.workbench,3.6.2.M20110210-1200,"",1369385131132
activated,view,org.eclipse.ui.ide,3.6.2.M20101201-0800,"org.eclipse.ui.views.AllMarkersView",1369385131174
activated,view,org.eclipse.ui.console,3.5.0.v20100526,"org.eclipse.ui.console.ConsoleView",1369385131291
deactivated,workbench,org.eclipse.ui.workbench,3.6.2.M20110210-1200,"",1369385132006
activated,workbench,org.eclipse.ui.workbench,3.6.2.M20110210-1200,"",1369385132136
activated,view,org.eclipse.ui.ide,3.6.2.M20101201-0800,"org.eclipse.ui.views.AllMarkersView",1369385133148
activated,view,org.eclipse.ui.console,3.5.0.v20100526,"org.eclipse.ui.console.ConsoleView",1369385133360
activated,view,org.eclipse.ui.ide,3.6.2.M20101201-0800,"org.eclipse.ui.views.AllMarkersView",1369385134393
deactivated,workbench,org.eclipse.ui.workbench,3.6.2.M20110210-1200,"",1369385138709
activated,workbench,org.eclipse.ui.workbench,3.6.2.M20110210-1200,"",1369385138851
deactivated,workbench,org.eclipse.ui.workbench,3.6.2.M20110210-1200,"",1369385138883
activated,workbench,org.eclipse.ui.workbench,3.6.2.M20110210-1200,"",1369385141627
executed,command,org.eclipse.ui.ide,3.6.2.M20101201-0800,"org.eclipse.jdt.ui.edit.text.java.correction.assist.proposals",1369385141642
activated,editor,org.eclipse.jdt.ui,3.6.2.r362_v20110203,"org.eclipse.jdt.ui.CompilationUnitEditor",1369385144562
executed,command,,,"AUTOGEN:::org.eclipse.jdt.internal.ui.CompilationUnitEditor.ruler.actions/org.eclipse.jdt.internal.ui.javaeditor.JavaSelectRulerAction",1369385145111
executed,command,org.eclipse.ui,3.6.2.M20110203-1100,"org.eclipse.ui.edit.cut",1369385152130
executed,command,org.eclipse.ui,3.6.2.M20110203-1100,"org.eclipse.ui.edit.paste",1369385155034
deactivated,workbench,org.eclipse.ui.workbench,3.6.2.M20110210-1200,"",1369385160879
activated,workbench,org.eclipse.ui.workbench,3.6.2.M20110210-1200,"",1369385170170
executed,command,org.eclipse.ui,3.6.2.M20110203-1100,"org.eclipse.ui.edit.cut",1369385172356
executed,command,org.eclipse.ui,3.6.2.M20110203-1100,"org.eclipse.ui.edit.paste",1369385174327
executed,command,org.eclipse.ui,3.6.2.M20110203-1100,"org.eclipse.ui.edit.copy",1369385177767
executed,command,org.eclipse.ui,3.6.2.M20110203-1100,"org.eclipse.ui.edit.paste",1369385180192
executed,command,org.eclipse.ui,3.6.2.M20110203-1100,"org.eclipse.ui.file.save",1369385180940
deactivated,workbench,org.eclipse.ui.workbench,3.6.2.M20110210-1200,"",1369385194043
activated,workbench,org.eclipse.ui.workbench,3.6.2.M20110210-1200,"",1369385197996
started,bundle,org.eclipse.mylyn.ide.ui,3.4.0.v20100608-0100-e3x,"org.eclipse.mylyn.ide.ui",1369385202918
started,bundle,org.eclipse.pde.api.tools,1.0.202.v20100820_r361,"org.eclipse.pde.api.tools",1369385203522
started,bundle,org.eclipse.pde.api.tools.ui,1.0.201.v20100820_r361,"org.eclipse.pde.api.tools.ui",1369385203525
executed,command,org.eclipse.ui,3.6.2.M20110203-1100,"org.eclipse.ui.file.save",1369385238644
deactivated,workbench,org.eclipse.ui.workbench,3.6.2.M20110210-1200,"",1369385253205
activated,workbench,org.eclipse.ui.workbench,3.6.2.M20110210-1200,"",1369385283894
activated,view,org.eclipse.ui.navigator.resources,3.4.202.M20101124-0800,"org.eclipse.ui.navigator.ProjectExplorer",1369385283933
activated,editor,org.eclipse.jdt.ui,3.6.2.r362_v20110203,"org.eclipse.jdt.ui.CompilationUnitEditor",1369385289004
activated,view,org.eclipse.ui.navigator.resources,3.4.202.M20101124-0800,"org.eclipse.ui.navigator.ProjectExplorer",1369385290282
deactivated,workbench,org.eclipse.ui.workbench,3.6.2.M20110210-1200,"",1369385295419
activated,workbench,org.eclipse.ui.workbench,3.6.2.M20110210-1200,"",1369385297409
executed,command,org.eclipse.wst.server.ui,1.1.207.v20110119,"org.eclipse.wst.server.launchShortcut.run",1369385297477
