what,kind,bundleId,bundleVersion,description,time
activated,editor,org.eclipse.ui.browser,3.3.1.r36_20101216,"org.eclipse.ui.browser.editor",1369880490260
activated,editor,org.eclipse.jdt.ui,3.6.2.r362_v20110203,"org.eclipse.jdt.ui.CompilationUnitEditor",1369880490344
closed,editor,org.eclipse.ui.browser,3.3.1.r36_20101216,"org.eclipse.ui.browser.editor",1369880490344
opened,editor,org.eclipse.ui.browser,3.3.1.r36_20101216,"org.eclipse.ui.browser.editor",1369880495986
activated,editor,org.eclipse.ui.browser,3.3.1.r36_20101216,"org.eclipse.ui.browser.editor",1369880496026
deactivated,workbench,org.eclipse.ui.workbench,3.6.2.M20110210-1200,"",1369880497407
activated,workbench,org.eclipse.ui.workbench,3.6.2.M20110210-1200,"",1369880526313
deactivated,workbench,org.eclipse.ui.workbench,3.6.2.M20110210-1200,"",1369880528754
activated,workbench,org.eclipse.ui.workbench,3.6.2.M20110210-1200,"",1369880708567
activated,editor,org.eclipse.jdt.ui,3.6.2.r362_v20110203,"org.eclipse.jdt.ui.CompilationUnitEditor",1369880709903
activated,editor,org.eclipse.jdt.ui,3.6.2.r362_v20110203,"org.eclipse.jdt.ui.CompilationUnitEditor",1369880711681
executed,command,org.eclipse.ui.workbench.texteditor,3.6.1.r361_v20100714-0800,"org.eclipse.ui.edit.text.select.lineEnd",1369880717145
executed,command,org.eclipse.ui,3.6.2.M20110203-1100,"org.eclipse.ui.edit.cut",1369880744796
executed,command,org.eclipse.ui,3.6.2.M20110203-1100,"org.eclipse.ui.edit.paste",1369880748906
executed,command,org.eclipse.ui,3.6.2.M20110203-1100,"org.eclipse.ui.file.save",1369880755142
deactivated,workbench,org.eclipse.ui.workbench,3.6.2.M20110210-1200,"",1369880757492
activated,workbench,org.eclipse.ui.workbench,3.6.2.M20110210-1200,"",1369880780663
deactivated,workbench,org.eclipse.ui.workbench,3.6.2.M20110210-1200,"",1369880782788
activated,workbench,org.eclipse.ui.workbench,3.6.2.M20110210-1200,"",1369881115208
executed,command,org.eclipse.ui,3.6.2.M20110203-1100,"org.eclipse.ui.edit.delete",1369881122106
executed,command,org.eclipse.ui,3.6.2.M20110203-1100,"org.eclipse.ui.edit.delete",1369881122237
executed,command,org.eclipse.ui,3.6.2.M20110203-1100,"org.eclipse.ui.file.save",1369881123099
executed,command,org.eclipse.ui,3.6.2.M20110203-1100,"org.eclipse.ui.edit.delete",1369881128035
executed,command,org.eclipse.ui,3.6.2.M20110203-1100,"org.eclipse.ui.file.save",1369881129402
deactivated,workbench,org.eclipse.ui.workbench,3.6.2.M20110210-1200,"",1369881131145
activated,workbench,org.eclipse.ui.workbench,3.6.2.M20110210-1200,"",1369881150791
activated,view,org.eclipse.ui.navigator.resources,3.4.202.M20101124-0800,"org.eclipse.ui.navigator.ProjectExplorer",1369881150812
activated,editor,org.eclipse.jdt.ui,3.6.2.r362_v20110203,"org.eclipse.jdt.ui.CompilationUnitEditor",1369881151539
activated,view,org.eclipse.ui.navigator.resources,3.4.202.M20101124-0800,"org.eclipse.ui.navigator.ProjectExplorer",1369881155590
started,bundle,org.eclipse.jst.ws.jaxws.dom.integration,1.0.0.v201004171919,"org.eclipse.jst.ws.jaxws.dom.integration",1369881155738
started,bundle,org.eclipse.jst.ws.jaxws.dom.ui,1.0.0.v201004171919,"org.eclipse.jst.ws.jaxws.dom.ui",1369881155739
started,bundle,org.eclipse.jst.j2ee.ejb,1.1.402.v201102071010,"org.eclipse.jst.j2ee.ejb",1369881155815
started,bundle,org.eclipse.jst.j2ee.jca,1.1.400.v201005270700,"org.eclipse.jst.j2ee.jca",1369881155833
started,bundle,org.eclipse.jst.jee.ejb,1.0.301.v201007070821,"org.eclipse.jst.jee.ejb",1369881155866
started,bundle,org.eclipse.jst.jee.web,1.0.301.v201007070907,"org.eclipse.jst.jee.web",1369881155872
started,bundle,org.eclipse.xsd,2.6.0.v20100914-1218,"org.eclipse.xsd",1369881156026
activated,editor,org.eclipse.jdt.ui,3.6.2.r362_v20110203,"org.eclipse.jdt.ui.CompilationUnitEditor",1369881225748
activated,view,org.eclipse.ui.navigator.resources,3.4.202.M20101124-0800,"org.eclipse.ui.navigator.ProjectExplorer",1369881230390
started,bundle,org.eclipse.mylyn.resources.ui,3.4.1.v20100909-0100-e3x,"org.eclipse.mylyn.resources.ui",1369881230554
deactivated,workbench,org.eclipse.ui.workbench,3.6.2.M20110210-1200,"",1369881231681
activated,workbench,org.eclipse.ui.workbench,3.6.2.M20110210-1200,"",1369881299531
activated,view,org.eclipse.ui.console,3.5.0.v20100526,"org.eclipse.ui.console.ConsoleView",1369881299540
deactivated,workbench,org.eclipse.ui.workbench,3.6.2.M20110210-1200,"",1369881390233
activated,workbench,org.eclipse.ui.workbench,3.6.2.M20110210-1200,"",1369881394275
deactivated,workbench,org.eclipse.ui.workbench,3.6.2.M20110210-1200,"",1369881396228
activated,workbench,org.eclipse.ui.workbench,3.6.2.M20110210-1200,"",1369881932455
activated,editor,org.eclipse.jdt.ui,3.6.2.r362_v20110203,"org.eclipse.jdt.ui.CompilationUnitEditor",1369881933348
executed,command,org.eclipse.ui.ide,3.6.2.M20101201-0800,"org.eclipse.jdt.ui.edit.text.java.correction.assist.proposals",1369881943087
deactivated,workbench,org.eclipse.ui.workbench,3.6.2.M20110210-1200,"",1369881968787
activated,workbench,org.eclipse.ui.workbench,3.6.2.M20110210-1200,"",1369882012932
executed,command,org.eclipse.ui,3.6.2.M20110203-1100,"org.eclipse.ui.edit.paste",1369882014653
executed,command,org.eclipse.ui,3.6.2.M20110203-1100,"org.eclipse.ui.file.save",1369882020881
deactivated,workbench,org.eclipse.ui.workbench,3.6.2.M20110210-1200,"",1369882034556
activated,workbench,org.eclipse.ui.workbench,3.6.2.M20110210-1200,"",1369882035466
deactivated,workbench,org.eclipse.ui.workbench,3.6.2.M20110210-1200,"",1369882035891
activated,workbench,org.eclipse.ui.workbench,3.6.2.M20110210-1200,"",1369882062829
executed,command,org.eclipse.ui,3.6.2.M20110203-1100,"org.eclipse.ui.edit.paste",1369882069997
deactivated,workbench,org.eclipse.ui.workbench,3.6.2.M20110210-1200,"",1369882076147
activated,workbench,org.eclipse.ui.workbench,3.6.2.M20110210-1200,"",1369882077735
deactivated,workbench,org.eclipse.ui.workbench,3.6.2.M20110210-1200,"",1369882078091
activated,workbench,org.eclipse.ui.workbench,3.6.2.M20110210-1200,"",1369882081205
deactivated,workbench,org.eclipse.ui.workbench,3.6.2.M20110210-1200,"",1369882084298
activated,workbench,org.eclipse.ui.workbench,3.6.2.M20110210-1200,"",1369882086092
deactivated,workbench,org.eclipse.ui.workbench,3.6.2.M20110210-1200,"",1369882094338
activated,workbench,org.eclipse.ui.workbench,3.6.2.M20110210-1200,"",1369882126186
executed,command,org.eclipse.ui,3.6.2.M20110203-1100,"org.eclipse.ui.edit.paste",1369882130749
executed,command,org.eclipse.ui,3.6.2.M20110203-1100,"org.eclipse.ui.file.save",1369882137760
deactivated,workbench,org.eclipse.ui.workbench,3.6.2.M20110210-1200,"",1369882141010
activated,workbench,org.eclipse.ui.workbench,3.6.2.M20110210-1200,"",1369882142048
deactivated,workbench,org.eclipse.ui.workbench,3.6.2.M20110210-1200,"",1369882142386
activated,workbench,org.eclipse.ui.workbench,3.6.2.M20110210-1200,"",1369882144346
deactivated,workbench,org.eclipse.ui.workbench,3.6.2.M20110210-1200,"",1369882150644
activated,workbench,org.eclipse.ui.workbench,3.6.2.M20110210-1200,"",1369882155514
deactivated,workbench,org.eclipse.ui.workbench,3.6.2.M20110210-1200,"",1369882162786
activated,workbench,org.eclipse.ui.workbench,3.6.2.M20110210-1200,"",1369882176645
deactivated,workbench,org.eclipse.ui.workbench,3.6.2.M20110210-1200,"",1369882186714
activated,workbench,org.eclipse.ui.workbench,3.6.2.M20110210-1200,"",1369882187917
deactivated,workbench,org.eclipse.ui.workbench,3.6.2.M20110210-1200,"",1369882188241
activated,workbench,org.eclipse.ui.workbench,3.6.2.M20110210-1200,"",1369882192568
deactivated,workbench,org.eclipse.ui.workbench,3.6.2.M20110210-1200,"",1369882195307
activated,workbench,org.eclipse.ui.workbench,3.6.2.M20110210-1200,"",1369882205106
deactivated,workbench,org.eclipse.ui.workbench,3.6.2.M20110210-1200,"",1369882207001
activated,workbench,org.eclipse.ui.workbench,3.6.2.M20110210-1200,"",1369882210298
deactivated,workbench,org.eclipse.ui.workbench,3.6.2.M20110210-1200,"",1369882213682
activated,workbench,org.eclipse.ui.workbench,3.6.2.M20110210-1200,"",1369882216358
deactivated,workbench,org.eclipse.ui.workbench,3.6.2.M20110210-1200,"",1369882225673
activated,workbench,org.eclipse.ui.workbench,3.6.2.M20110210-1200,"",1369882231620
executed,command,org.eclipse.ui,3.6.2.M20110203-1100,"org.eclipse.ui.file.save",1369882240911
deactivated,workbench,org.eclipse.ui.workbench,3.6.2.M20110210-1200,"",1369882242163
activated,workbench,org.eclipse.ui.workbench,3.6.2.M20110210-1200,"",1369882251669
deactivated,workbench,org.eclipse.ui.workbench,3.6.2.M20110210-1200,"",1369882276638
activated,workbench,org.eclipse.ui.workbench,3.6.2.M20110210-1200,"",1369882446224
deactivated,workbench,org.eclipse.ui.workbench,3.6.2.M20110210-1200,"",1369882449335
activated,workbench,org.eclipse.ui.workbench,3.6.2.M20110210-1200,"",1369882497242
deactivated,workbench,org.eclipse.ui.workbench,3.6.2.M20110210-1200,"",1369882498727
activated,workbench,org.eclipse.ui.workbench,3.6.2.M20110210-1200,"",1369882646615
deactivated,workbench,org.eclipse.ui.workbench,3.6.2.M20110210-1200,"",1369882665983
activated,workbench,org.eclipse.ui.workbench,3.6.2.M20110210-1200,"",1369882687082
executed,command,org.eclipse.ui,3.6.2.M20110203-1100,"org.eclipse.ui.edit.paste",1369882689618
executed,command,org.eclipse.ui.ide,3.6.2.M20101201-0800,"org.eclipse.jdt.ui.edit.text.java.correction.assist.proposals",1369882703758
executed,command,,,"AUTOGEN:::org.eclipse.jdt.internal.ui.CompilationUnitEditor.ruler.actions/org.eclipse.jdt.internal.ui.javaeditor.JavaSelectRulerAction",1369882707671
executed,command,org.eclipse.ui.ide,3.6.2.M20101201-0800,"org.eclipse.jdt.ui.edit.text.java.correction.assist.proposals",1369882709647
executed,command,org.eclipse.ui,3.6.2.M20110203-1100,"org.eclipse.ui.edit.copy",1369882722455
executed,command,org.eclipse.ui,3.6.2.M20110203-1100,"org.eclipse.ui.edit.paste",1369882725689
executed,command,org.eclipse.ui,3.6.2.M20110203-1100,"org.eclipse.ui.edit.copy",1369882730299
executed,command,org.eclipse.ui,3.6.2.M20110203-1100,"org.eclipse.ui.edit.paste",1369882732907
executed,command,org.eclipse.ui,3.6.2.M20110203-1100,"org.eclipse.ui.file.save",1369882733476
executed,command,org.eclipse.ui.ide,3.6.2.M20101201-0800,"org.eclipse.jdt.ui.edit.text.java.correction.assist.proposals",1369882739511
deactivated,workbench,org.eclipse.ui.workbench,3.6.2.M20110210-1200,"",1369882741566
activated,workbench,org.eclipse.ui.workbench,3.6.2.M20110210-1200,"",1369882743251
executed,command,org.eclipse.ui.ide,3.6.2.M20101201-0800,"org.eclipse.jdt.ui.edit.text.java.correction.assist.proposals",1369882747596
deactivated,workbench,org.eclipse.ui.workbench,3.6.2.M20110210-1200,"",1369882748901
activated,workbench,org.eclipse.ui.workbench,3.6.2.M20110210-1200,"",1369882749370
executed,command,org.eclipse.ui,3.6.2.M20110203-1100,"org.eclipse.ui.edit.undo",1369882751256
executed,command,org.eclipse.ui,3.6.2.M20110203-1100,"org.eclipse.ui.edit.undo",1369882752170
deactivated,workbench,org.eclipse.ui.workbench,3.6.2.M20110210-1200,"",1369882760850
deactivated,workbench,org.eclipse.ui.workbench,3.6.2.M20110210-1200,"",1369882761995
activated,workbench,org.eclipse.ui.workbench,3.6.2.M20110210-1200,"",1369882768421
executed,command,org.eclipse.ui,3.6.2.M20110203-1100,"org.eclipse.ui.edit.paste",1369882772102
executed,command,org.eclipse.ui,3.6.2.M20110203-1100,"org.eclipse.ui.file.save",1369882772466
executed,command,,,"AUTOGEN:::org.eclipse.jdt.internal.ui.CompilationUnitEditor.ruler.actions/org.eclipse.jdt.internal.ui.javaeditor.JavaSelectRulerAction",1369882776458
executed,command,org.eclipse.ui,3.6.2.M20110203-1100,"org.eclipse.ui.edit.copy",1369882793644
executed,command,org.eclipse.ui,3.6.2.M20110203-1100,"org.eclipse.ui.edit.paste",1369882796109
executed,command,org.eclipse.ui.ide,3.6.2.M20101201-0800,"org.eclipse.jdt.ui.edit.text.java.correction.assist.proposals",1369882800788
deactivated,workbench,org.eclipse.ui.workbench,3.6.2.M20110210-1200,"",1369882801636
activated,workbench,org.eclipse.ui.workbench,3.6.2.M20110210-1200,"",1369882802447
deactivated,workbench,org.eclipse.ui.workbench,3.6.2.M20110210-1200,"",1369882812806
activated,workbench,org.eclipse.ui.workbench,3.6.2.M20110210-1200,"",1369882898140
deactivated,workbench,org.eclipse.ui.workbench,3.6.2.M20110210-1200,"",1369882901756
activated,workbench,org.eclipse.ui.workbench,3.6.2.M20110210-1200,"",1369882936622
deactivated,workbench,org.eclipse.ui.workbench,3.6.2.M20110210-1200,"",1369882939716
activated,workbench,org.eclipse.ui.workbench,3.6.2.M20110210-1200,"",1369882942136
deactivated,workbench,org.eclipse.ui.workbench,3.6.2.M20110210-1200,"",1369882943029
activated,workbench,org.eclipse.ui.workbench,3.6.2.M20110210-1200,"",1369882944878
deactivated,workbench,org.eclipse.ui.workbench,3.6.2.M20110210-1200,"",1369882946636
activated,workbench,org.eclipse.ui.workbench,3.6.2.M20110210-1200,"",1369883589019
executed,command,org.eclipse.ui,3.6.2.M20110203-1100,"org.eclipse.ui.edit.paste",1369883610807
executed,command,org.eclipse.ui.workbench.texteditor,3.6.1.r361_v20100714-0800,"org.eclipse.ui.edit.text.goto.lineEnd",1369883614389
executed,command,org.eclipse.ui,3.6.2.M20110203-1100,"org.eclipse.ui.file.save",1369883616002
deactivated,workbench,org.eclipse.ui.workbench,3.6.2.M20110210-1200,"",1369883623207
activated,workbench,org.eclipse.ui.workbench,3.6.2.M20110210-1200,"",1369883631369
executed,command,org.eclipse.ui.ide,3.6.2.M20101201-0800,"org.eclipse.jdt.ui.edit.text.java.correction.assist.proposals",1369883632946
deactivated,workbench,org.eclipse.ui.workbench,3.6.2.M20110210-1200,"",1369883633735
activated,workbench,org.eclipse.ui.workbench,3.6.2.M20110210-1200,"",1369883635420
executed,command,org.eclipse.ui,3.6.2.M20110203-1100,"org.eclipse.ui.file.save",1369883655193
executed,command,org.eclipse.ui,3.6.2.M20110203-1100,"org.eclipse.ui.file.save",1369883658744
activated,view,org.eclipse.ui.console,3.5.0.v20100526,"org.eclipse.ui.console.ConsoleView",1369883660912
activated,view,org.eclipse.wst.server.ui,1.1.207.v20110119,"org.eclipse.wst.server.ui.ServersView",1369883661577
error,log,,,"C:\\Users\\ncarumba\\repos\\project-pedigree-import\\web_service\\RESTfulExample\\WebContent\\WEB-INF\\lib\\asm-3.3.1.jar",1369883663960
error,log,,,"C:\\Users\\ncarumba\\repos\\project-pedigree-import\\web_service\\RESTfulExample\\WebContent\\WEB-INF\\lib\\jersey-bundle-1.14.jar",1369883663975
error,log,,,"C:\\Users\\ncarumba\\repos\\project-pedigree-import\\web_service\\RESTfulExample\\WebContent\\WEB-INF\\lib\\json.jar",1369883663978
deactivated,workbench,org.eclipse.ui.workbench,3.6.2.M20110210-1200,"",1369883664307
activated,workbench,org.eclipse.ui.workbench,3.6.2.M20110210-1200,"",1369883666497
error,log,,,"Could not delete C:\\Users\\ncarumba\\repos\\project-pedigree-import\\web_service\\.metadata\\.plugins\\org.eclipse.wst.server.core\\tmp0\\wtpwebapps\\ws\\WEB-INF\\lib\\jersey-bundle-1.14.jar. May be locked by another process.",1369883666707
deactivated,workbench,org.eclipse.ui.workbench,3.6.2.M20110210-1200,"",1369883666795
activated,workbench,org.eclipse.ui.workbench,3.6.2.M20110210-1200,"",1369883667058
activated,editor,org.eclipse.jdt.ui,3.6.2.r362_v20110203,"org.eclipse.jdt.ui.CompilationUnitEditor",1369883667183
deactivated,workbench,org.eclipse.ui.workbench,3.6.2.M20110210-1200,"",1369883667854
activated,workbench,org.eclipse.ui.workbench,3.6.2.M20110210-1200,"",1369883668003
deactivated,workbench,org.eclipse.ui.workbench,3.6.2.M20110210-1200,"",1369883669168
activated,workbench,org.eclipse.ui.workbench,3.6.2.M20110210-1200,"",1369883888837
executed,command,org.eclipse.ui,3.6.2.M20110203-1100,"org.eclipse.ui.file.save",1369883902216
executed,command,org.eclipse.ui,3.6.2.M20110203-1100,"org.eclipse.ui.edit.copy",1369883931858
executed,command,org.eclipse.ui,3.6.2.M20110203-1100,"org.eclipse.ui.edit.paste",1369883934658
executed,command,org.eclipse.ui,3.6.2.M20110203-1100,"org.eclipse.ui.file.save",1369883943271
executed,command,org.eclipse.ui,3.6.2.M20110203-1100,"org.eclipse.ui.file.save",1369883947784
deactivated,workbench,org.eclipse.ui.workbench,3.6.2.M20110210-1200,"",1369883972749
activated,workbench,org.eclipse.ui.workbench,3.6.2.M20110210-1200,"",1369883982399
executed,command,org.eclipse.ui,3.6.2.M20110203-1100,"org.eclipse.ui.edit.paste",1369883985263
executed,command,org.eclipse.ui.workbench.texteditor,3.6.1.r361_v20100714-0800,"org.eclipse.ui.edit.text.goto.lineEnd",1369883998192
executed,command,org.eclipse.ui,3.6.2.M20110203-1100,"org.eclipse.ui.file.save",1369884000627
executed,command,org.eclipse.ui,3.6.2.M20110203-1100,"org.eclipse.ui.file.save",1369884037563
executed,command,org.eclipse.ui,3.6.2.M20110203-1100,"org.eclipse.ui.edit.copy",1369884047441
deactivated,workbench,org.eclipse.ui.workbench,3.6.2.M20110210-1200,"",1369884059220
activated,workbench,org.eclipse.ui.workbench,3.6.2.M20110210-1200,"",1369884069333
activated,view,org.eclipse.wst.server.ui,1.1.207.v20110119,"org.eclipse.wst.server.ui.ServersView",1369884070338
error,log,,,"C:\\Users\\ncarumba\\repos\\project-pedigree-import\\web_service\\RESTfulExample\\WebContent\\WEB-INF\\lib\\asm-3.3.1.jar",1369884072261
error,log,,,"C:\\Users\\ncarumba\\repos\\project-pedigree-import\\web_service\\RESTfulExample\\WebContent\\WEB-INF\\lib\\jersey-bundle-1.14.jar",1369884072265
error,log,,,"C:\\Users\\ncarumba\\repos\\project-pedigree-import\\web_service\\RESTfulExample\\WebContent\\WEB-INF\\lib\\json.jar",1369884072269
deactivated,workbench,org.eclipse.ui.workbench,3.6.2.M20110210-1200,"",1369884072315
activated,workbench,org.eclipse.ui.workbench,3.6.2.M20110210-1200,"",1369884073852
activated,view,org.eclipse.ui.navigator.resources,3.4.202.M20101124-0800,"org.eclipse.ui.navigator.ProjectExplorer",1369884074793
deactivated,workbench,org.eclipse.ui.workbench,3.6.2.M20110210-1200,"",1369884082807
activated,workbench,org.eclipse.ui.workbench,3.6.2.M20110210-1200,"",1369884084002
executed,command,org.eclipse.wst.server.ui,1.1.207.v20110119,"org.eclipse.wst.server.launchShortcut.run",1369884084009
activated,editor,org.eclipse.jdt.ui,3.6.2.r362_v20110203,"org.eclipse.jdt.ui.CompilationUnitEditor",1369884086312
closed,editor,org.eclipse.ui.browser,3.3.1.r36_20101216,"org.eclipse.ui.browser.editor",1369884086314
deactivated,workbench,org.eclipse.ui.workbench,3.6.2.M20110210-1200,"",1369884096800
opened,editor,org.eclipse.ui.browser,3.3.1.r36_20101216,"org.eclipse.ui.browser.editor",1369884097643
activated,workbench,org.eclipse.ui.workbench,3.6.2.M20110210-1200,"",1369884097811
activated,editor,org.eclipse.ui.browser,3.3.1.r36_20101216,"org.eclipse.ui.browser.editor",1369884097857
activated,view,org.eclipse.wst.server.ui,1.1.207.v20110119,"org.eclipse.wst.server.ui.ServersView",1369884122280
deactivated,workbench,org.eclipse.ui.workbench,3.6.2.M20110210-1200,"",1369884123643
activated,workbench,org.eclipse.ui.workbench,3.6.2.M20110210-1200,"",1369884124661
deactivated,workbench,org.eclipse.ui.workbench,3.6.2.M20110210-1200,"",1369884127418
activated,workbench,org.eclipse.ui.workbench,3.6.2.M20110210-1200,"",1369884176459
activated,editor,org.eclipse.ui.browser,3.3.1.r36_20101216,"org.eclipse.ui.browser.editor",1369884177251
deactivated,workbench,org.eclipse.ui.workbench,3.6.2.M20110210-1200,"",1369884179435
activated,workbench,org.eclipse.ui.workbench,3.6.2.M20110210-1200,"",1369884196032
deactivated,workbench,org.eclipse.ui.workbench,3.6.2.M20110210-1200,"",1369884198010
activated,workbench,org.eclipse.ui.workbench,3.6.2.M20110210-1200,"",1369884205285
activated,editor,org.eclipse.jdt.ui,3.6.2.r362_v20110203,"org.eclipse.jdt.ui.CompilationUnitEditor",1369884207359
executed,command,org.eclipse.ui.ide,3.6.2.M20101201-0800,"org.eclipse.jdt.ui.edit.text.java.correction.assist.proposals",1369884220750
deactivated,workbench,org.eclipse.ui.workbench,3.6.2.M20110210-1200,"",1369884222171
activated,workbench,org.eclipse.ui.workbench,3.6.2.M20110210-1200,"",1369884223463
executed,command,org.eclipse.ui.ide,3.6.2.M20101201-0800,"org.eclipse.jdt.ui.edit.text.java.correction.assist.proposals",1369884226420
executed,command,org.eclipse.ui.ide,3.6.2.M20101201-0800,"org.eclipse.jdt.ui.edit.text.java.correction.assist.proposals",1369884245516
deactivated,workbench,org.eclipse.ui.workbench,3.6.2.M20110210-1200,"",1369884248546
activated,workbench,org.eclipse.ui.workbench,3.6.2.M20110210-1200,"",1369884250215
executed,command,org.eclipse.ui.ide,3.6.2.M20101201-0800,"org.eclipse.jdt.ui.edit.text.java.correction.assist.proposals",1369884254711
executed,command,org.eclipse.ui,3.6.2.M20110203-1100,"org.eclipse.ui.file.save",1369884267138
activated,view,org.eclipse.wst.server.ui,1.1.207.v20110119,"org.eclipse.wst.server.ui.ServersView",1369884268537
error,log,,,"C:\\Users\\ncarumba\\repos\\project-pedigree-import\\web_service\\RESTfulExample\\WebContent\\WEB-INF\\lib\\asm-3.3.1.jar",1369884270774
error,log,,,"C:\\Users\\ncarumba\\repos\\project-pedigree-import\\web_service\\RESTfulExample\\WebContent\\WEB-INF\\lib\\jersey-bundle-1.14.jar",1369884270778
error,log,,,"C:\\Users\\ncarumba\\repos\\project-pedigree-import\\web_service\\RESTfulExample\\WebContent\\WEB-INF\\lib\\json.jar",1369884270781
deactivated,workbench,org.eclipse.ui.workbench,3.6.2.M20110210-1200,"",1369884270851
activated,workbench,org.eclipse.ui.workbench,3.6.2.M20110210-1200,"",1369884272804
error,log,,,"Could not delete C:\\Users\\ncarumba\\repos\\project-pedigree-import\\web_service\\.metadata\\.plugins\\org.eclipse.wst.server.core\\tmp0\\wtpwebapps\\ws\\WEB-INF\\lib\\jersey-bundle-1.14.jar. May be locked by another process.",1369884272841
deactivated,workbench,org.eclipse.ui.workbench,3.6.2.M20110210-1200,"",1369884272891
activated,workbench,org.eclipse.ui.workbench,3.6.2.M20110210-1200,"",1369884276955
activated,view,org.eclipse.ui.console,3.5.0.v20100526,"org.eclipse.ui.console.ConsoleView",1369884276965
deactivated,workbench,org.eclipse.ui.workbench,3.6.2.M20110210-1200,"",1369884281018
activated,workbench,org.eclipse.ui.workbench,3.6.2.M20110210-1200,"",1369884281167
deactivated,workbench,org.eclipse.ui.workbench,3.6.2.M20110210-1200,"",1369884288843
activated,workbench,org.eclipse.ui.workbench,3.6.2.M20110210-1200,"",1369884289646
activated,editor,org.eclipse.jdt.ui,3.6.2.r362_v20110203,"org.eclipse.jdt.ui.CompilationUnitEditor",1369884289680
activated,view,org.eclipse.ui.navigator.resources,3.4.202.M20101124-0800,"org.eclipse.ui.navigator.ProjectExplorer",1369884290984
deactivated,workbench,org.eclipse.ui.workbench,3.6.2.M20110210-1200,"",1369884293730
activated,workbench,org.eclipse.ui.workbench,3.6.2.M20110210-1200,"",1369884295036
executed,command,org.eclipse.wst.server.ui,1.1.207.v20110119,"org.eclipse.wst.server.launchShortcut.run",1369884295049
opened,editor,org.eclipse.ui.browser,3.3.1.r36_20101216,"org.eclipse.ui.browser.editor",1369884301397
activated,editor,org.eclipse.ui.browser,3.3.1.r36_20101216,"org.eclipse.ui.browser.editor",1369884301456
deactivated,workbench,org.eclipse.ui.workbench,3.6.2.M20110210-1200,"",1369884302355
activated,workbench,org.eclipse.ui.workbench,3.6.2.M20110210-1200,"",1369884305684
activated,view,org.eclipse.wst.server.ui,1.1.207.v20110119,"org.eclipse.wst.server.ui.ServersView",1369884306852
error,log,,,"C:\\Users\\ncarumba\\repos\\project-pedigree-import\\web_service\\RESTfulExample\\WebContent\\WEB-INF\\lib\\asm-3.3.1.jar",1369884307887
error,log,,,"C:\\Users\\ncarumba\\repos\\project-pedigree-import\\web_service\\RESTfulExample\\WebContent\\WEB-INF\\lib\\jersey-bundle-1.14.jar",1369884307891
error,log,,,"C:\\Users\\ncarumba\\repos\\project-pedigree-import\\web_service\\RESTfulExample\\WebContent\\WEB-INF\\lib\\json.jar",1369884307894
deactivated,workbench,org.eclipse.ui.workbench,3.6.2.M20110210-1200,"",1369884307923
activated,workbench,org.eclipse.ui.workbench,3.6.2.M20110210-1200,"",1369884309683
activated,view,org.eclipse.ui.console,3.5.0.v20100526,"org.eclipse.ui.console.ConsoleView",1369884310982
activated,view,org.eclipse.ui.navigator.resources,3.4.202.M20101124-0800,"org.eclipse.ui.navigator.ProjectExplorer",1369884311437
deactivated,workbench,org.eclipse.ui.workbench,3.6.2.M20110210-1200,"",1369884313663
activated,workbench,org.eclipse.ui.workbench,3.6.2.M20110210-1200,"",1369884314860
executed,command,org.eclipse.wst.server.ui,1.1.207.v20110119,"org.eclipse.wst.server.launchShortcut.run",1369884314867
deactivated,workbench,org.eclipse.ui.workbench,3.6.2.M20110210-1200,"",1369884319545
opened,editor,org.eclipse.ui.browser,3.3.1.r36_20101216,"org.eclipse.ui.browser.editor",1369884322457
activated,workbench,org.eclipse.ui.workbench,3.6.2.M20110210-1200,"",1369884322482
activated,editor,org.eclipse.ui.browser,3.3.1.r36_20101216,"org.eclipse.ui.browser.editor",1369884322497
activated,editor,org.eclipse.jdt.ui,3.6.2.r362_v20110203,"org.eclipse.jdt.ui.CompilationUnitEditor",1369884336190
activated,view,org.eclipse.ui.console,3.5.0.v20100526,"org.eclipse.ui.console.ConsoleView",1369884341734
activated,editor,org.eclipse.jdt.ui,3.6.2.r362_v20110203,"org.eclipse.jdt.ui.CompilationUnitEditor",1369884347329
executed,command,org.eclipse.ui,3.6.2.M20110203-1100,"org.eclipse.ui.edit.copy",1369884353385
executed,command,org.eclipse.ui,3.6.2.M20110203-1100,"org.eclipse.ui.edit.paste",1369884356759
executed,command,org.eclipse.ui,3.6.2.M20110203-1100,"org.eclipse.ui.file.save",1369884357146
activated,view,org.eclipse.wst.server.ui,1.1.207.v20110119,"org.eclipse.wst.server.ui.ServersView",1369884358775
error,log,,,"C:\\Users\\ncarumba\\repos\\project-pedigree-import\\web_service\\RESTfulExample\\WebContent\\WEB-INF\\lib\\asm-3.3.1.jar",1369884360720
error,log,,,"C:\\Users\\ncarumba\\repos\\project-pedigree-import\\web_service\\RESTfulExample\\WebContent\\WEB-INF\\lib\\jersey-bundle-1.14.jar",1369884360725
error,log,,,"C:\\Users\\ncarumba\\repos\\project-pedigree-import\\web_service\\RESTfulExample\\WebContent\\WEB-INF\\lib\\json.jar",1369884360728
deactivated,workbench,org.eclipse.ui.workbench,3.6.2.M20110210-1200,"",1369884360758
activated,view,org.eclipse.ui.console,3.5.0.v20100526,"org.eclipse.ui.console.ConsoleView",1369884362120
activated,workbench,org.eclipse.ui.workbench,3.6.2.M20110210-1200,"",1369884363439
error,log,,,"Publishing failed with multiple errors",1369884363528
deactivated,workbench,org.eclipse.ui.workbench,3.6.2.M20110210-1200,"",1369884363567
activated,workbench,org.eclipse.ui.workbench,3.6.2.M20110210-1200,"",1369884364847
activated,view,org.eclipse.ui.navigator.resources,3.4.202.M20101124-0800,"org.eclipse.ui.navigator.ProjectExplorer",1369884366182
deactivated,workbench,org.eclipse.ui.workbench,3.6.2.M20110210-1200,"",1369884368076
activated,workbench,org.eclipse.ui.workbench,3.6.2.M20110210-1200,"",1369884368983
executed,command,org.eclipse.wst.server.ui,1.1.207.v20110119,"org.eclipse.wst.server.launchShortcut.run",1369884368992
activated,editor,org.eclipse.jdt.ui,3.6.2.r362_v20110203,"org.eclipse.jdt.ui.CompilationUnitEditor",1369884370615
closed,editor,org.eclipse.ui.browser,3.3.1.r36_20101216,"org.eclipse.ui.browser.editor",1369884370616
closed,editor,org.eclipse.ui.browser,3.3.1.r36_20101216,"org.eclipse.ui.browser.editor",1369884371690
closed,editor,org.eclipse.ui.browser,3.3.1.r36_20101216,"org.eclipse.ui.browser.editor",1369884372728
opened,editor,org.eclipse.ui.browser,3.3.1.r36_20101216,"org.eclipse.ui.browser.editor",1369884374955
activated,editor,org.eclipse.ui.browser,3.3.1.r36_20101216,"org.eclipse.ui.browser.editor",1369884375004
