what,kind,bundleId,bundleVersion,description,time
deactivated,workbench,org.eclipse.ui.workbench,3.6.2.M20110210-1200,"",1369660092194
activated,workbench,org.eclipse.ui.workbench,3.6.2.M20110210-1200,"",1369660114091
executed,command,org.eclipse.ui,3.6.2.M20110203-1100,"org.eclipse.ui.edit.selectAll",1369660116287
executed,command,org.eclipse.ui,3.6.2.M20110203-1100,"org.eclipse.ui.edit.paste",1369660117274
executed,command,org.eclipse.ui,3.6.2.M20110203-1100,"org.eclipse.ui.file.save",1369660118339
executed,command,org.eclipse.ui,3.6.2.M20110203-1100,"org.eclipse.ui.edit.undo",1369660125473
executed,command,org.eclipse.ui,3.6.2.M20110203-1100,"org.eclipse.ui.edit.copy",1369660136422
deactivated,workbench,org.eclipse.ui.workbench,3.6.2.M20110210-1200,"",1369660137787
activated,workbench,org.eclipse.ui.workbench,3.6.2.M20110210-1200,"",1369660148907
executed,command,org.eclipse.ui,3.6.2.M20110203-1100,"org.eclipse.ui.edit.paste",1369660150651
deactivated,workbench,org.eclipse.ui.workbench,3.6.2.M20110210-1200,"",1369660158832
activated,workbench,org.eclipse.ui.workbench,3.6.2.M20110210-1200,"",1369660162210
executed,command,org.eclipse.ui,3.6.2.M20110203-1100,"org.eclipse.ui.edit.selectAll",1369660163876
executed,command,org.eclipse.ui,3.6.2.M20110203-1100,"org.eclipse.ui.edit.paste",1369660164482
executed,command,org.eclipse.ui,3.6.2.M20110203-1100,"org.eclipse.ui.file.save",1369660166295
executed,command,org.eclipse.ui.workbench.texteditor,3.6.1.r361_v20100714-0800,"org.eclipse.ui.edit.text.goto.lineEnd",1369660171196
executed,command,org.eclipse.ui,3.6.2.M20110203-1100,"org.eclipse.ui.file.save",1369660201981
executed,command,org.eclipse.ui,3.6.2.M20110203-1100,"org.eclipse.ui.file.save",1369660213313
executed,command,org.eclipse.ui,3.6.2.M20110203-1100,"org.eclipse.ui.file.save",1369660234544
executed,command,org.eclipse.ui,3.6.2.M20110203-1100,"org.eclipse.ui.file.save",1369660246070
deactivated,workbench,org.eclipse.ui.workbench,3.6.2.M20110210-1200,"",1369660248338
activated,workbench,org.eclipse.ui.workbench,3.6.2.M20110210-1200,"",1369660258092
deactivated,workbench,org.eclipse.ui.workbench,3.6.2.M20110210-1200,"",1369660267572
activated,workbench,org.eclipse.ui.workbench,3.6.2.M20110210-1200,"",1369660269646
executed,command,org.eclipse.ui,3.6.2.M20110203-1100,"org.eclipse.ui.file.save",1369660276217
closed,editor,org.eclipse.ui.browser,3.3.1.r36_20101216,"org.eclipse.ui.browser.editor",1369660280976
activated,view,org.eclipse.wst.server.ui,1.1.207.v20110119,"org.eclipse.wst.server.ui.ServersView",1369660286970
deactivated,workbench,org.eclipse.ui.workbench,3.6.2.M20110210-1200,"",1369660290837
activated,workbench,org.eclipse.ui.workbench,3.6.2.M20110210-1200,"",1369660293659
activated,view,org.eclipse.ui.navigator.resources,3.4.202.M20101124-0800,"org.eclipse.ui.navigator.ProjectExplorer",1369660296349
deactivated,workbench,org.eclipse.ui.workbench,3.6.2.M20110210-1200,"",1369660302050
activated,workbench,org.eclipse.ui.workbench,3.6.2.M20110210-1200,"",1369660303267
executed,command,org.eclipse.wst.server.ui,1.1.207.v20110119,"org.eclipse.wst.server.launchShortcut.run",1369660303340
opened,editor,org.eclipse.ui.browser,3.3.1.r36_20101216,"org.eclipse.ui.browser.editor",1369660312732
activated,editor,org.eclipse.ui.browser,3.3.1.r36_20101216,"org.eclipse.ui.browser.editor",1369660312787
executed,command,org.eclipse.ui,3.6.2.M20110203-1100,"org.eclipse.ui.edit.copy",1369660318384
deactivated,workbench,org.eclipse.ui.workbench,3.6.2.M20110210-1200,"",1369660319931
activated,workbench,org.eclipse.ui.workbench,3.6.2.M20110210-1200,"",1369660341116
activated,editor,org.eclipse.jdt.ui,3.6.2.r362_v20110203,"org.eclipse.jdt.ui.CompilationUnitEditor",1369660348037
executed,command,org.eclipse.ui,3.6.2.M20110203-1100,"org.eclipse.ui.file.save",1369660354284
activated,view,org.eclipse.wst.server.ui,1.1.207.v20110119,"org.eclipse.wst.server.ui.ServersView",1369660356833
deactivated,workbench,org.eclipse.ui.workbench,3.6.2.M20110210-1200,"",1369660361790
activated,view,org.eclipse.ui.console,3.5.0.v20100526,"org.eclipse.ui.console.ConsoleView",1369660362097
activated,workbench,org.eclipse.ui.workbench,3.6.2.M20110210-1200,"",1369660364658
error,log,,,"Could not delete C:\\Users\\ncarumba\\repos\\project-pedigree-import\\web_service\\.metadata\\.plugins\\org.eclipse.wst.server.core\\tmp0\\wtpwebapps\\ws\\WEB-INF\\lib\\jersey-bundle-1.14.jar. May be locked by another process.",1369660364688
deactivated,workbench,org.eclipse.ui.workbench,3.6.2.M20110210-1200,"",1369660364749
activated,workbench,org.eclipse.ui.workbench,3.6.2.M20110210-1200,"",1369660366018
activated,view,org.eclipse.ui.navigator.resources,3.4.202.M20101124-0800,"org.eclipse.ui.navigator.ProjectExplorer",1369660376909
deactivated,workbench,org.eclipse.ui.workbench,3.6.2.M20110210-1200,"",1369660383717
activated,workbench,org.eclipse.ui.workbench,3.6.2.M20110210-1200,"",1369660385436
executed,command,org.eclipse.wst.server.ui,1.1.207.v20110119,"org.eclipse.wst.server.launchShortcut.run",1369660385445
activated,editor,org.eclipse.jdt.ui,3.6.2.r362_v20110203,"org.eclipse.jdt.ui.CompilationUnitEditor",1369660386665
closed,editor,org.eclipse.ui.browser,3.3.1.r36_20101216,"org.eclipse.ui.browser.editor",1369660386670
deactivated,workbench,org.eclipse.ui.workbench,3.6.2.M20110210-1200,"",1369660387755
opened,editor,org.eclipse.ui.browser,3.3.1.r36_20101216,"org.eclipse.ui.browser.editor",1369660391835
activated,workbench,org.eclipse.ui.workbench,3.6.2.M20110210-1200,"",1369660391851
activated,editor,org.eclipse.ui.browser,3.3.1.r36_20101216,"org.eclipse.ui.browser.editor",1369660391936
activated,editor,org.eclipse.jdt.ui,3.6.2.r362_v20110203,"org.eclipse.jdt.ui.CompilationUnitEditor",1369660403537
closed,editor,org.eclipse.ui.browser,3.3.1.r36_20101216,"org.eclipse.ui.browser.editor",1369660403538
activated,view,org.eclipse.wst.server.ui,1.1.207.v20110119,"org.eclipse.wst.server.ui.ServersView",1369660405915
deactivated,workbench,org.eclipse.ui.workbench,3.6.2.M20110210-1200,"",1369660408626
activated,workbench,org.eclipse.ui.workbench,3.6.2.M20110210-1200,"",1369660410665
activated,view,org.eclipse.ui.console,3.5.0.v20100526,"org.eclipse.ui.console.ConsoleView",1369660411499
activated,view,org.eclipse.ui.navigator.resources,3.4.202.M20101124-0800,"org.eclipse.ui.navigator.ProjectExplorer",1369660412737
deactivated,workbench,org.eclipse.ui.workbench,3.6.2.M20110210-1200,"",1369660418717
activated,workbench,org.eclipse.ui.workbench,3.6.2.M20110210-1200,"",1369660421051
executed,command,org.eclipse.wst.server.ui,1.1.207.v20110119,"org.eclipse.wst.server.launchShortcut.run",1369660421058
opened,editor,org.eclipse.ui.browser,3.3.1.r36_20101216,"org.eclipse.ui.browser.editor",1369660428023
activated,editor,org.eclipse.ui.browser,3.3.1.r36_20101216,"org.eclipse.ui.browser.editor",1369660428054
executed,command,org.eclipse.ui,3.6.2.M20110203-1100,"org.eclipse.ui.edit.copy",1369660429859
deactivated,workbench,org.eclipse.ui.workbench,3.6.2.M20110210-1200,"",1369660431182
activated,workbench,org.eclipse.ui.workbench,3.6.2.M20110210-1200,"",1369660463272
activated,editor,org.eclipse.jdt.ui,3.6.2.r362_v20110203,"org.eclipse.jdt.ui.CompilationUnitEditor",1369660466775
deactivated,workbench,org.eclipse.ui.workbench,3.6.2.M20110210-1200,"",1369660484381
activated,workbench,org.eclipse.ui.workbench,3.6.2.M20110210-1200,"",1369660514267
deactivated,workbench,org.eclipse.ui.workbench,3.6.2.M20110210-1200,"",1369660518807
activated,workbench,org.eclipse.ui.workbench,3.6.2.M20110210-1200,"",1369660560001
deactivated,workbench,org.eclipse.ui.workbench,3.6.2.M20110210-1200,"",1369660569761
activated,workbench,org.eclipse.ui.workbench,3.6.2.M20110210-1200,"",1369660573799
activated,view,org.eclipse.ui.console,3.5.0.v20100526,"org.eclipse.ui.console.ConsoleView",1369660573810
deactivated,workbench,org.eclipse.ui.workbench,3.6.2.M20110210-1200,"",1369660585253
activated,workbench,org.eclipse.ui.workbench,3.6.2.M20110210-1200,"",1369699413985
deactivated,workbench,org.eclipse.ui.workbench,3.6.2.M20110210-1200,"",1369699421780
activated,workbench,org.eclipse.ui.workbench,3.6.2.M20110210-1200,"",1369699431639
deactivated,workbench,org.eclipse.ui.workbench,3.6.2.M20110210-1200,"",1369699435960
activated,workbench,org.eclipse.ui.workbench,3.6.2.M20110210-1200,"",1369699437183
deactivated,workbench,org.eclipse.ui.workbench,3.6.2.M20110210-1200,"",1369699440683
activated,workbench,org.eclipse.ui.workbench,3.6.2.M20110210-1200,"",1369699455026
deactivated,workbench,org.eclipse.ui.workbench,3.6.2.M20110210-1200,"",1369699461515
activated,workbench,org.eclipse.ui.workbench,3.6.2.M20110210-1200,"",1369701685441
activated,editor,org.eclipse.jdt.ui,3.6.2.r362_v20110203,"org.eclipse.jdt.ui.CompilationUnitEditor",1369701688351
deactivated,workbench,org.eclipse.ui.workbench,3.6.2.M20110210-1200,"",1369701702069
activated,workbench,org.eclipse.ui.workbench,3.6.2.M20110210-1200,"",1369701702480
deactivated,workbench,org.eclipse.ui.workbench,3.6.2.M20110210-1200,"",1369701703417
activated,workbench,org.eclipse.ui.workbench,3.6.2.M20110210-1200,"",1369701756837
closed,editor,org.eclipse.ui.browser,3.3.1.r36_20101216,"org.eclipse.ui.browser.editor",1369701758337
activated,view,org.eclipse.wst.server.ui,1.1.207.v20110119,"org.eclipse.wst.server.ui.ServersView",1369701761760
deactivated,workbench,org.eclipse.ui.workbench,3.6.2.M20110210-1200,"",1369701768085
activated,workbench,org.eclipse.ui.workbench,3.6.2.M20110210-1200,"",1369701772782
activated,editor,org.eclipse.jdt.ui,3.6.2.r362_v20110203,"org.eclipse.jdt.ui.CompilationUnitEditor",1369701774107
activated,view,org.eclipse.ui.navigator.resources,3.4.202.M20101124-0800,"org.eclipse.ui.navigator.ProjectExplorer",1369701779805
deactivated,workbench,org.eclipse.ui.workbench,3.6.2.M20110210-1200,"",1369701783091
activated,workbench,org.eclipse.ui.workbench,3.6.2.M20110210-1200,"",1369701784198
executed,command,org.eclipse.wst.server.ui,1.1.207.v20110119,"org.eclipse.wst.server.launchShortcut.run",1369701784232
opened,editor,org.eclipse.ui.browser,3.3.1.r36_20101216,"org.eclipse.ui.browser.editor",1369701794278
activated,editor,org.eclipse.ui.browser,3.3.1.r36_20101216,"org.eclipse.ui.browser.editor",1369701794398
deactivated,workbench,org.eclipse.ui.workbench,3.6.2.M20110210-1200,"",1369701797706
activated,workbench,org.eclipse.ui.workbench,3.6.2.M20110210-1200,"",1369702104109
deactivated,workbench,org.eclipse.ui.workbench,3.6.2.M20110210-1200,"",1369702107550
activated,workbench,org.eclipse.ui.workbench,3.6.2.M20110210-1200,"",1369702118645
activated,editor,org.eclipse.jdt.ui,3.6.2.r362_v20110203,"org.eclipse.jdt.ui.CompilationUnitEditor",1369702120696
deactivated,workbench,org.eclipse.ui.workbench,3.6.2.M20110210-1200,"",1369702129991
activated,workbench,org.eclipse.ui.workbench,3.6.2.M20110210-1200,"",1369702235755
executed,command,org.eclipse.ui,3.6.2.M20110203-1100,"org.eclipse.ui.file.save",1369702246746
executed,command,org.eclipse.ui,3.6.2.M20110203-1100,"org.eclipse.ui.file.save",1369702265226
executed,command,,,"AUTOGEN:::org.eclipse.jdt.internal.ui.CompilationUnitEditor.ruler.actions/org.eclipse.jdt.internal.ui.javaeditor.JavaSelectRulerAction",1369702271032
deactivated,workbench,org.eclipse.ui.workbench,3.6.2.M20110210-1200,"",1369702273625
activated,workbench,org.eclipse.ui.workbench,3.6.2.M20110210-1200,"",1369702276579
executed,command,,,"AUTOGEN:::org.eclipse.jdt.internal.ui.CompilationUnitEditor.ruler.actions/org.eclipse.jdt.internal.ui.javaeditor.JavaSelectRulerAction",1369702286607
executed,command,org.eclipse.ui,3.6.2.M20110203-1100,"org.eclipse.ui.file.save",1369702289846
deactivated,workbench,org.eclipse.ui.workbench,3.6.2.M20110210-1200,"",1369702292889
activated,workbench,org.eclipse.ui.workbench,3.6.2.M20110210-1200,"",1369702506560
closed,editor,org.eclipse.ui.browser,3.3.1.r36_20101216,"org.eclipse.ui.browser.editor",1369702513969
activated,view,org.eclipse.wst.server.ui,1.1.207.v20110119,"org.eclipse.wst.server.ui.ServersView",1369702515689
deactivated,workbench,org.eclipse.ui.workbench,3.6.2.M20110210-1200,"",1369702517644
activated,workbench,org.eclipse.ui.workbench,3.6.2.M20110210-1200,"",1369702519707
activated,view,org.eclipse.ui.console,3.5.0.v20100526,"org.eclipse.ui.console.ConsoleView",1369702522671
activated,editor,org.eclipse.jdt.ui,3.6.2.r362_v20110203,"org.eclipse.jdt.ui.CompilationUnitEditor",1369702528033
deactivated,workbench,org.eclipse.ui.workbench,3.6.2.M20110210-1200,"",1369702530994
activated,workbench,org.eclipse.ui.workbench,3.6.2.M20110210-1200,"",1369702536627
activated,view,org.eclipse.wst.server.ui,1.1.207.v20110119,"org.eclipse.wst.server.ui.ServersView",1369702539054
deactivated,workbench,org.eclipse.ui.workbench,3.6.2.M20110210-1200,"",1369702540902
activated,workbench,org.eclipse.ui.workbench,3.6.2.M20110210-1200,"",1369702542400
activated,view,org.eclipse.ui.navigator.resources,3.4.202.M20101124-0800,"org.eclipse.ui.navigator.ProjectExplorer",1369702543032
deactivated,workbench,org.eclipse.ui.workbench,3.6.2.M20110210-1200,"",1369702545499
activated,workbench,org.eclipse.ui.workbench,3.6.2.M20110210-1200,"",1369702546799
executed,command,org.eclipse.wst.server.ui,1.1.207.v20110119,"org.eclipse.wst.server.launchShortcut.run",1369702546812
opened,editor,org.eclipse.ui.browser,3.3.1.r36_20101216,"org.eclipse.ui.browser.editor",1369702555871
activated,editor,org.eclipse.ui.browser,3.3.1.r36_20101216,"org.eclipse.ui.browser.editor",1369702556013
closed,editor,org.eclipse.jdt.ui,3.6.2.r362_v20110203,"org.eclipse.jdt.ui.CompilationUnitEditor",1369702557782
closed,editor,org.eclipse.jdt.ui,3.6.2.r362_v20110203,"org.eclipse.jdt.ui.CompilationUnitEditor",1369702559260
closed,editor,org.eclipse.jdt.ui,3.6.2.r362_v20110203,"org.eclipse.jdt.ui.CompilationUnitEditor",1369702561620
closed,editor,org.eclipse.jdt.ui,3.6.2.r362_v20110203,"org.eclipse.jdt.ui.CompilationUnitEditor",1369702563043
deactivated,workbench,org.eclipse.ui.workbench,3.6.2.M20110210-1200,"",1369702564587
activated,workbench,org.eclipse.ui.workbench,3.6.2.M20110210-1200,"",1369702595427
activated,editor,org.eclipse.jdt.ui,3.6.2.r362_v20110203,"org.eclipse.jdt.ui.CompilationUnitEditor",1369702595742
activated,editor,org.eclipse.jdt.ui,3.6.2.r362_v20110203,"org.eclipse.jdt.ui.CompilationUnitEditor",1369702598119
deactivated,workbench,org.eclipse.ui.workbench,3.6.2.M20110210-1200,"",1369702605313
activated,workbench,org.eclipse.ui.workbench,3.6.2.M20110210-1200,"",1369704367811
executed,command,org.eclipse.ui,3.6.2.M20110203-1100,"org.eclipse.ui.file.save",1369704374844
closed,editor,org.eclipse.ui.browser,3.3.1.r36_20101216,"org.eclipse.ui.browser.editor",1369704380353
activated,view,org.eclipse.wst.server.ui,1.1.207.v20110119,"org.eclipse.wst.server.ui.ServersView",1369704382194
deactivated,workbench,org.eclipse.ui.workbench,3.6.2.M20110210-1200,"",1369704383344
activated,workbench,org.eclipse.ui.workbench,3.6.2.M20110210-1200,"",1369704385502
activated,view,org.eclipse.ui.console,3.5.0.v20100526,"org.eclipse.ui.console.ConsoleView",1369704386468
activated,view,org.eclipse.ui.navigator.resources,3.4.202.M20101124-0800,"org.eclipse.ui.navigator.ProjectExplorer",1369704386975
deactivated,workbench,org.eclipse.ui.workbench,3.6.2.M20110210-1200,"",1369704389132
activated,workbench,org.eclipse.ui.workbench,3.6.2.M20110210-1200,"",1369704389877
executed,command,org.eclipse.wst.server.ui,1.1.207.v20110119,"org.eclipse.wst.server.launchShortcut.run",1369704389887
deactivated,workbench,org.eclipse.ui.workbench,3.6.2.M20110210-1200,"",1369704391809
opened,editor,org.eclipse.ui.browser,3.3.1.r36_20101216,"org.eclipse.ui.browser.editor",1369704401758
activated,workbench,org.eclipse.ui.workbench,3.6.2.M20110210-1200,"",1369704401787
activated,editor,org.eclipse.ui.browser,3.3.1.r36_20101216,"org.eclipse.ui.browser.editor",1369704401801
deactivated,workbench,org.eclipse.ui.workbench,3.6.2.M20110210-1200,"",1369704446438
activated,workbench,org.eclipse.ui.workbench,3.6.2.M20110210-1200,"",1369704476543
activated,view,org.eclipse.ui.navigator.resources,3.4.202.M20101124-0800,"org.eclipse.ui.navigator.ProjectExplorer",1369704476553
deactivated,workbench,org.eclipse.ui.workbench,3.6.2.M20110210-1200,"",1369704489914
activated,workbench,org.eclipse.ui.workbench,3.6.2.M20110210-1200,"",1369704847991
activated,editor,org.eclipse.jdt.ui,3.6.2.r362_v20110203,"org.eclipse.jdt.ui.CompilationUnitEditor",1369704848265
deactivated,workbench,org.eclipse.ui.workbench,3.6.2.M20110210-1200,"",1369704859882
activated,workbench,org.eclipse.ui.workbench,3.6.2.M20110210-1200,"",1369704955512
deactivated,workbench,org.eclipse.ui.workbench,3.6.2.M20110210-1200,"",1369704957769
activated,workbench,org.eclipse.ui.workbench,3.6.2.M20110210-1200,"",1369704992089
deactivated,workbench,org.eclipse.ui.workbench,3.6.2.M20110210-1200,"",1369704997860
activated,workbench,org.eclipse.ui.workbench,3.6.2.M20110210-1200,"",1369705139161
executed,command,org.eclipse.ui,3.6.2.M20110203-1100,"org.eclipse.ui.file.save",1369705166671
deactivated,workbench,org.eclipse.ui.workbench,3.6.2.M20110210-1200,"",1369705168123
activated,workbench,org.eclipse.ui.workbench,3.6.2.M20110210-1200,"",1369705332157
deactivated,workbench,org.eclipse.ui.workbench,3.6.2.M20110210-1200,"",1369705352834
activated,workbench,org.eclipse.ui.workbench,3.6.2.M20110210-1200,"",1369705572569
executed,command,org.eclipse.ui.workbench.texteditor,3.6.1.r361_v20100714-0800,"org.eclipse.ui.edit.text.goto.lineEnd",1369705584052
executed,command,org.eclipse.ui,3.6.2.M20110203-1100,"org.eclipse.ui.edit.copy",1369705590554
executed,command,org.eclipse.ui,3.6.2.M20110203-1100,"org.eclipse.ui.edit.paste",1369705591574
executed,command,org.eclipse.ui,3.6.2.M20110203-1100,"org.eclipse.ui.file.save",1369705592385
closed,editor,org.eclipse.ui.browser,3.3.1.r36_20101216,"org.eclipse.ui.browser.editor",1369705595063
activated,view,org.eclipse.ui.console,3.5.0.v20100526,"org.eclipse.ui.console.ConsoleView",1369705596328
activated,view,org.eclipse.wst.server.ui,1.1.207.v20110119,"org.eclipse.wst.server.ui.ServersView",1369705596449
deactivated,workbench,org.eclipse.ui.workbench,3.6.2.M20110210-1200,"",1369705600170
activated,view,org.eclipse.ui.console,3.5.0.v20100526,"org.eclipse.ui.console.ConsoleView",1369705601557
activated,workbench,org.eclipse.ui.workbench,3.6.2.M20110210-1200,"",1369705601823
activated,view,org.eclipse.ui.navigator.resources,3.4.202.M20101124-0800,"org.eclipse.ui.navigator.ProjectExplorer",1369705603052
deactivated,workbench,org.eclipse.ui.workbench,3.6.2.M20110210-1200,"",1369705605061
activated,workbench,org.eclipse.ui.workbench,3.6.2.M20110210-1200,"",1369705605951
executed,command,org.eclipse.wst.server.ui,1.1.207.v20110119,"org.eclipse.wst.server.launchShortcut.run",1369705605964
deactivated,workbench,org.eclipse.ui.workbench,3.6.2.M20110210-1200,"",1369705610509
opened,editor,org.eclipse.ui.browser,3.3.1.r36_20101216,"org.eclipse.ui.browser.editor",1369705614376
activated,workbench,org.eclipse.ui.workbench,3.6.2.M20110210-1200,"",1369705614439
activated,editor,org.eclipse.ui.browser,3.3.1.r36_20101216,"org.eclipse.ui.browser.editor",1369705614464
deactivated,workbench,org.eclipse.ui.workbench,3.6.2.M20110210-1200,"",1369705706831
activated,workbench,org.eclipse.ui.workbench,3.6.2.M20110210-1200,"",1369705713275
deactivated,workbench,org.eclipse.ui.workbench,3.6.2.M20110210-1200,"",1369705714140
activated,workbench,org.eclipse.ui.workbench,3.6.2.M20110210-1200,"",1369705812008
activated,editor,org.eclipse.jdt.ui,3.6.2.r362_v20110203,"org.eclipse.jdt.ui.CompilationUnitEditor",1369705813650
deactivated,workbench,org.eclipse.ui.workbench,3.6.2.M20110210-1200,"",1369705827331
activated,workbench,org.eclipse.ui.workbench,3.6.2.M20110210-1200,"",1369705855526
executed,command,org.eclipse.ui,3.6.2.M20110203-1100,"org.eclipse.ui.edit.copy",1369705862476
executed,command,org.eclipse.ui,3.6.2.M20110203-1100,"org.eclipse.ui.edit.paste",1369705864118
executed,command,org.eclipse.ui.workbench.texteditor,3.6.1.r361_v20100714-0800,"org.eclipse.ui.edit.text.select.lineStart",1369705865994
executed,command,org.eclipse.ui,3.6.2.M20110203-1100,"org.eclipse.ui.edit.cut",1369705866613
executed,command,org.eclipse.ui,3.6.2.M20110203-1100,"org.eclipse.ui.edit.paste",1369705868547
executed,command,org.eclipse.ui.workbench.texteditor,3.6.1.r361_v20100714-0800,"org.eclipse.ui.edit.text.select.lineStart",1369705869978
executed,command,org.eclipse.ui,3.6.2.M20110203-1100,"org.eclipse.ui.file.save",1369705876648
deactivated,workbench,org.eclipse.ui.workbench,3.6.2.M20110210-1200,"",1369705878465
activated,workbench,org.eclipse.ui.workbench,3.6.2.M20110210-1200,"",1369705880445
activated,editor,org.eclipse.ui.browser,3.3.1.r36_20101216,"org.eclipse.ui.browser.editor",1369705881634
activated,editor,org.eclipse.jdt.ui,3.6.2.r362_v20110203,"org.eclipse.jdt.ui.CompilationUnitEditor",1369705882306
closed,editor,org.eclipse.ui.browser,3.3.1.r36_20101216,"org.eclipse.ui.browser.editor",1369705882307
activated,view,org.eclipse.wst.server.ui,1.1.207.v20110119,"org.eclipse.wst.server.ui.ServersView",1369705883253
activated,view,org.eclipse.ui.console,3.5.0.v20100526,"org.eclipse.ui.console.ConsoleView",1369705884135
deactivated,workbench,org.eclipse.ui.workbench,3.6.2.M20110210-1200,"",1369705884797
activated,workbench,org.eclipse.ui.workbench,3.6.2.M20110210-1200,"",1369705886707
error,log,,,"Could not delete C:\\Users\\ncarumba\\repos\\project-pedigree-import\\web_service\\.metadata\\.plugins\\org.eclipse.wst.server.core\\tmp0\\wtpwebapps\\ws\\WEB-INF\\lib\\jersey-bundle-1.14.jar. May be locked by another process.",1369705886832
deactivated,workbench,org.eclipse.ui.workbench,3.6.2.M20110210-1200,"",1369705886883
activated,workbench,org.eclipse.ui.workbench,3.6.2.M20110210-1200,"",1369705887175
activated,editor,org.eclipse.jdt.ui,3.6.2.r362_v20110203,"org.eclipse.jdt.ui.CompilationUnitEditor",1369705887197
deactivated,workbench,org.eclipse.ui.workbench,3.6.2.M20110210-1200,"",1369705887922
activated,workbench,org.eclipse.ui.workbench,3.6.2.M20110210-1200,"",1369705888059
activated,view,org.eclipse.ui.navigator.resources,3.4.202.M20101124-0800,"org.eclipse.ui.navigator.ProjectExplorer",1369705889770
deactivated,workbench,org.eclipse.ui.workbench,3.6.2.M20110210-1200,"",1369705891549
activated,workbench,org.eclipse.ui.workbench,3.6.2.M20110210-1200,"",1369705892291
executed,command,org.eclipse.wst.server.ui,1.1.207.v20110119,"org.eclipse.wst.server.launchShortcut.run",1369705892310
deactivated,workbench,org.eclipse.ui.workbench,3.6.2.M20110210-1200,"",1369705894866
opened,editor,org.eclipse.ui.browser,3.3.1.r36_20101216,"org.eclipse.ui.browser.editor",1369705898840
activated,workbench,org.eclipse.ui.workbench,3.6.2.M20110210-1200,"",1369705898875
activated,editor,org.eclipse.ui.browser,3.3.1.r36_20101216,"org.eclipse.ui.browser.editor",1369705898903
activated,editor,org.eclipse.jdt.ui,3.6.2.r362_v20110203,"org.eclipse.jdt.ui.CompilationUnitEditor",1369705911709
closed,editor,org.eclipse.ui.browser,3.3.1.r36_20101216,"org.eclipse.ui.browser.editor",1369705911709
activated,view,org.eclipse.wst.server.ui,1.1.207.v20110119,"org.eclipse.wst.server.ui.ServersView",1369705913043
deactivated,workbench,org.eclipse.ui.workbench,3.6.2.M20110210-1200,"",1369705914280
activated,workbench,org.eclipse.ui.workbench,3.6.2.M20110210-1200,"",1369705915933
activated,view,org.eclipse.ui.navigator.resources,3.4.202.M20101124-0800,"org.eclipse.ui.navigator.ProjectExplorer",1369705917489
deactivated,workbench,org.eclipse.ui.workbench,3.6.2.M20110210-1200,"",1369705919820
activated,workbench,org.eclipse.ui.workbench,3.6.2.M20110210-1200,"",1369705921058
executed,command,org.eclipse.wst.server.ui,1.1.207.v20110119,"org.eclipse.wst.server.launchShortcut.run",1369705921080
opened,editor,org.eclipse.ui.browser,3.3.1.r36_20101216,"org.eclipse.ui.browser.editor",1369705928760
activated,editor,org.eclipse.ui.browser,3.3.1.r36_20101216,"org.eclipse.ui.browser.editor",1369705928808
deactivated,workbench,org.eclipse.ui.workbench,3.6.2.M20110210-1200,"",1369705928851
activated,workbench,org.eclipse.ui.workbench,3.6.2.M20110210-1200,"",1369705971422
deactivated,workbench,org.eclipse.ui.workbench,3.6.2.M20110210-1200,"",1369705972919
activated,workbench,org.eclipse.ui.workbench,3.6.2.M20110210-1200,"",1369705991602
activated,editor,org.eclipse.jdt.ui,3.6.2.r362_v20110203,"org.eclipse.jdt.ui.CompilationUnitEditor",1369705993156
deactivated,workbench,org.eclipse.ui.workbench,3.6.2.M20110210-1200,"",1369706003895
activated,workbench,org.eclipse.ui.workbench,3.6.2.M20110210-1200,"",1369706105456
deactivated,workbench,org.eclipse.ui.workbench,3.6.2.M20110210-1200,"",1369706107337
activated,workbench,org.eclipse.ui.workbench,3.6.2.M20110210-1200,"",1369706112948
deactivated,workbench,org.eclipse.ui.workbench,3.6.2.M20110210-1200,"",1369706113640
activated,workbench,org.eclipse.ui.workbench,3.6.2.M20110210-1200,"",1369706171510
deactivated,workbench,org.eclipse.ui.workbench,3.6.2.M20110210-1200,"",1369706179069
activated,workbench,org.eclipse.ui.workbench,3.6.2.M20110210-1200,"",1369706315648
executed,command,org.eclipse.ui,3.6.2.M20110203-1100,"org.eclipse.ui.file.save",1369706320639
executed,command,org.eclipse.ui.workbench.texteditor,3.6.1.r361_v20100714-0800,"org.eclipse.ui.edit.text.goto.lineEnd",1369706323389
executed,command,org.eclipse.ui,3.6.2.M20110203-1100,"org.eclipse.ui.file.save",1369706326431
activated,editor,org.eclipse.ui.browser,3.3.1.r36_20101216,"org.eclipse.ui.browser.editor",1369706328737
activated,editor,org.eclipse.jdt.ui,3.6.2.r362_v20110203,"org.eclipse.jdt.ui.CompilationUnitEditor",1369706329298
closed,editor,org.eclipse.ui.browser,3.3.1.r36_20101216,"org.eclipse.ui.browser.editor",1369706329299
activated,view,org.eclipse.ui.console,3.5.0.v20100526,"org.eclipse.ui.console.ConsoleView",1369706330468
activated,view,org.eclipse.wst.server.ui,1.1.207.v20110119,"org.eclipse.wst.server.ui.ServersView",1369706330582
activated,view,org.eclipse.ui.console,3.5.0.v20100526,"org.eclipse.ui.console.ConsoleView",1369706330643
activated,view,org.eclipse.wst.server.ui,1.1.207.v20110119,"org.eclipse.wst.server.ui.ServersView",1369706331958
deactivated,workbench,org.eclipse.ui.workbench,3.6.2.M20110210-1200,"",1369706333903
activated,workbench,org.eclipse.ui.workbench,3.6.2.M20110210-1200,"",1369706336701
error,log,,,"Could not delete C:\\Users\\ncarumba\\repos\\project-pedigree-import\\web_service\\.metadata\\.plugins\\org.eclipse.wst.server.core\\tmp0\\wtpwebapps\\ws\\WEB-INF\\lib\\jersey-bundle-1.14.jar. May be locked by another process.",1369706336762
activated,editor,org.eclipse.jdt.ui,3.6.2.r362_v20110203,"org.eclipse.jdt.ui.CompilationUnitEditor",1369706336840
deactivated,workbench,org.eclipse.ui.workbench,3.6.2.M20110210-1200,"",1369706336864
activated,workbench,org.eclipse.ui.workbench,3.6.2.M20110210-1200,"",1369706337794
