what,kind,bundleId,bundleVersion,description,time
executed,command,org.eclipse.ui,3.6.2.M20110203-1100,"org.eclipse.ui.file.save",1370850379801
activated,editor,org.eclipse.jdt.ui,3.6.2.r362_v20110203,"org.eclipse.jdt.ui.CompilationUnitEditor",1370850383938
executed,command,org.eclipse.ui,3.6.2.M20110203-1100,"org.eclipse.ui.edit.copy",1370850395826
activated,editor,org.eclipse.jdt.ui,3.6.2.r362_v20110203,"org.eclipse.jdt.ui.CompilationUnitEditor",1370850396804
executed,command,org.eclipse.ui,3.6.2.M20110203-1100,"org.eclipse.ui.edit.paste",1370850399515
executed,command,org.eclipse.ui,3.6.2.M20110203-1100,"org.eclipse.ui.file.save",1370850400702
executed,command,org.eclipse.ui,3.6.2.M20110203-1100,"org.eclipse.ui.file.save",1370850406605
executed,command,,,"AUTOGEN:::org.eclipse.jdt.internal.ui.CompilationUnitEditor.ruler.actions/org.eclipse.jdt.internal.ui.javaeditor.JavaSelectRulerAction",1370850414852
deactivated,workbench,org.eclipse.ui.workbench,3.6.2.M20110210-1200,"",1370850415762
activated,workbench,org.eclipse.ui.workbench,3.6.2.M20110210-1200,"",1370850415957
executed,command,org.eclipse.ui,3.6.2.M20110203-1100,"org.eclipse.ui.file.save",1370850418361
deactivated,workbench,org.eclipse.ui.workbench,3.6.2.M20110210-1200,"",1370850423470
activated,workbench,org.eclipse.ui.workbench,3.6.2.M20110210-1200,"",1370850481535
activated,view,org.eclipse.ui.console,3.5.0.v20100526,"org.eclipse.ui.console.ConsoleView",1370850481575
deactivated,workbench,org.eclipse.ui.workbench,3.6.2.M20110210-1200,"",1370850490720
activated,workbench,org.eclipse.ui.workbench,3.6.2.M20110210-1200,"",1370850549252
deactivated,workbench,org.eclipse.ui.workbench,3.6.2.M20110210-1200,"",1370850564149
activated,workbench,org.eclipse.ui.workbench,3.6.2.M20110210-1200,"",1370851091944
activated,view,org.eclipse.ui.navigator.resources,3.4.202.M20101124-0800,"org.eclipse.ui.navigator.ProjectExplorer",1370851099771
deactivated,workbench,org.eclipse.ui.workbench,3.6.2.M20110210-1200,"",1370851099834
activated,workbench,org.eclipse.ui.workbench,3.6.2.M20110210-1200,"",1370851099844
deactivated,workbench,org.eclipse.ui.workbench,3.6.2.M20110210-1200,"",1370851130162
activated,workbench,org.eclipse.ui.workbench,3.6.2.M20110210-1200,"",1370873404481
deactivated,workbench,org.eclipse.ui.workbench,3.6.2.M20110210-1200,"",1370873408706
activated,workbench,org.eclipse.ui.workbench,3.6.2.M20110210-1200,"",1370873422012
deactivated,workbench,org.eclipse.ui.workbench,3.6.2.M20110210-1200,"",1370873422018
activated,workbench,org.eclipse.ui.workbench,3.6.2.M20110210-1200,"",1370873428643
activated,view,org.eclipse.ui.console,3.5.0.v20100526,"org.eclipse.ui.console.ConsoleView",1370873435904
deactivated,workbench,org.eclipse.ui.workbench,3.6.2.M20110210-1200,"",1370873437428
activated,workbench,org.eclipse.ui.workbench,3.6.2.M20110210-1200,"",1370873831971
activated,editor,org.eclipse.jdt.ui,3.6.2.r362_v20110203,"org.eclipse.jdt.ui.CompilationUnitEditor",1370873841240
executed,command,org.eclipse.ui.workbench.texteditor,3.6.1.r361_v20100714-0800,"org.eclipse.ui.edit.text.select.lineEnd",1370873872253
executed,command,org.eclipse.ui,3.6.2.M20110203-1100,"org.eclipse.ui.edit.copy",1370873873746
executed,command,org.eclipse.ui.workbench.texteditor,3.6.1.r361_v20100714-0800,"org.eclipse.ui.edit.text.select.lineEnd",1370873883735
executed,command,org.eclipse.ui,3.6.2.M20110203-1100,"org.eclipse.ui.edit.paste",1370873886026
executed,command,org.eclipse.ui,3.6.2.M20110203-1100,"org.eclipse.ui.file.save",1370873899233
executed,command,org.eclipse.ui.workbench.texteditor,3.6.1.r361_v20100714-0800,"org.eclipse.ui.edit.text.select.lineStart",1370873910128
executed,command,org.eclipse.ui.workbench.texteditor,3.6.1.r361_v20100714-0800,"org.eclipse.ui.edit.text.select.lineStart",1370873911373
deactivated,workbench,org.eclipse.ui.workbench,3.6.2.M20110210-1200,"",1370873937159
activated,workbench,org.eclipse.ui.workbench,3.6.2.M20110210-1200,"",1370873937197
executed,command,org.eclipse.ui,3.6.2.M20110203-1100,"org.eclipse.ui.file.save",1370873939666
deactivated,workbench,org.eclipse.ui.workbench,3.6.2.M20110210-1200,"",1370874059057
activated,workbench,org.eclipse.ui.workbench,3.6.2.M20110210-1200,"",1370874118316
deactivated,workbench,org.eclipse.ui.workbench,3.6.2.M20110210-1200,"",1370874123295
activated,workbench,org.eclipse.ui.workbench,3.6.2.M20110210-1200,"",1370874460766
activated,view,org.eclipse.wst.server.ui,1.1.207.v20110119,"org.eclipse.wst.server.ui.ServersView",1370874466693
activated,view,org.eclipse.ui.console,3.5.0.v20100526,"org.eclipse.ui.console.ConsoleView",1370874469774
deactivated,workbench,org.eclipse.ui.workbench,3.6.2.M20110210-1200,"",1370874477594
activated,workbench,org.eclipse.ui.workbench,3.6.2.M20110210-1200,"",1370874496949
activated,editor,org.eclipse.jdt.ui,3.6.2.r362_v20110203,"org.eclipse.jdt.ui.CompilationUnitEditor",1370874498287
activated,view,org.eclipse.wst.server.ui,1.1.207.v20110119,"org.eclipse.wst.server.ui.ServersView",1370874502654
activated,view,org.eclipse.ui.console,3.5.0.v20100526,"org.eclipse.ui.console.ConsoleView",1370874502705
activated,view,org.eclipse.wst.server.ui,1.1.207.v20110119,"org.eclipse.wst.server.ui.ServersView",1370874502904
activated,view,org.eclipse.ui.console,3.5.0.v20100526,"org.eclipse.ui.console.ConsoleView",1370874504259
activated,view,org.eclipse.wst.server.ui,1.1.207.v20110119,"org.eclipse.wst.server.ui.ServersView",1370874528390
deactivated,workbench,org.eclipse.ui.workbench,3.6.2.M20110210-1200,"",1370874533725
activated,workbench,org.eclipse.ui.workbench,3.6.2.M20110210-1200,"",1370874538679
error,log,,,"Publishing failed with multiple errors",1370874539933
deactivated,workbench,org.eclipse.ui.workbench,3.6.2.M20110210-1200,"",1370874539968
activated,workbench,org.eclipse.ui.workbench,3.6.2.M20110210-1200,"",1370874547404
activated,view,org.eclipse.ui.navigator.resources,3.4.202.M20101124-0800,"org.eclipse.ui.navigator.ProjectExplorer",1370874551013
executed,command,org.eclipse.wst.server.ui,1.1.207.v20110119,"org.eclipse.wst.server.launchShortcut.run",1370874559072
activated,editor,org.eclipse.jdt.ui,3.6.2.r362_v20110203,"org.eclipse.jdt.ui.CompilationUnitEditor",1370874573486
deactivated,workbench,org.eclipse.ui.workbench,3.6.2.M20110210-1200,"",1370874575045
opened,editor,org.eclipse.ui.browser,3.3.1.r36_20101216,"org.eclipse.ui.browser.editor",1370874576274
activated,workbench,org.eclipse.ui.workbench,3.6.2.M20110210-1200,"",1370874576498
activated,editor,org.eclipse.ui.browser,3.3.1.r36_20101216,"org.eclipse.ui.browser.editor",1370874576542
deactivated,workbench,org.eclipse.ui.workbench,3.6.2.M20110210-1200,"",1370874578727
activated,workbench,org.eclipse.ui.workbench,3.6.2.M20110210-1200,"",1370874583790
activated,view,org.eclipse.wst.server.ui,1.1.207.v20110119,"org.eclipse.wst.server.ui.ServersView",1370874585272
deactivated,workbench,org.eclipse.ui.workbench,3.6.2.M20110210-1200,"",1370874586731
activated,workbench,org.eclipse.ui.workbench,3.6.2.M20110210-1200,"",1370874588983
activated,view,org.eclipse.ui.navigator.resources,3.4.202.M20101124-0800,"org.eclipse.ui.navigator.ProjectExplorer",1370874590764
executed,command,org.eclipse.wst.server.ui,1.1.207.v20110119,"org.eclipse.wst.server.launchShortcut.run",1370874593552
deactivated,workbench,org.eclipse.ui.workbench,3.6.2.M20110210-1200,"",1370874598115
opened,editor,org.eclipse.ui.browser,3.3.1.r36_20101216,"org.eclipse.ui.browser.editor",1370874606538
activated,workbench,org.eclipse.ui.workbench,3.6.2.M20110210-1200,"",1370874606548
activated,editor,org.eclipse.ui.browser,3.3.1.r36_20101216,"org.eclipse.ui.browser.editor",1370874606555
activated,editor,org.eclipse.ui.browser,3.3.1.r36_20101216,"org.eclipse.ui.browser.editor",1370902126385
closed,editor,org.eclipse.ui.browser,3.3.1.r36_20101216,"org.eclipse.ui.browser.editor",1370902126536
deactivated,workbench,org.eclipse.ui.workbench,3.6.2.M20110210-1200,"",1370902131315
activated,workbench,org.eclipse.ui.workbench,3.6.2.M20110210-1200,"",1370902131633
deactivated,workbench,org.eclipse.ui.workbench,3.6.2.M20110210-1200,"",1370902135200
activated,workbench,org.eclipse.ui.workbench,3.6.2.M20110210-1200,"",1370902138323
activated,editor,org.eclipse.jdt.ui,3.6.2.r362_v20110203,"org.eclipse.jdt.ui.CompilationUnitEditor",1370902151787
closed,editor,org.eclipse.ui.browser,3.3.1.r36_20101216,"org.eclipse.ui.browser.editor",1370902151797
deactivated,workbench,org.eclipse.ui.workbench,3.6.2.M20110210-1200,"",1370902151841
activated,workbench,org.eclipse.ui.workbench,3.6.2.M20110210-1200,"",1370902154923
deactivated,workbench,org.eclipse.ui.workbench,3.6.2.M20110210-1200,"",1370902196917
activated,workbench,org.eclipse.ui.workbench,3.6.2.M20110210-1200,"",1370902244799
activated,view,org.eclipse.wst.server.ui,1.1.207.v20110119,"org.eclipse.wst.server.ui.ServersView",1370902246076
activated,editor,org.eclipse.jdt.ui,3.6.2.r362_v20110203,"org.eclipse.jdt.ui.CompilationUnitEditor",1370902249184
executed,command,org.eclipse.ui,3.6.2.M20110203-1100,"org.eclipse.ui.file.save",1370902282560
deactivated,workbench,org.eclipse.ui.workbench,3.6.2.M20110210-1200,"",1370902300748
activated,workbench,org.eclipse.ui.workbench,3.6.2.M20110210-1200,"",1370902310386
activated,view,org.eclipse.ui.console,3.5.0.v20100526,"org.eclipse.ui.console.ConsoleView",1370902310494
activated,editor,org.eclipse.jdt.ui,3.6.2.r362_v20110203,"org.eclipse.jdt.ui.CompilationUnitEditor",1370902311634
deactivated,workbench,org.eclipse.ui.workbench,3.6.2.M20110210-1200,"",1370902325519
activated,workbench,org.eclipse.ui.workbench,3.6.2.M20110210-1200,"",1370902587793
deactivated,workbench,org.eclipse.ui.workbench,3.6.2.M20110210-1200,"",1370902603957
activated,workbench,org.eclipse.ui.workbench,3.6.2.M20110210-1200,"",1370909076704
deactivated,workbench,org.eclipse.ui.workbench,3.6.2.M20110210-1200,"",1370909139643
activated,workbench,org.eclipse.ui.workbench,3.6.2.M20110210-1200,"",1370909148298
activated,view,org.eclipse.ui.console,3.5.0.v20100526,"org.eclipse.ui.console.ConsoleView",1370909188143
deactivated,workbench,org.eclipse.ui.workbench,3.6.2.M20110210-1200,"",1370909190268
activated,workbench,org.eclipse.ui.workbench,3.6.2.M20110210-1200,"",1370909190283
deactivated,workbench,org.eclipse.ui.workbench,3.6.2.M20110210-1200,"",1370909218100
activated,workbench,org.eclipse.ui.workbench,3.6.2.M20110210-1200,"",1370909684065
activated,editor,org.eclipse.jdt.ui,3.6.2.r362_v20110203,"org.eclipse.jdt.ui.CompilationUnitEditor",1370909693511
activated,view,org.eclipse.ui.console,3.5.0.v20100526,"org.eclipse.ui.console.ConsoleView",1370909698894
activated,editor,org.eclipse.jdt.ui,3.6.2.r362_v20110203,"org.eclipse.jdt.ui.CompilationUnitEditor",1370909699315
activated,view,org.eclipse.ui.console,3.5.0.v20100526,"org.eclipse.ui.console.ConsoleView",1370909702088
activated,editor,org.eclipse.jdt.ui,3.6.2.r362_v20110203,"org.eclipse.jdt.ui.CompilationUnitEditor",1370909702307
deactivated,workbench,org.eclipse.ui.workbench,3.6.2.M20110210-1200,"",1370909747773
activated,workbench,org.eclipse.ui.workbench,3.6.2.M20110210-1200,"",1370909750958
activated,view,org.eclipse.ui.console,3.5.0.v20100526,"org.eclipse.ui.console.ConsoleView",1370909755195
activated,view,org.eclipse.wst.server.ui,1.1.207.v20110119,"org.eclipse.wst.server.ui.ServersView",1370909758454
deactivated,workbench,org.eclipse.ui.workbench,3.6.2.M20110210-1200,"",1370909769897
activated,workbench,org.eclipse.ui.workbench,3.6.2.M20110210-1200,"",1370909785781
activated,view,org.eclipse.ui.console,3.5.0.v20100526,"org.eclipse.ui.console.ConsoleView",1370909788877
deactivated,workbench,org.eclipse.ui.workbench,3.6.2.M20110210-1200,"",1370909795660
activated,workbench,org.eclipse.ui.workbench,3.6.2.M20110210-1200,"",1370909797806
activated,view,org.eclipse.wst.server.ui,1.1.207.v20110119,"org.eclipse.wst.server.ui.ServersView",1370909797958
deactivated,workbench,org.eclipse.ui.workbench,3.6.2.M20110210-1200,"",1370909801472
activated,workbench,org.eclipse.ui.workbench,3.6.2.M20110210-1200,"",1370909804622
activated,view,org.eclipse.ui.navigator.resources,3.4.202.M20101124-0800,"org.eclipse.ui.navigator.ProjectExplorer",1370909806512
executed,command,org.eclipse.wst.server.ui,1.1.207.v20110119,"org.eclipse.wst.server.launchShortcut.run",1370909815552
deactivated,workbench,org.eclipse.ui.workbench,3.6.2.M20110210-1200,"",1370909826440
activated,workbench,org.eclipse.ui.workbench,3.6.2.M20110210-1200,"",1370909827133
activated,editor,org.eclipse.jdt.ui,3.6.2.r362_v20110203,"org.eclipse.jdt.ui.CompilationUnitEditor",1370909827303
deactivated,workbench,org.eclipse.ui.workbench,3.6.2.M20110210-1200,"",1370909829121
opened,editor,org.eclipse.ui.browser,3.3.1.r36_20101216,"org.eclipse.ui.browser.editor",1370909839646
activated,workbench,org.eclipse.ui.workbench,3.6.2.M20110210-1200,"",1370909839772
activated,editor,org.eclipse.ui.browser,3.3.1.r36_20101216,"org.eclipse.ui.browser.editor",1370909840023
activated,editor,org.eclipse.jdt.ui,3.6.2.r362_v20110203,"org.eclipse.jdt.ui.CompilationUnitEditor",1370909907767
executed,command,org.eclipse.ui.workbench.texteditor,3.6.1.r361_v20100714-0800,"org.eclipse.ui.edit.text.select.lineEnd",1370909919275
executed,command,org.eclipse.ui.workbench.texteditor,3.6.1.r361_v20100714-0800,"org.eclipse.ui.edit.text.select.lineStart",1370909920843
executed,command,org.eclipse.ui,3.6.2.M20110203-1100,"org.eclipse.ui.file.save",1370909925943
executed,command,org.eclipse.ui,3.6.2.M20110203-1100,"org.eclipse.ui.file.save",1370909934649
deactivated,workbench,org.eclipse.ui.workbench,3.6.2.M20110210-1200,"",1370909939432
activated,workbench,org.eclipse.ui.workbench,3.6.2.M20110210-1200,"",1370911798780
deactivated,workbench,org.eclipse.ui.workbench,3.6.2.M20110210-1200,"",1370911812939
activated,workbench,org.eclipse.ui.workbench,3.6.2.M20110210-1200,"",1370912036791
executed,command,org.eclipse.ui,3.6.2.M20110203-1100,"org.eclipse.ui.file.save",1370912056449
deactivated,workbench,org.eclipse.ui.workbench,3.6.2.M20110210-1200,"",1370912067664
activated,workbench,org.eclipse.ui.workbench,3.6.2.M20110210-1200,"",1370912084928
activated,view,org.eclipse.ui.console,3.5.0.v20100526,"org.eclipse.ui.console.ConsoleView",1370912085095
activated,view,org.eclipse.wst.server.ui,1.1.207.v20110119,"org.eclipse.wst.server.ui.ServersView",1370912101235
deactivated,workbench,org.eclipse.ui.workbench,3.6.2.M20110210-1200,"",1370912104985
activated,workbench,org.eclipse.ui.workbench,3.6.2.M20110210-1200,"",1370912107466
error,log,,,"Publishing failed with multiple errors",1370912107765
deactivated,workbench,org.eclipse.ui.workbench,3.6.2.M20110210-1200,"",1370912107827
activated,workbench,org.eclipse.ui.workbench,3.6.2.M20110210-1200,"",1370912108984
activated,view,org.eclipse.ui.navigator.resources,3.4.202.M20101124-0800,"org.eclipse.ui.navigator.ProjectExplorer",1370912110881
executed,command,org.eclipse.wst.server.ui,1.1.207.v20110119,"org.eclipse.wst.server.launchShortcut.run",1370912113371
activated,editor,org.eclipse.jdt.ui,3.6.2.r362_v20110203,"org.eclipse.jdt.ui.CompilationUnitEditor",1370912115397
closed,editor,org.eclipse.ui.browser,3.3.1.r36_20101216,"org.eclipse.ui.browser.editor",1370912115398
deactivated,workbench,org.eclipse.ui.workbench,3.6.2.M20110210-1200,"",1370912117851
opened,editor,org.eclipse.ui.browser,3.3.1.r36_20101216,"org.eclipse.ui.browser.editor",1370912132938
activated,workbench,org.eclipse.ui.workbench,3.6.2.M20110210-1200,"",1370912133001
activated,editor,org.eclipse.ui.browser,3.3.1.r36_20101216,"org.eclipse.ui.browser.editor",1370912133040
activated,view,org.eclipse.wst.server.ui,1.1.207.v20110119,"org.eclipse.wst.server.ui.ServersView",1370912134432
deactivated,workbench,org.eclipse.ui.workbench,3.6.2.M20110210-1200,"",1370912135926
activated,workbench,org.eclipse.ui.workbench,3.6.2.M20110210-1200,"",1370912137801
activated,view,org.eclipse.ui.navigator.resources,3.4.202.M20101124-0800,"org.eclipse.ui.navigator.ProjectExplorer",1370912139217
executed,command,org.eclipse.wst.server.ui,1.1.207.v20110119,"org.eclipse.wst.server.launchShortcut.run",1370912141185
deactivated,workbench,org.eclipse.ui.workbench,3.6.2.M20110210-1200,"",1370912146549
opened,editor,org.eclipse.ui.browser,3.3.1.r36_20101216,"org.eclipse.ui.browser.editor",1370912155788
activated,workbench,org.eclipse.ui.workbench,3.6.2.M20110210-1200,"",1370912155803
activated,editor,org.eclipse.ui.browser,3.3.1.r36_20101216,"org.eclipse.ui.browser.editor",1370912155812
activated,editor,org.eclipse.jdt.ui,3.6.2.r362_v20110203,"org.eclipse.jdt.ui.CompilationUnitEditor",1370912201050
executed,command,org.eclipse.ui,3.6.2.M20110203-1100,"org.eclipse.ui.edit.cut",1370912218843
executed,command,org.eclipse.ui,3.6.2.M20110203-1100,"org.eclipse.ui.edit.paste",1370912220565
executed,command,org.eclipse.ui,3.6.2.M20110203-1100,"org.eclipse.ui.edit.paste",1370912223015
executed,command,org.eclipse.ui,3.6.2.M20110203-1100,"org.eclipse.ui.file.save",1370912223490
activated,view,org.eclipse.ui.console,3.5.0.v20100526,"org.eclipse.ui.console.ConsoleView",1370912226719
deactivated,workbench,org.eclipse.ui.workbench,3.6.2.M20110210-1200,"",1370912229117
activated,workbench,org.eclipse.ui.workbench,3.6.2.M20110210-1200,"",1370912241148
activated,editor,org.eclipse.jdt.ui,3.6.2.r362_v20110203,"org.eclipse.jdt.ui.CompilationUnitEditor",1370912241181
executed,command,org.eclipse.ui,3.6.2.M20110203-1100,"org.eclipse.ui.edit.copy",1370912254803
executed,command,org.eclipse.ui,3.6.2.M20110203-1100,"org.eclipse.ui.edit.paste",1370912257249
executed,command,org.eclipse.ui,3.6.2.M20110203-1100,"org.eclipse.ui.edit.cut",1370912261675
executed,command,org.eclipse.ui,3.6.2.M20110203-1100,"org.eclipse.ui.edit.paste",1370912263693
executed,command,org.eclipse.ui,3.6.2.M20110203-1100,"org.eclipse.ui.file.save",1370912264140
executed,command,org.eclipse.ui.workbench.texteditor,3.6.1.r361_v20100714-0800,"org.eclipse.ui.edit.text.select.lineStart",1370912265737
executed,command,org.eclipse.ui,3.6.2.M20110203-1100,"org.eclipse.ui.edit.cut",1370912266036
executed,command,org.eclipse.ui,3.6.2.M20110203-1100,"org.eclipse.ui.edit.paste",1370912267632
executed,command,org.eclipse.ui.workbench.texteditor,3.6.1.r361_v20100714-0800,"org.eclipse.ui.edit.text.scroll.lineUp",1370912267836
executed,command,org.eclipse.ui.workbench.texteditor,3.6.1.r361_v20100714-0800,"org.eclipse.ui.edit.text.goto.lineEnd",1370912269829
executed,command,org.eclipse.ui.workbench.texteditor,3.6.1.r361_v20100714-0800,"org.eclipse.ui.edit.text.select.lineStart",1370912270025
executed,command,org.eclipse.ui,3.6.2.M20110203-1100,"org.eclipse.ui.file.save",1370912271494
activated,view,org.eclipse.wst.server.ui,1.1.207.v20110119,"org.eclipse.wst.server.ui.ServersView",1370912280047
deactivated,workbench,org.eclipse.ui.workbench,3.6.2.M20110210-1200,"",1370912282174
activated,workbench,org.eclipse.ui.workbench,3.6.2.M20110210-1200,"",1370912283950
error,log,,,"Publishing failed with multiple errors",1370912283962
deactivated,workbench,org.eclipse.ui.workbench,3.6.2.M20110210-1200,"",1370912284047
activated,workbench,org.eclipse.ui.workbench,3.6.2.M20110210-1200,"",1370912284900
activated,view,org.eclipse.ui.console,3.5.0.v20100526,"org.eclipse.ui.console.ConsoleView",1370912285853
deactivated,workbench,org.eclipse.ui.workbench,3.6.2.M20110210-1200,"",1370912286844
activated,workbench,org.eclipse.ui.workbench,3.6.2.M20110210-1200,"",1370912474475
deactivated,workbench,org.eclipse.ui.workbench,3.6.2.M20110210-1200,"",1370912475928
activated,workbench,org.eclipse.ui.workbench,3.6.2.M20110210-1200,"",1370912478772
activated,view,org.eclipse.wst.server.ui,1.1.207.v20110119,"org.eclipse.wst.server.ui.ServersView",1370912482797
deactivated,workbench,org.eclipse.ui.workbench,3.6.2.M20110210-1200,"",1370912485229
activated,workbench,org.eclipse.ui.workbench,3.6.2.M20110210-1200,"",1370912486422
error,log,,,"Publishing failed with multiple errors",1370912486705
deactivated,workbench,org.eclipse.ui.workbench,3.6.2.M20110210-1200,"",1370912486975
activated,workbench,org.eclipse.ui.workbench,3.6.2.M20110210-1200,"",1370912488253
activated,view,org.eclipse.ui.navigator.resources,3.4.202.M20101124-0800,"org.eclipse.ui.navigator.ProjectExplorer",1370912489271
executed,command,org.eclipse.wst.server.ui,1.1.207.v20110119,"org.eclipse.wst.server.launchShortcut.run",1370912492036
activated,view,org.eclipse.ui.console,3.5.0.v20100526,"org.eclipse.ui.console.ConsoleView",1370912505724
deactivated,workbench,org.eclipse.ui.workbench,3.6.2.M20110210-1200,"",1370912508521
activated,workbench,org.eclipse.ui.workbench,3.6.2.M20110210-1200,"",1370912511049
error,log,,,"Error starting server Tomcat v7.0 Server at localhost",1370912512391
error,log,,,"Several ports (8080, 8009) required by Tomcat v7.0 Server at localhost are already in use. The server may already be running in another process, or a system process may be using the port. To start this server you will need to stop the other process or change the port number(s).",1370912512436
opened,editor,org.eclipse.ui.browser,3.3.1.r36_20101216,"org.eclipse.ui.browser.editor",1370912512576
activated,editor,org.eclipse.ui.browser,3.3.1.r36_20101216,"org.eclipse.ui.browser.editor",1370912512623
deactivated,workbench,org.eclipse.ui.workbench,3.6.2.M20110210-1200,"",1370912512749
activated,workbench,org.eclipse.ui.workbench,3.6.2.M20110210-1200,"",1370912517017
activated,editor,org.eclipse.jdt.ui,3.6.2.r362_v20110203,"org.eclipse.jdt.ui.CompilationUnitEditor",1370912518507
closed,editor,org.eclipse.ui.browser,3.3.1.r36_20101216,"org.eclipse.ui.browser.editor",1370912518507
activated,view,org.eclipse.wst.server.ui,1.1.207.v20110119,"org.eclipse.wst.server.ui.ServersView",1370912520044
deactivated,workbench,org.eclipse.ui.workbench,3.6.2.M20110210-1200,"",1370912522192
activated,workbench,org.eclipse.ui.workbench,3.6.2.M20110210-1200,"",1370912524564
activated,view,org.eclipse.ui.navigator.resources,3.4.202.M20101124-0800,"org.eclipse.ui.navigator.ProjectExplorer",1370912525476
executed,command,org.eclipse.wst.server.ui,1.1.207.v20110119,"org.eclipse.wst.server.launchShortcut.run",1370912527461
opened,editor,org.eclipse.ui.browser,3.3.1.r36_20101216,"org.eclipse.ui.browser.editor",1370912535371
activated,editor,org.eclipse.ui.browser,3.3.1.r36_20101216,"org.eclipse.ui.browser.editor",1370912535419
deactivated,workbench,org.eclipse.ui.workbench,3.6.2.M20110210-1200,"",1370912537800
activated,workbench,org.eclipse.ui.workbench,3.6.2.M20110210-1200,"",1370912540619
activated,view,org.eclipse.wst.server.ui,1.1.207.v20110119,"org.eclipse.wst.server.ui.ServersView",1370912542572
deactivated,workbench,org.eclipse.ui.workbench,3.6.2.M20110210-1200,"",1370912543895
activated,workbench,org.eclipse.ui.workbench,3.6.2.M20110210-1200,"",1370912546012
activated,view,org.eclipse.ui.navigator.resources,3.4.202.M20101124-0800,"org.eclipse.ui.navigator.ProjectExplorer",1370912547345
executed,command,org.eclipse.wst.server.ui,1.1.207.v20110119,"org.eclipse.wst.server.launchShortcut.run",1370912549327
activated,editor,org.eclipse.ui.browser,3.3.1.r36_20101216,"org.eclipse.ui.browser.editor",1370912551020
activated,editor,org.eclipse.jdt.ui,3.6.2.r362_v20110203,"org.eclipse.jdt.ui.CompilationUnitEditor",1370912551094
closed,editor,org.eclipse.ui.browser,3.3.1.r36_20101216,"org.eclipse.ui.browser.editor",1370912551095
closed,editor,org.eclipse.ui.browser,3.3.1.r36_20101216,"org.eclipse.ui.browser.editor",1370912552601
closed,editor,org.eclipse.ui.browser,3.3.1.r36_20101216,"org.eclipse.ui.browser.editor",1370912554514
closed,editor,org.eclipse.ui.browser,3.3.1.r36_20101216,"org.eclipse.ui.browser.editor",1370912559477
opened,editor,org.eclipse.ui.browser,3.3.1.r36_20101216,"org.eclipse.ui.browser.editor",1370912561987
activated,editor,org.eclipse.ui.browser,3.3.1.r36_20101216,"org.eclipse.ui.browser.editor",1370912562079
deactivated,workbench,org.eclipse.ui.workbench,3.6.2.M20110210-1200,"",1370912563100
activated,workbench,org.eclipse.ui.workbench,3.6.2.M20110210-1200,"",1370912749670
deactivated,workbench,org.eclipse.ui.workbench,3.6.2.M20110210-1200,"",1370912750832
activated,workbench,org.eclipse.ui.workbench,3.6.2.M20110210-1200,"",1370913726980
activated,view,org.eclipse.ui.console,3.5.0.v20100526,"org.eclipse.ui.console.ConsoleView",1370913728526
activated,editor,org.eclipse.jdt.ui,3.6.2.r362_v20110203,"org.eclipse.jdt.ui.CompilationUnitEditor",1370913749144
activated,view,org.eclipse.ui.console,3.5.0.v20100526,"org.eclipse.ui.console.ConsoleView",1370913753039
deactivated,workbench,org.eclipse.ui.workbench,3.6.2.M20110210-1200,"",1370913758607
activated,workbench,org.eclipse.ui.workbench,3.6.2.M20110210-1200,"",1370918803492
deactivated,workbench,org.eclipse.ui.workbench,3.6.2.M20110210-1200,"",1370918823476
activated,workbench,org.eclipse.ui.workbench,3.6.2.M20110210-1200,"",1370918847231
deactivated,workbench,org.eclipse.ui.workbench,3.6.2.M20110210-1200,"",1370918854318
activated,workbench,org.eclipse.ui.workbench,3.6.2.M20110210-1200,"",1370918873823
activated,editor,org.eclipse.jdt.ui,3.6.2.r362_v20110203,"org.eclipse.jdt.ui.CompilationUnitEditor",1370918880638
deactivated,workbench,org.eclipse.ui.workbench,3.6.2.M20110210-1200,"",1370918923991
activated,workbench,org.eclipse.ui.workbench,3.6.2.M20110210-1200,"",1370918976525
deactivated,workbench,org.eclipse.ui.workbench,3.6.2.M20110210-1200,"",1370919203014
activated,workbench,org.eclipse.ui.workbench,3.6.2.M20110210-1200,"",1370920167803
deactivated,workbench,org.eclipse.ui.workbench,3.6.2.M20110210-1200,"",1370920171892
activated,workbench,org.eclipse.ui.workbench,3.6.2.M20110210-1200,"",1370922962165
deactivated,workbench,org.eclipse.ui.workbench,3.6.2.M20110210-1200,"",1370922979667
activated,workbench,org.eclipse.ui.workbench,3.6.2.M20110210-1200,"",1370927703697
deactivated,workbench,org.eclipse.ui.workbench,3.6.2.M20110210-1200,"",1370927716870
activated,workbench,org.eclipse.ui.workbench,3.6.2.M20110210-1200,"",1370928303592
deactivated,workbench,org.eclipse.ui.workbench,3.6.2.M20110210-1200,"",1370928367056
activated,workbench,org.eclipse.ui.workbench,3.6.2.M20110210-1200,"",1370928367135
executed,command,org.eclipse.ui,3.6.2.M20110203-1100,"org.eclipse.ui.file.save",1370928367171
deactivated,workbench,org.eclipse.ui.workbench,3.6.2.M20110210-1200,"",1370928388690
activated,workbench,org.eclipse.ui.workbench,3.6.2.M20110210-1200,"",1370928388729
activated,view,org.eclipse.ui.console,3.5.0.v20100526,"org.eclipse.ui.console.ConsoleView",1370928421852
activated,editor,org.eclipse.jdt.ui,3.6.2.r362_v20110203,"org.eclipse.jdt.ui.CompilationUnitEditor",1370928424318
deactivated,workbench,org.eclipse.ui.workbench,3.6.2.M20110210-1200,"",1370928439329
