what,kind,bundleId,bundleVersion,description,time
opened,editor,org.eclipse.ui.browser,3.3.1.r36_20101216,"org.eclipse.ui.browser.editor",1369385310807
activated,editor,org.eclipse.ui.browser,3.3.1.r36_20101216,"org.eclipse.ui.browser.editor",1369385310943
executed,command,org.eclipse.ui,3.6.2.M20110203-1100,"org.eclipse.ui.edit.copy",1369385313512
deactivated,workbench,org.eclipse.ui.workbench,3.6.2.M20110210-1200,"",1369385314404
activated,workbench,org.eclipse.ui.workbench,3.6.2.M20110210-1200,"",1369385322778
activated,view,org.eclipse.wst.server.ui,1.1.207.v20110119,"org.eclipse.wst.server.ui.ServersView",1369385322825
deactivated,workbench,org.eclipse.ui.workbench,3.6.2.M20110210-1200,"",1369385323882
activated,workbench,org.eclipse.ui.workbench,3.6.2.M20110210-1200,"",1369385325613
activated,view,org.eclipse.ui.navigator.resources,3.4.202.M20101124-0800,"org.eclipse.ui.navigator.ProjectExplorer",1369385326806
deactivated,workbench,org.eclipse.ui.workbench,3.6.2.M20110210-1200,"",1369385329533
activated,workbench,org.eclipse.ui.workbench,3.6.2.M20110210-1200,"",1369385330320
executed,command,org.eclipse.wst.server.ui,1.1.207.v20110119,"org.eclipse.wst.server.launchShortcut.run",1369385330337
activated,editor,org.eclipse.ui.browser,3.3.1.r36_20101216,"org.eclipse.ui.browser.editor",1369385331779
activated,editor,org.eclipse.jdt.ui,3.6.2.r362_v20110203,"org.eclipse.jdt.ui.CompilationUnitEditor",1369385331954
closed,editor,org.eclipse.ui.browser,3.3.1.r36_20101216,"org.eclipse.ui.browser.editor",1369385331955
deactivated,workbench,org.eclipse.ui.workbench,3.6.2.M20110210-1200,"",1369385333822
opened,editor,org.eclipse.ui.browser,3.3.1.r36_20101216,"org.eclipse.ui.browser.editor",1369385344418
activated,workbench,org.eclipse.ui.workbench,3.6.2.M20110210-1200,"",1369385344485
activated,editor,org.eclipse.ui.browser,3.3.1.r36_20101216,"org.eclipse.ui.browser.editor",1369385344525
executed,command,org.eclipse.ui,3.6.2.M20110203-1100,"org.eclipse.ui.edit.copy",1369385346129
deactivated,workbench,org.eclipse.ui.workbench,3.6.2.M20110210-1200,"",1369385346775
activated,workbench,org.eclipse.ui.workbench,3.6.2.M20110210-1200,"",1369490584317
deactivated,workbench,org.eclipse.ui.workbench,3.6.2.M20110210-1200,"",1369490585717
activated,workbench,org.eclipse.ui.workbench,3.6.2.M20110210-1200,"",1369616097422
activated,editor,org.eclipse.jdt.ui,3.6.2.r362_v20110203,"org.eclipse.jdt.ui.CompilationUnitEditor",1369616138618
closed,editor,org.eclipse.ui.browser,3.3.1.r36_20101216,"org.eclipse.ui.browser.editor",1369616138735
deactivated,workbench,org.eclipse.ui.workbench,3.6.2.M20110210-1200,"",1369616140518
activated,workbench,org.eclipse.ui.workbench,3.6.2.M20110210-1200,"",1369616140546
activated,view,org.eclipse.ui.navigator.resources,3.4.202.M20101124-0800,"org.eclipse.ui.navigator.ProjectExplorer",1369616142936
deactivated,workbench,org.eclipse.ui.workbench,3.6.2.M20110210-1200,"",1369616163520
activated,workbench,org.eclipse.ui.workbench,3.6.2.M20110210-1200,"",1369616165488
deactivated,workbench,org.eclipse.ui.workbench,3.6.2.M20110210-1200,"",1369616167482
activated,workbench,org.eclipse.ui.workbench,3.6.2.M20110210-1200,"",1369616211457
executed,command,org.eclipse.jdt.ui,3.6.2.r362_v20110203,"org.eclipse.jdt.ui.edit.text.java.rename.element",1369616211470
deactivated,workbench,org.eclipse.ui.workbench,3.6.2.M20110210-1200,"",1369616813136
activated,workbench,org.eclipse.ui.workbench,3.6.2.M20110210-1200,"",1369616970775
deactivated,workbench,org.eclipse.ui.workbench,3.6.2.M20110210-1200,"",1369616973883
activated,workbench,org.eclipse.ui.workbench,3.6.2.M20110210-1200,"",1369617127470
deactivated,workbench,org.eclipse.ui.workbench,3.6.2.M20110210-1200,"",1369617138382
activated,workbench,org.eclipse.ui.workbench,3.6.2.M20110210-1200,"",1369617139869
deactivated,workbench,org.eclipse.ui.workbench,3.6.2.M20110210-1200,"",1369617147187
activated,workbench,org.eclipse.ui.workbench,3.6.2.M20110210-1200,"",1369617159445
opened,editor,org.eclipse.jdt.ui,3.6.2.r362_v20110203,"org.eclipse.jdt.ui.CompilationUnitEditor",1369617160867
activated,editor,org.eclipse.jdt.ui,3.6.2.r362_v20110203,"org.eclipse.jdt.ui.CompilationUnitEditor",1369617162155
deactivated,workbench,org.eclipse.ui.workbench,3.6.2.M20110210-1200,"",1369617164817
activated,workbench,org.eclipse.ui.workbench,3.6.2.M20110210-1200,"",1369617174592
executed,command,org.eclipse.ui,3.6.2.M20110203-1100,"org.eclipse.ui.edit.paste",1369617176586
executed,command,org.eclipse.ui,3.6.2.M20110203-1100,"org.eclipse.ui.file.save",1369617189001
executed,command,org.eclipse.ui.workbench.texteditor,3.6.1.r361_v20100714-0800,"org.eclipse.ui.edit.text.select.lineEnd",1369617195985
executed,command,org.eclipse.ui,3.6.2.M20110203-1100,"org.eclipse.ui.file.save",1369617199042
executed,command,org.eclipse.ui,3.6.2.M20110203-1100,"org.eclipse.ui.file.save",1369617211920
executed,command,org.eclipse.ui,3.6.2.M20110203-1100,"org.eclipse.ui.file.save",1369617225971
executed,command,org.eclipse.ui,3.6.2.M20110203-1100,"org.eclipse.ui.file.save",1369617232768
deactivated,workbench,org.eclipse.ui.workbench,3.6.2.M20110210-1200,"",1369617255426
activated,workbench,org.eclipse.ui.workbench,3.6.2.M20110210-1200,"",1369617255450
activated,view,org.eclipse.ui.navigator.resources,3.4.202.M20101124-0800,"org.eclipse.ui.navigator.ProjectExplorer",1369617258441
activated,editor,org.eclipse.jdt.ui,3.6.2.r362_v20110203,"org.eclipse.jdt.ui.CompilationUnitEditor",1369617264428
executed,command,org.eclipse.jdt.ui,3.6.2.r362_v20110203,"org.eclipse.jdt.ui.edit.text.java.open.editor",1369617271132
deactivated,workbench,org.eclipse.ui.workbench,3.6.2.M20110210-1200,"",1369617308915
activated,workbench,org.eclipse.ui.workbench,3.6.2.M20110210-1200,"",1369617315397
executed,command,org.eclipse.jdt.ui,3.6.2.r362_v20110203,"org.eclipse.jdt.ui.edit.text.java.introduce.parameter.object",1369617315410
deactivated,workbench,org.eclipse.ui.workbench,3.6.2.M20110210-1200,"",1369617316642
activated,workbench,org.eclipse.ui.workbench,3.6.2.M20110210-1200,"",1369617339580
deactivated,workbench,org.eclipse.ui.workbench,3.6.2.M20110210-1200,"",1369617352775
activated,workbench,org.eclipse.ui.workbench,3.6.2.M20110210-1200,"",1369617365034
executed,command,org.eclipse.ui,3.6.2.M20110203-1100,"org.eclipse.ui.edit.paste",1369617367252
executed,command,org.eclipse.ui,3.6.2.M20110203-1100,"org.eclipse.ui.file.save",1369617373988
executed,command,org.eclipse.ui,3.6.2.M20110203-1100,"org.eclipse.ui.file.save",1369617382080
executed,command,org.eclipse.ui,3.6.2.M20110203-1100,"org.eclipse.ui.edit.copy",1369617387975
executed,command,org.eclipse.ui,3.6.2.M20110203-1100,"org.eclipse.ui.edit.paste",1369617390256
executed,command,org.eclipse.ui,3.6.2.M20110203-1100,"org.eclipse.ui.edit.paste",1369617393833
executed,command,org.eclipse.ui,3.6.2.M20110203-1100,"org.eclipse.ui.file.save",1369617395171
executed,command,org.eclipse.ui,3.6.2.M20110203-1100,"org.eclipse.ui.file.save",1369617402458
executed,command,org.eclipse.ui,3.6.2.M20110203-1100,"org.eclipse.ui.edit.paste",1369617406230
executed,command,org.eclipse.ui,3.6.2.M20110203-1100,"org.eclipse.ui.file.save",1369617425054
executed,command,org.eclipse.ui,3.6.2.M20110203-1100,"org.eclipse.ui.file.save",1369617436444
executed,command,org.eclipse.ui,3.6.2.M20110203-1100,"org.eclipse.ui.file.save",1369617438065
executed,command,org.eclipse.ui.workbench.texteditor,3.6.1.r361_v20100714-0800,"org.eclipse.ui.edit.text.select.lineEnd",1369617442210
executed,command,org.eclipse.ui.workbench.texteditor,3.6.1.r361_v20100714-0800,"org.eclipse.ui.edit.text.select.lineStart",1369617442222
executed,command,org.eclipse.ui.workbench.texteditor,3.6.1.r361_v20100714-0800,"org.eclipse.ui.edit.text.select.lineStart",1369617445339
executed,command,org.eclipse.ui,3.6.2.M20110203-1100,"org.eclipse.ui.file.save",1369617446937
activated,editor,org.eclipse.jdt.ui,3.6.2.r362_v20110203,"org.eclipse.jdt.ui.CompilationUnitEditor",1369617453546
deactivated,workbench,org.eclipse.ui.workbench,3.6.2.M20110210-1200,"",1369617495913
activated,workbench,org.eclipse.ui.workbench,3.6.2.M20110210-1200,"",1369617525605
executed,command,org.eclipse.ui,3.6.2.M20110203-1100,"org.eclipse.ui.edit.paste",1369617530676
executed,command,org.eclipse.ui,3.6.2.M20110203-1100,"org.eclipse.ui.file.save",1369617531392
executed,command,org.eclipse.ui,3.6.2.M20110203-1100,"org.eclipse.ui.file.save",1369617539834
executed,command,org.eclipse.ui.ide,3.6.2.M20101201-0800,"org.eclipse.jdt.ui.edit.text.java.correction.assist.proposals",1369617544629
executed,command,org.eclipse.ui,3.6.2.M20110203-1100,"org.eclipse.ui.edit.copy",1369617553444
deactivated,workbench,org.eclipse.ui.workbench,3.6.2.M20110210-1200,"",1369617554732
activated,workbench,org.eclipse.ui.workbench,3.6.2.M20110210-1200,"",1369617559818
executed,command,org.eclipse.ui,3.6.2.M20110203-1100,"org.eclipse.ui.edit.undo",1369617560675
executed,command,org.eclipse.ui,3.6.2.M20110203-1100,"org.eclipse.ui.edit.undo",1369617560998
executed,command,org.eclipse.ui,3.6.2.M20110203-1100,"org.eclipse.ui.edit.undo",1369617561360
executed,command,org.eclipse.ui,3.6.2.M20110203-1100,"org.eclipse.ui.edit.redo",1369617563794
executed,command,org.eclipse.ui,3.6.2.M20110203-1100,"org.eclipse.ui.edit.copy",1369617570411
executed,command,org.eclipse.ui,3.6.2.M20110203-1100,"org.eclipse.ui.file.save",1369617577693
deactivated,workbench,org.eclipse.ui.workbench,3.6.2.M20110210-1200,"",1369617580173
activated,workbench,org.eclipse.ui.workbench,3.6.2.M20110210-1200,"",1369617700296
activated,editor,org.eclipse.jdt.ui,3.6.2.r362_v20110203,"org.eclipse.jdt.ui.CompilationUnitEditor",1369617700566
activated,editor,org.eclipse.jdt.ui,3.6.2.r362_v20110203,"org.eclipse.jdt.ui.CompilationUnitEditor",1369617701696
deactivated,workbench,org.eclipse.ui.workbench,3.6.2.M20110210-1200,"",1369617707412
activated,workbench,org.eclipse.ui.workbench,3.6.2.M20110210-1200,"",1369617953464
executed,command,org.eclipse.ui,3.6.2.M20110203-1100,"org.eclipse.ui.file.save",1369618011062
executed,command,org.eclipse.ui,3.6.2.M20110203-1100,"org.eclipse.ui.edit.copy",1369618017442
executed,command,org.eclipse.ui,3.6.2.M20110203-1100,"org.eclipse.ui.edit.paste",1369618019258
executed,command,org.eclipse.ui,3.6.2.M20110203-1100,"org.eclipse.ui.file.save",1369618032115
deactivated,workbench,org.eclipse.ui.workbench,3.6.2.M20110210-1200,"",1369618049578
activated,workbench,org.eclipse.ui.workbench,3.6.2.M20110210-1200,"",1369618134623
executed,command,org.eclipse.ui,3.6.2.M20110203-1100,"org.eclipse.ui.file.save",1369618150979
executed,command,org.eclipse.ui,3.6.2.M20110203-1100,"org.eclipse.ui.file.save",1369618160808
deactivated,workbench,org.eclipse.ui.workbench,3.6.2.M20110210-1200,"",1369618162102
activated,workbench,org.eclipse.ui.workbench,3.6.2.M20110210-1200,"",1369618168443
executed,command,org.eclipse.ui.workbench.texteditor,3.6.1.r361_v20100714-0800,"org.eclipse.ui.edit.text.select.lineStart",1369618194798
deactivated,workbench,org.eclipse.ui.workbench,3.6.2.M20110210-1200,"",1369618215790
activated,workbench,org.eclipse.ui.workbench,3.6.2.M20110210-1200,"",1369618356324
deactivated,workbench,org.eclipse.ui.workbench,3.6.2.M20110210-1200,"",1369618358379
activated,workbench,org.eclipse.ui.workbench,3.6.2.M20110210-1200,"",1369618364963
deactivated,workbench,org.eclipse.ui.workbench,3.6.2.M20110210-1200,"",1369618383492
activated,workbench,org.eclipse.ui.workbench,3.6.2.M20110210-1200,"",1369618496202
activated,editor,org.eclipse.jdt.ui,3.6.2.r362_v20110203,"org.eclipse.jdt.ui.CompilationUnitEditor",1369618497691
executed,command,org.eclipse.ui,3.6.2.M20110203-1100,"org.eclipse.ui.edit.paste",1369618501403
executed,command,org.eclipse.ui,3.6.2.M20110203-1100,"org.eclipse.ui.edit.delete",1369618521415
executed,command,org.eclipse.ui,3.6.2.M20110203-1100,"org.eclipse.ui.edit.delete",1369618521849
executed,command,org.eclipse.ui,3.6.2.M20110203-1100,"org.eclipse.ui.edit.delete",1369618521884
executed,command,org.eclipse.ui,3.6.2.M20110203-1100,"org.eclipse.ui.edit.delete",1369618521916
executed,command,org.eclipse.ui,3.6.2.M20110203-1100,"org.eclipse.ui.edit.delete",1369618521950
executed,command,org.eclipse.ui,3.6.2.M20110203-1100,"org.eclipse.ui.edit.delete",1369618521982
executed,command,org.eclipse.ui,3.6.2.M20110203-1100,"org.eclipse.ui.edit.delete",1369618522014
executed,command,org.eclipse.ui,3.6.2.M20110203-1100,"org.eclipse.ui.edit.delete",1369618522047
executed,command,org.eclipse.ui,3.6.2.M20110203-1100,"org.eclipse.ui.edit.delete",1369618522080
executed,command,org.eclipse.ui,3.6.2.M20110203-1100,"org.eclipse.ui.edit.delete",1369618522112
executed,command,org.eclipse.ui,3.6.2.M20110203-1100,"org.eclipse.ui.edit.delete",1369618522145
executed,command,org.eclipse.ui,3.6.2.M20110203-1100,"org.eclipse.ui.edit.delete",1369618522179
executed,command,org.eclipse.ui,3.6.2.M20110203-1100,"org.eclipse.ui.edit.delete",1369618522211
executed,command,org.eclipse.ui,3.6.2.M20110203-1100,"org.eclipse.ui.edit.delete",1369618522242
executed,command,org.eclipse.ui,3.6.2.M20110203-1100,"org.eclipse.ui.edit.delete",1369618522276
executed,command,org.eclipse.ui,3.6.2.M20110203-1100,"org.eclipse.ui.edit.delete",1369618522309
executed,command,org.eclipse.ui,3.6.2.M20110203-1100,"org.eclipse.ui.edit.delete",1369618522339
executed,command,org.eclipse.ui,3.6.2.M20110203-1100,"org.eclipse.ui.edit.delete",1369618522372
executed,command,org.eclipse.ui,3.6.2.M20110203-1100,"org.eclipse.ui.edit.delete",1369618522407
executed,command,org.eclipse.ui,3.6.2.M20110203-1100,"org.eclipse.ui.edit.delete",1369618522439
executed,command,org.eclipse.ui,3.6.2.M20110203-1100,"org.eclipse.ui.edit.delete",1369618522583
executed,command,org.eclipse.ui,3.6.2.M20110203-1100,"org.eclipse.ui.edit.delete",1369618522763
executed,command,org.eclipse.ui,3.6.2.M20110203-1100,"org.eclipse.ui.edit.delete",1369618522933
executed,command,org.eclipse.ui,3.6.2.M20110203-1100,"org.eclipse.ui.edit.delete",1369618523116
executed,command,org.eclipse.ui,3.6.2.M20110203-1100,"org.eclipse.ui.edit.delete",1369618523526
executed,command,org.eclipse.ui,3.6.2.M20110203-1100,"org.eclipse.ui.edit.delete",1369618524055
executed,command,org.eclipse.ui,3.6.2.M20110203-1100,"org.eclipse.ui.edit.delete",1369618524497
executed,command,org.eclipse.ui,3.6.2.M20110203-1100,"org.eclipse.ui.edit.delete",1369618524834
executed,command,org.eclipse.ui,3.6.2.M20110203-1100,"org.eclipse.ui.file.save",1369618534833
deactivated,workbench,org.eclipse.ui.workbench,3.6.2.M20110210-1200,"",1369618547489
activated,workbench,org.eclipse.ui.workbench,3.6.2.M20110210-1200,"",1369618659327
deactivated,workbench,org.eclipse.ui.workbench,3.6.2.M20110210-1200,"",1369618661951
activated,workbench,org.eclipse.ui.workbench,3.6.2.M20110210-1200,"",1369618744350
activated,editor,org.eclipse.jdt.ui,3.6.2.r362_v20110203,"org.eclipse.jdt.ui.CompilationUnitEditor",1369618746753
executed,command,org.eclipse.ui.workbench.texteditor,3.6.1.r361_v20100714-0800,"org.eclipse.ui.edit.text.select.lineEnd",1369618765884
executed,command,org.eclipse.ui,3.6.2.M20110203-1100,"org.eclipse.ui.edit.cut",1369618766821
executed,command,org.eclipse.ui.workbench.texteditor,3.6.1.r361_v20100714-0800,"org.eclipse.ui.edit.text.goto.lineEnd",1369618768219
executed,command,org.eclipse.ui,3.6.2.M20110203-1100,"org.eclipse.ui.edit.paste",1369618770784
executed,command,org.eclipse.ui,3.6.2.M20110203-1100,"org.eclipse.ui.file.save",1369618771326
executed,command,org.eclipse.ui,3.6.2.M20110203-1100,"org.eclipse.ui.file.save",1369618773547
executed,command,org.eclipse.ui,3.6.2.M20110203-1100,"org.eclipse.ui.edit.copy",1369618781144
executed,command,org.eclipse.ui,3.6.2.M20110203-1100,"org.eclipse.ui.edit.paste",1369618782598
executed,command,org.eclipse.ui,3.6.2.M20110203-1100,"org.eclipse.ui.file.save",1369618785004
executed,command,org.eclipse.ui,3.6.2.M20110203-1100,"org.eclipse.ui.file.save",1369618793736
executed,command,org.eclipse.ui.workbench.texteditor,3.6.1.r361_v20100714-0800,"org.eclipse.ui.edit.text.select.lineStart",1369618801268
executed,command,org.eclipse.ui.workbench.texteditor,3.6.1.r361_v20100714-0800,"org.eclipse.ui.edit.text.select.lineEnd",1369618803290
executed,command,org.eclipse.ui,3.6.2.M20110203-1100,"org.eclipse.ui.edit.copy",1369618804320
executed,command,org.eclipse.ui.workbench.texteditor,3.6.1.r361_v20100714-0800,"org.eclipse.ui.edit.text.goto.lineEnd",1369618805075
executed,command,org.eclipse.ui,3.6.2.M20110203-1100,"org.eclipse.ui.edit.paste",1369618805977
executed,command,org.eclipse.ui,3.6.2.M20110203-1100,"org.eclipse.ui.file.save",1369618847270
deactivated,workbench,org.eclipse.ui.workbench,3.6.2.M20110210-1200,"",1369618874054
activated,workbench,org.eclipse.ui.workbench,3.6.2.M20110210-1200,"",1369619388003
activated,view,org.eclipse.wst.server.ui,1.1.207.v20110119,"org.eclipse.wst.server.ui.ServersView",1369619393024
deactivated,workbench,org.eclipse.ui.workbench,3.6.2.M20110210-1200,"",1369619398183
activated,workbench,org.eclipse.ui.workbench,3.6.2.M20110210-1200,"",1369619400892
error,log,,,"Could not delete C:\\Users\\ncarumba\\repos\\project-pedigree-import\\web_service\\.metadata\\.plugins\\org.eclipse.wst.server.core\\tmp0\\wtpwebapps\\ws\\WEB-INF\\lib\\jersey-bundle-1.14.jar. May be locked by another process.",1369619401165
deactivated,workbench,org.eclipse.ui.workbench,3.6.2.M20110210-1200,"",1369619401222
activated,workbench,org.eclipse.ui.workbench,3.6.2.M20110210-1200,"",1369619403782
deactivated,workbench,org.eclipse.ui.workbench,3.6.2.M20110210-1200,"",1369619407542
activated,workbench,org.eclipse.ui.workbench,3.6.2.M20110210-1200,"",1369619407756
activated,view,org.eclipse.ui.console,3.5.0.v20100526,"org.eclipse.ui.console.ConsoleView",1369619407843
activated,view,org.eclipse.wst.server.ui,1.1.207.v20110119,"org.eclipse.wst.server.ui.ServersView",1369619416526
deactivated,workbench,org.eclipse.ui.workbench,3.6.2.M20110210-1200,"",1369619418446
activated,workbench,org.eclipse.ui.workbench,3.6.2.M20110210-1200,"",1369619425419
activated,editor,org.eclipse.ui.browser,3.3.1.r36_20101216,"org.eclipse.ui.browser.editor",1369619427885
activated,editor,org.eclipse.jdt.ui,3.6.2.r362_v20110203,"org.eclipse.jdt.ui.CompilationUnitEditor",1369619430473
closed,editor,org.eclipse.ui.browser,3.3.1.r36_20101216,"org.eclipse.ui.browser.editor",1369619430474
activated,view,org.eclipse.wst.server.ui,1.1.207.v20110119,"org.eclipse.wst.server.ui.ServersView",1369619431803
deactivated,workbench,org.eclipse.ui.workbench,3.6.2.M20110210-1200,"",1369619433529
activated,workbench,org.eclipse.ui.workbench,3.6.2.M20110210-1200,"",1369619434929
activated,view,org.eclipse.ui.navigator.resources,3.4.202.M20101124-0800,"org.eclipse.ui.navigator.ProjectExplorer",1369619436104
deactivated,workbench,org.eclipse.ui.workbench,3.6.2.M20110210-1200,"",1369619439464
activated,workbench,org.eclipse.ui.workbench,3.6.2.M20110210-1200,"",1369619441265
executed,command,org.eclipse.wst.server.ui,1.1.207.v20110119,"org.eclipse.wst.server.launchShortcut.run",1369619441274
deactivated,workbench,org.eclipse.ui.workbench,3.6.2.M20110210-1200,"",1369619444430
opened,editor,org.eclipse.ui.browser,3.3.1.r36_20101216,"org.eclipse.ui.browser.editor",1369619453397
activated,workbench,org.eclipse.ui.workbench,3.6.2.M20110210-1200,"",1369619453600
activated,editor,org.eclipse.ui.browser,3.3.1.r36_20101216,"org.eclipse.ui.browser.editor",1369619453612
activated,workbench,org.eclipse.ui.workbench,3.6.2.M20110210-1200,"",1369622171440
activated,editor,org.eclipse.jdt.ui,3.6.2.r362_v20110203,"org.eclipse.jdt.ui.CompilationUnitEditor",1369622182439
activated,editor,org.eclipse.jdt.ui,3.6.2.r362_v20110203,"org.eclipse.jdt.ui.CompilationUnitEditor",1369622190921
activated,editor,org.eclipse.jdt.ui,3.6.2.r362_v20110203,"org.eclipse.jdt.ui.CompilationUnitEditor",1369622193820
activated,editor,org.eclipse.ui.browser,3.3.1.r36_20101216,"org.eclipse.ui.browser.editor",1369622202386
activated,editor,org.eclipse.wst.xml.ui,1.1.103.v201101122108,"org.eclipse.wst.xml.ui.internal.tabletree.XMLMultiPageEditorPart",1369622205453
closed,editor,org.eclipse.jdt.ui,3.6.2.r362_v20110203,"org.eclipse.jdt.ui.CompilationUnitEditor",1369622207235
deactivated,workbench,org.eclipse.ui.workbench,3.6.2.M20110210-1200,"",1369622339981
activated,workbench,org.eclipse.ui.workbench,3.6.2.M20110210-1200,"",1369622356309
activated,editor,org.eclipse.jdt.ui,3.6.2.r362_v20110203,"org.eclipse.jdt.ui.CompilationUnitEditor",1369622357356
executed,command,org.eclipse.ui,3.6.2.M20110203-1100,"org.eclipse.ui.file.save",1369622374743
executed,command,,,"AUTOGEN:::org.eclipse.jdt.internal.ui.CompilationUnitEditor.ruler.actions/org.eclipse.jdt.internal.ui.javaeditor.JavaSelectRulerAction",1369622379835
deactivated,workbench,org.eclipse.ui.workbench,3.6.2.M20110210-1200,"",1369622383588
activated,workbench,org.eclipse.ui.workbench,3.6.2.M20110210-1200,"",1369622386400
executed,command,org.eclipse.ui,3.6.2.M20110203-1100,"org.eclipse.ui.edit.delete",1369622397609
executed,command,org.eclipse.ui,3.6.2.M20110203-1100,"org.eclipse.ui.file.save",1369622405316
closed,editor,org.eclipse.ui.browser,3.3.1.r36_20101216,"org.eclipse.ui.browser.editor",1369622410593
activated,view,org.eclipse.ui.navigator.resources,3.4.202.M20101124-0800,"org.eclipse.ui.navigator.ProjectExplorer",1369622412279
activated,editor,org.eclipse.jdt.ui,3.6.2.r362_v20110203,"org.eclipse.jdt.ui.CompilationUnitEditor",1369622415500
activated,view,org.eclipse.wst.server.ui,1.1.207.v20110119,"org.eclipse.wst.server.ui.ServersView",1369622415634
deactivated,workbench,org.eclipse.ui.workbench,3.6.2.M20110210-1200,"",1369622420979
activated,workbench,org.eclipse.ui.workbench,3.6.2.M20110210-1200,"",1369622423034
deactivated,workbench,org.eclipse.ui.workbench,3.6.2.M20110210-1200,"",1369622424201
error,log,,,"Could not delete C:\\Users\\ncarumba\\repos\\project-pedigree-import\\web_service\\.metadata\\.plugins\\org.eclipse.wst.server.core\\tmp0\\wtpwebapps\\ws\\WEB-INF\\lib\\jersey-bundle-1.14.jar. May be locked by another process.",1369622424242
activated,workbench,org.eclipse.ui.workbench,3.6.2.M20110210-1200,"",1369622424574
activated,view,org.eclipse.ui.navigator.resources,3.4.202.M20101124-0800,"org.eclipse.ui.navigator.ProjectExplorer",1369622424586
deactivated,workbench,org.eclipse.ui.workbench,3.6.2.M20110210-1200,"",1369622425659
activated,workbench,org.eclipse.ui.workbench,3.6.2.M20110210-1200,"",1369622425832
deactivated,workbench,org.eclipse.ui.workbench,3.6.2.M20110210-1200,"",1369622430376
activated,workbench,org.eclipse.ui.workbench,3.6.2.M20110210-1200,"",1369622431609
executed,command,org.eclipse.wst.server.ui,1.1.207.v20110119,"org.eclipse.wst.server.launchShortcut.run",1369622431617
activated,view,org.eclipse.wst.server.ui,1.1.207.v20110119,"org.eclipse.wst.server.ui.ServersView",1369622435293
activated,view,org.eclipse.ui.console,3.5.0.v20100526,"org.eclipse.ui.console.ConsoleView",1369622435888
activated,view,org.eclipse.wst.server.ui,1.1.207.v20110119,"org.eclipse.wst.server.ui.ServersView",1369622437154
activated,view,org.eclipse.ui.console,3.5.0.v20100526,"org.eclipse.ui.console.ConsoleView",1369622437199
activated,view,org.eclipse.wst.server.ui,1.1.207.v20110119,"org.eclipse.wst.server.ui.ServersView",1369622437601
activated,view,org.eclipse.ui.console,3.5.0.v20100526,"org.eclipse.ui.console.ConsoleView",1369622439855
deactivated,workbench,org.eclipse.ui.workbench,3.6.2.M20110210-1200,"",1369622440299
activated,view,org.eclipse.wst.server.ui,1.1.207.v20110119,"org.eclipse.wst.server.ui.ServersView",1369622441118
opened,editor,org.eclipse.ui.browser,3.3.1.r36_20101216,"org.eclipse.ui.browser.editor",1369622441464
activated,editor,org.eclipse.ui.browser,3.3.1.r36_20101216,"org.eclipse.ui.browser.editor",1369622441499
activated,workbench,org.eclipse.ui.workbench,3.6.2.M20110210-1200,"",1369622442033
executed,command,org.eclipse.ui,3.6.2.M20110203-1100,"org.eclipse.ui.edit.copy",1369622443880
deactivated,workbench,org.eclipse.ui.workbench,3.6.2.M20110210-1200,"",1369622446771
activated,workbench,org.eclipse.ui.workbench,3.6.2.M20110210-1200,"",1369622459066
activated,view,org.eclipse.wst.server.ui,1.1.207.v20110119,"org.eclipse.wst.server.ui.ServersView",1369622459099
deactivated,workbench,org.eclipse.ui.workbench,3.6.2.M20110210-1200,"",1369622460455
activated,workbench,org.eclipse.ui.workbench,3.6.2.M20110210-1200,"",1369622462207
activated,editor,org.eclipse.ui.browser,3.3.1.r36_20101216,"org.eclipse.ui.browser.editor",1369622464816
activated,editor,org.eclipse.jdt.ui,3.6.2.r362_v20110203,"org.eclipse.jdt.ui.CompilationUnitEditor",1369622464942
closed,editor,org.eclipse.ui.browser,3.3.1.r36_20101216,"org.eclipse.ui.browser.editor",1369622464942
activated,view,org.eclipse.ui.navigator.resources,3.4.202.M20101124-0800,"org.eclipse.ui.navigator.ProjectExplorer",1369622465831
deactivated,workbench,org.eclipse.ui.workbench,3.6.2.M20110210-1200,"",1369622468452
activated,workbench,org.eclipse.ui.workbench,3.6.2.M20110210-1200,"",1369622469634
executed,command,org.eclipse.wst.server.ui,1.1.207.v20110119,"org.eclipse.wst.server.launchShortcut.run",1369622469640
deactivated,workbench,org.eclipse.ui.workbench,3.6.2.M20110210-1200,"",1369622472459
opened,editor,org.eclipse.ui.browser,3.3.1.r36_20101216,"org.eclipse.ui.browser.editor",1369622477633
activated,workbench,org.eclipse.ui.workbench,3.6.2.M20110210-1200,"",1369622477658
activated,editor,org.eclipse.ui.browser,3.3.1.r36_20101216,"org.eclipse.ui.browser.editor",1369622477668
activated,editor,org.eclipse.jdt.ui,3.6.2.r362_v20110203,"org.eclipse.jdt.ui.CompilationUnitEditor",1369622528974
activated,editor,org.eclipse.jdt.ui,3.6.2.r362_v20110203,"org.eclipse.jdt.ui.CompilationUnitEditor",1369622530360
activated,editor,org.eclipse.jdt.ui,3.6.2.r362_v20110203,"org.eclipse.jdt.ui.CompilationUnitEditor",1369622532114
executed,command,org.eclipse.ui,3.6.2.M20110203-1100,"org.eclipse.ui.edit.undo",1369622537209
executed,command,org.eclipse.ui,3.6.2.M20110203-1100,"org.eclipse.ui.edit.undo",1369622538199
executed,command,org.eclipse.ui,3.6.2.M20110203-1100,"org.eclipse.ui.edit.undo",1369622539532
executed,command,org.eclipse.ui,3.6.2.M20110203-1100,"org.eclipse.ui.edit.redo",1369622541957
executed,command,org.eclipse.ui,3.6.2.M20110203-1100,"org.eclipse.ui.edit.redo",1369622542089
executed,command,org.eclipse.ui,3.6.2.M20110203-1100,"org.eclipse.ui.edit.redo",1369622542240
executed,command,org.eclipse.ui,3.6.2.M20110203-1100,"org.eclipse.ui.file.save",1369622549239
deactivated,workbench,org.eclipse.ui.workbench,3.6.2.M20110210-1200,"",1369622561592
activated,workbench,org.eclipse.ui.workbench,3.6.2.M20110210-1200,"",1369622600401
deactivated,workbench,org.eclipse.ui.workbench,3.6.2.M20110210-1200,"",1369622604091
activated,workbench,org.eclipse.ui.workbench,3.6.2.M20110210-1200,"",1369622740787
executed,command,org.eclipse.ui,3.6.2.M20110203-1100,"org.eclipse.ui.file.save",1369622748374
executed,command,org.eclipse.ui,3.6.2.M20110203-1100,"org.eclipse.ui.file.save",1369622753482
